<?xml version="1.0" encoding="utf-8"  standalone="no"?>
<svg 
 width="600" height="480"
 viewBox="0 0 600 480"
 xmlns="http://www.w3.org/2000/svg"
 xmlns:xlink="http://www.w3.org/1999/xlink"
>

<title>Gnuplot</title>
<desc>Produced by GNUPLOT 5.2 patchlevel 8 </desc>

<g id="gnuplot_canvas">

<rect x="0" y="0" width="600" height="480" fill="#ffffff"/>
<defs>

	<circle id='gpDot' r='0.5' stroke-width='0.5' stroke='currentColor'/>
	<path id='gpPt0' stroke-width='0.148' stroke='currentColor' d='M-1,0 h2 M0,-1 v2'/>
	<path id='gpPt1' stroke-width='0.148' stroke='currentColor' d='M-1,-1 L1,1 M1,-1 L-1,1'/>
	<path id='gpPt2' stroke-width='0.148' stroke='currentColor' d='M-1,0 L1,0 M0,-1 L0,1 M-1,-1 L1,1 M-1,1 L1,-1'/>
	<rect id='gpPt3' stroke-width='0.148' stroke='currentColor' x='-1' y='-1' width='2' height='2'/>
	<rect id='gpPt4' stroke-width='0.148' stroke='currentColor' fill='currentColor' x='-1' y='-1' width='2' height='2'/>
	<circle id='gpPt5' stroke-width='0.148' stroke='currentColor' cx='0' cy='0' r='1'/>
	<use xlink:href='#gpPt5' id='gpPt6' fill='currentColor' stroke='none'/>
	<path id='gpPt7' stroke-width='0.148' stroke='currentColor' d='M0,-1.33 L-1.33,0.67 L1.33,0.67 z'/>
	<use xlink:href='#gpPt7' id='gpPt8' fill='currentColor' stroke='none'/>
	<use xlink:href='#gpPt7' id='gpPt9' stroke='currentColor' transform='rotate(180)'/>
	<use xlink:href='#gpPt9' id='gpPt10' fill='currentColor' stroke='none'/>
	<use xlink:href='#gpPt3' id='gpPt11' stroke='currentColor' transform='rotate(45)'/>
	<use xlink:href='#gpPt11' id='gpPt12' fill='currentColor' stroke='none'/>
	<path id='gpPt13' stroke-width='0.148' stroke='currentColor' d='M0,1.330 L1.265,0.411 L0.782,-1.067 L-0.782,-1.076 L-1.265,0.411 z'/>
	<use xlink:href='#gpPt13' id='gpPt14' fill='currentColor' stroke='none'/>
	<filter id='textbox' filterUnits='objectBoundingBox' x='0' y='0' height='1' width='1'>
	  <feFlood flood-color='#FFFFFF' flood-opacity='1' result='bgnd'/>
	  <feComposite in='SourceGraphic' in2='bgnd' operator='atop'/>
	</filter>
	<filter id='greybox' filterUnits='objectBoundingBox' x='0' y='0' height='1' width='1'>
	  <feFlood flood-color='lightgrey' flood-opacity='1' result='grey'/>
	  <feComposite in='SourceGraphic' in2='grey' operator='atop'/>
	</filter>
</defs>
<g fill="none" color="#FFFFFF" stroke="currentColor" stroke-width="1.00" stroke-linecap="butt" stroke-linejoin="miter">
</g>
<g fill="none" color="black" stroke="currentColor" stroke-width="1.00" stroke-linecap="butt" stroke-linejoin="miter">
	<path stroke='black'  d='M108.9,393.6 L122.4,393.6 M562.1,393.6 L548.6,393.6  '/>	<g transform="translate(96.3,399.5)" stroke="none" fill="black" font-family="Helvetica" font-size="18.00"  text-anchor="end">
		<text><tspan font-family="Helvetica" >-1</tspan></text>
	</g>
</g>
<g fill="none" color="black" stroke="currentColor" stroke-width="1.00" stroke-linecap="butt" stroke-linejoin="miter">
	<path stroke='black'  d='M108.9,362.3 L122.4,362.3 M562.1,362.3 L548.6,362.3  '/>	<g transform="translate(96.3,368.2)" stroke="none" fill="black" font-family="Helvetica" font-size="18.00"  text-anchor="end">
		<text><tspan font-family="Helvetica" >-0.8</tspan></text>
	</g>
</g>
<g fill="none" color="black" stroke="currentColor" stroke-width="1.00" stroke-linecap="butt" stroke-linejoin="miter">
	<path stroke='black'  d='M108.9,331.1 L122.4,331.1 M562.1,331.1 L548.6,331.1  '/>	<g transform="translate(96.3,337.0)" stroke="none" fill="black" font-family="Helvetica" font-size="18.00"  text-anchor="end">
		<text><tspan font-family="Helvetica" >-0.6</tspan></text>
	</g>
</g>
<g fill="none" color="black" stroke="currentColor" stroke-width="1.00" stroke-linecap="butt" stroke-linejoin="miter">
	<path stroke='black'  d='M108.9,299.9 L122.4,299.9 M562.1,299.9 L548.6,299.9  '/>	<g transform="translate(96.3,305.8)" stroke="none" fill="black" font-family="Helvetica" font-size="18.00"  text-anchor="end">
		<text><tspan font-family="Helvetica" >-0.4</tspan></text>
	</g>
</g>
<g fill="none" color="black" stroke="currentColor" stroke-width="1.00" stroke-linecap="butt" stroke-linejoin="miter">
	<path stroke='black'  d='M108.9,268.6 L122.4,268.6 M562.1,268.6 L548.6,268.6  '/>	<g transform="translate(96.3,274.5)" stroke="none" fill="black" font-family="Helvetica" font-size="18.00"  text-anchor="end">
		<text><tspan font-family="Helvetica" >-0.2</tspan></text>
	</g>
</g>
<g fill="none" color="black" stroke="currentColor" stroke-width="1.00" stroke-linecap="butt" stroke-linejoin="miter">
	<path stroke='black'  d='M108.9,237.3 L122.4,237.3 M562.1,237.3 L548.6,237.3  '/>	<g transform="translate(96.3,243.2)" stroke="none" fill="black" font-family="Helvetica" font-size="18.00"  text-anchor="end">
		<text><tspan font-family="Helvetica" > 0</tspan></text>
	</g>
</g>
<g fill="none" color="black" stroke="currentColor" stroke-width="1.00" stroke-linecap="butt" stroke-linejoin="miter">
	<path stroke='black'  d='M108.9,206.1 L122.4,206.1 M562.1,206.1 L548.6,206.1  '/>	<g transform="translate(96.3,212.0)" stroke="none" fill="black" font-family="Helvetica" font-size="18.00"  text-anchor="end">
		<text><tspan font-family="Helvetica" > 0.2</tspan></text>
	</g>
</g>
<g fill="none" color="black" stroke="currentColor" stroke-width="1.00" stroke-linecap="butt" stroke-linejoin="miter">
	<path stroke='black'  d='M108.9,174.8 L122.4,174.8 M562.1,174.8 L548.6,174.8  '/>	<g transform="translate(96.3,180.7)" stroke="none" fill="black" font-family="Helvetica" font-size="18.00"  text-anchor="end">
		<text><tspan font-family="Helvetica" > 0.4</tspan></text>
	</g>
</g>
<g fill="none" color="black" stroke="currentColor" stroke-width="1.00" stroke-linecap="butt" stroke-linejoin="miter">
	<path stroke='black'  d='M108.9,143.6 L122.4,143.6 M562.1,143.6 L548.6,143.6  '/>	<g transform="translate(96.3,149.5)" stroke="none" fill="black" font-family="Helvetica" font-size="18.00"  text-anchor="end">
		<text><tspan font-family="Helvetica" > 0.6</tspan></text>
	</g>
</g>
<g fill="none" color="black" stroke="currentColor" stroke-width="1.00" stroke-linecap="butt" stroke-linejoin="miter">
	<path stroke='black'  d='M108.9,112.3 L122.4,112.3 M562.1,112.3 L548.6,112.3  '/>	<g transform="translate(96.3,118.2)" stroke="none" fill="black" font-family="Helvetica" font-size="18.00"  text-anchor="end">
		<text><tspan font-family="Helvetica" > 0.8</tspan></text>
	</g>
</g>
<g fill="none" color="black" stroke="currentColor" stroke-width="1.00" stroke-linecap="butt" stroke-linejoin="miter">
	<path stroke='black'  d='M108.9,81.1 L122.4,81.1 M562.1,81.1 L548.6,81.1  '/>	<g transform="translate(96.3,87.0)" stroke="none" fill="black" font-family="Helvetica" font-size="18.00"  text-anchor="end">
		<text><tspan font-family="Helvetica" > 1</tspan></text>
	</g>
</g>
<g fill="none" color="black" stroke="currentColor" stroke-width="1.00" stroke-linecap="butt" stroke-linejoin="miter">
	<path stroke='black'  d='M108.9,393.6 L108.9,380.1 M108.9,81.1 L108.9,94.6  '/>	<g transform="translate(108.9,426.5)" stroke="none" fill="black" font-family="Helvetica" font-size="18.00"  text-anchor="middle">
		<text><tspan font-family="Helvetica" >-3</tspan></text>
	</g>
</g>
<g fill="none" color="black" stroke="currentColor" stroke-width="1.00" stroke-linecap="butt" stroke-linejoin="miter">
	<path stroke='black'  d='M173.6,393.6 L173.6,380.1 M173.6,81.1 L173.6,94.6  '/>	<g transform="translate(173.6,426.5)" stroke="none" fill="black" font-family="Helvetica" font-size="18.00"  text-anchor="middle">
		<text><tspan font-family="Helvetica" >-2</tspan></text>
	</g>
</g>
<g fill="none" color="black" stroke="currentColor" stroke-width="1.00" stroke-linecap="butt" stroke-linejoin="miter">
	<path stroke='black'  d='M238.4,393.6 L238.4,380.1 M238.4,81.1 L238.4,94.6  '/>	<g transform="translate(238.4,426.5)" stroke="none" fill="black" font-family="Helvetica" font-size="18.00"  text-anchor="middle">
		<text><tspan font-family="Helvetica" >-1</tspan></text>
	</g>
</g>
<g fill="none" color="black" stroke="currentColor" stroke-width="1.00" stroke-linecap="butt" stroke-linejoin="miter">
	<path stroke='black'  d='M303.1,393.6 L303.1,380.1 M303.1,81.1 L303.1,94.6  '/>	<g transform="translate(303.1,426.5)" stroke="none" fill="black" font-family="Helvetica" font-size="18.00"  text-anchor="middle">
		<text><tspan font-family="Helvetica" > 0</tspan></text>
	</g>
</g>
<g fill="none" color="black" stroke="currentColor" stroke-width="1.00" stroke-linecap="butt" stroke-linejoin="miter">
	<path stroke='black'  d='M367.9,393.6 L367.9,380.1 M367.9,81.1 L367.9,94.6  '/>	<g transform="translate(367.9,426.5)" stroke="none" fill="black" font-family="Helvetica" font-size="18.00"  text-anchor="middle">
		<text><tspan font-family="Helvetica" > 1</tspan></text>
	</g>
</g>
<g fill="none" color="black" stroke="currentColor" stroke-width="1.00" stroke-linecap="butt" stroke-linejoin="miter">
	<path stroke='black'  d='M432.6,393.6 L432.6,380.1 M432.6,81.1 L432.6,94.6  '/>	<g transform="translate(432.6,426.5)" stroke="none" fill="black" font-family="Helvetica" font-size="18.00"  text-anchor="middle">
		<text><tspan font-family="Helvetica" > 2</tspan></text>
	</g>
</g>
<g fill="none" color="black" stroke="currentColor" stroke-width="1.00" stroke-linecap="butt" stroke-linejoin="miter">
	<path stroke='black'  d='M497.4,393.6 L497.4,380.1 M497.4,81.1 L497.4,94.6  '/>	<g transform="translate(497.4,426.5)" stroke="none" fill="black" font-family="Helvetica" font-size="18.00"  text-anchor="middle">
		<text><tspan font-family="Helvetica" > 3</tspan></text>
	</g>
</g>
<g fill="none" color="black" stroke="currentColor" stroke-width="1.00" stroke-linecap="butt" stroke-linejoin="miter">
	<path stroke='black'  d='M562.1,393.6 L562.1,380.1 M562.1,81.1 L562.1,94.6  '/>	<g transform="translate(562.1,426.5)" stroke="none" fill="black" font-family="Helvetica" font-size="18.00"  text-anchor="middle">
		<text><tspan font-family="Helvetica" > 4</tspan></text>
	</g>
</g>
<g fill="none" color="black" stroke="currentColor" stroke-width="1.00" stroke-linecap="butt" stroke-linejoin="miter">
</g>
<g fill="none" color="black" stroke="currentColor" stroke-width="1.00" stroke-linecap="butt" stroke-linejoin="miter">
	<path stroke='black'  d='M108.9,81.1 L108.9,393.6 L562.1,393.6 L562.1,81.1 L108.9,81.1 Z  '/></g>
<g fill="none" color="black" stroke="currentColor" stroke-width="1.00" stroke-linecap="butt" stroke-linejoin="miter">
	<g transform="translate(28.7,237.4) rotate(270)" stroke="none" fill="black" font-family="Helvetica" font-size="18.00"  text-anchor="middle">
		<text><tspan font-family="Helvetica" >f(x)</tspan></text>
	</g>
</g>
<g fill="none" color="black" stroke="currentColor" stroke-width="1.00" stroke-linecap="butt" stroke-linejoin="miter">
	<g transform="translate(335.5,467.0)" stroke="none" fill="black" font-family="Helvetica" font-size="18.00"  text-anchor="middle">
		<text><tspan font-family="Helvetica" >x</tspan></text>
	</g>
</g>
<g fill="none" color="black" stroke="currentColor" stroke-width="1.00" stroke-linecap="butt" stroke-linejoin="miter">
	<g transform="translate(335.5,46.5)" stroke="none" fill="black" font-family="Helvetica" font-size="18.00"  text-anchor="middle">
		<text><tspan font-family="Helvetica" >Error function</tspan></text>
	</g>
</g>
<g fill="none" color="black" stroke="currentColor" stroke-width="1.00" stroke-linecap="butt" stroke-linejoin="miter">
</g>
	<g id="gnuplot_plot_1" ><title>erf(x)</title>
<g fill="none" color="black" stroke="currentColor" stroke-width="1.00" stroke-linecap="butt" stroke-linejoin="miter">
	<g transform="translate(460.4,345.5)" stroke="none" fill="black" font-family="Helvetica" font-size="18.00"  text-anchor="end">
		<text><tspan font-family="Helvetica" >erf(x)</tspan></text>
	</g>
</g>
<g fill="none" color="black" stroke="currentColor" stroke-width="1.00" stroke-linecap="butt" stroke-linejoin="miter">
	<path stroke='rgb(148,   0, 211)'  d='M473.0,339.6 L536.9,339.6 M108.9,393.6 L109.9,393.6 L110.9,393.6 L111.9,393.6 L112.9,393.6 L114.0,393.6
		L115.0,393.6 L116.0,393.6 L117.0,393.6 L118.0,393.6 L119.0,393.6 L120.0,393.6 L121.0,393.6 L122.1,393.6
		L123.1,393.6 L124.1,393.6 L125.1,393.6 L126.1,393.6 L127.1,393.6 L128.1,393.6 L129.1,393.6 L130.1,393.6
		L131.2,393.6 L132.2,393.6 L133.2,393.6 L134.2,393.6 L135.2,393.6 L136.2,393.6 L137.2,393.6 L138.2,393.6
		L139.2,393.5 L140.3,393.5 L141.3,393.5 L142.3,393.5 L143.3,393.5 L144.3,393.5 L145.3,393.5 L146.3,393.5
		L147.3,393.5 L148.4,393.5 L149.4,393.5 L150.4,393.5 L151.4,393.5 L152.4,393.4 L153.4,393.4 L154.4,393.4
		L155.4,393.4 L156.4,393.4 L157.5,393.4 L158.5,393.4 L159.5,393.3 L160.5,393.3 L161.5,393.3 L162.5,393.3
		L163.5,393.2 L164.5,393.2 L165.6,393.2 L166.6,393.2 L167.6,393.1 L168.6,393.1 L169.6,393.0 L170.6,393.0
		L171.6,393.0 L172.6,392.9 L173.6,392.9 L174.7,392.8 L175.7,392.8 L176.7,392.7 L177.7,392.6 L178.7,392.6
		L179.7,392.5 L180.7,392.4 L181.7,392.3 L182.7,392.3 L183.8,392.2 L184.8,392.1 L185.8,392.0 L186.8,391.9
		L187.8,391.8 L188.8,391.6 L189.8,391.5 L190.8,391.4 L191.9,391.2 L192.9,391.1 L193.9,390.9 L194.9,390.8
		L195.9,390.6 L196.9,390.4 L197.9,390.2 L198.9,390.0 L199.9,389.8 L201.0,389.6 L202.0,389.4 L203.0,389.1
		L204.0,388.9 L205.0,388.6 L206.0,388.3 L207.0,388.0 L208.0,387.7 L209.0,387.4 L210.1,387.0 L211.1,386.7
		L212.1,386.3 L213.1,385.9 L214.1,385.5 L215.1,385.1 L216.1,384.6 L217.1,384.2 L218.2,383.7 L219.2,383.2
		L220.2,382.7 L221.2,382.1 L222.2,381.6 L223.2,381.0 L224.2,380.4 L225.2,379.7 L226.2,379.1 L227.3,378.4
		L228.3,377.7 L229.3,376.9 L230.3,376.2 L231.3,375.4 L232.3,374.6 L233.3,373.7 L234.3,372.8 L235.4,371.9
		L236.4,371.0 L237.4,370.0 L238.4,369.0 L239.4,368.0 L240.4,366.9 L241.4,365.8 L242.4,364.7 L243.4,363.5
		L244.5,362.4 L245.5,361.1 L246.5,359.9 L247.5,358.6 L248.5,357.2 L249.5,355.9 L250.5,354.5 L251.5,353.0
		L252.5,351.5 L253.6,350.0 L254.6,348.5 L255.6,346.9 L256.6,345.3 L257.6,343.6 L258.6,341.9 L259.6,340.2
		L260.6,338.4 L261.7,336.6 L262.7,334.7 L263.7,332.8 L264.7,330.9 L265.7,329.0 L266.7,327.0 L267.7,325.0
		L268.7,322.9 L269.7,320.8 L270.8,318.7 L271.8,316.5 L272.8,314.3 L273.8,312.1 L274.8,309.8 L275.8,307.5
		L276.8,305.2 L277.8,302.9 L278.9,300.5 L279.9,298.1 L280.9,295.7 L281.9,293.2 L282.9,290.7 L283.9,288.2
		L284.9,285.7 L285.9,283.1 L286.9,280.5 L288.0,277.9 L289.0,275.3 L290.0,272.7 L291.0,270.0 L292.0,267.4
		L293.0,264.7 L294.0,262.0 L295.0,259.3 L296.0,256.6 L297.1,253.8 L298.1,251.1 L299.1,248.4 L300.1,245.6
		L301.1,242.9 L302.1,240.1 L303.1,237.3 L304.1,234.6 L305.2,231.8 L306.2,229.1 L307.2,226.3 L308.2,223.6
		L309.2,220.9 L310.2,218.1 L311.2,215.4 L312.2,212.7 L313.2,210.0 L314.3,207.3 L315.3,204.7 L316.3,202.0
		L317.3,199.4 L318.3,196.8 L319.3,194.2 L320.3,191.6 L321.3,189.0 L322.3,186.5 L323.4,184.0 L324.4,181.5
		L325.4,179.0 L326.4,176.6 L327.4,174.2 L328.4,171.8 L329.4,169.5 L330.4,167.2 L331.5,164.9 L332.5,162.6
		L333.5,160.4 L334.5,158.2 L335.5,156.0 L336.5,153.9 L337.5,151.8 L338.5,149.7 L339.5,147.7 L340.6,145.7
		L341.6,143.8 L342.6,141.9 L343.6,140.0 L344.6,138.1 L345.6,136.3 L346.6,134.5 L347.6,132.8 L348.7,131.1
		L349.7,129.4 L350.7,127.8 L351.7,126.2 L352.7,124.7 L353.7,123.2 L354.7,121.7 L355.7,120.2 L356.7,118.8
		L357.8,117.5 L358.8,116.1 L359.8,114.8 L360.8,113.6 L361.8,112.3 L362.8,111.2 L363.8,110.0 L364.8,108.9
		L365.8,107.8 L366.9,106.7 L367.9,105.7 L368.9,104.7 L369.9,103.7 L370.9,102.8 L371.9,101.9 L372.9,101.0
		L373.9,100.1 L375.0,99.3 L376.0,98.5 L377.0,97.8 L378.0,97.0 L379.0,96.3 L380.0,95.6 L381.0,95.0
		L382.0,94.3 L383.0,93.7 L384.1,93.1 L385.1,92.6 L386.1,92.0 L387.1,91.5 L388.1,91.0 L389.1,90.5
		L390.1,90.1 L391.1,89.6 L392.2,89.2 L393.2,88.8 L394.2,88.4 L395.2,88.0 L396.2,87.7 L397.2,87.3
		L398.2,87.0 L399.2,86.7 L400.2,86.4 L401.3,86.1 L402.3,85.8 L403.3,85.6 L404.3,85.3 L405.3,85.1
		L406.3,84.9 L407.3,84.7 L408.3,84.5 L409.3,84.3 L410.4,84.1 L411.4,83.9 L412.4,83.8 L413.4,83.6
		L414.4,83.5 L415.4,83.3 L416.4,83.2 L417.4,83.1 L418.5,82.9 L419.5,82.8 L420.5,82.7 L421.5,82.6
		L422.5,82.5 L423.5,82.4 L424.5,82.4 L425.5,82.3 L426.5,82.2 L427.6,82.1 L428.6,82.1 L429.6,82.0
		L430.6,81.9 L431.6,81.9 L432.6,81.8 L433.6,81.8 L434.6,81.7 L435.6,81.7 L436.7,81.7 L437.7,81.6
		L438.7,81.6 L439.7,81.5 L440.7,81.5 L441.7,81.5 L442.7,81.5 L443.7,81.4 L444.8,81.4 L445.8,81.4
		L446.8,81.4 L447.8,81.3 L448.8,81.3 L449.8,81.3 L450.8,81.3 L451.8,81.3 L452.8,81.3 L453.9,81.3
		L454.9,81.2 L455.9,81.2 L456.9,81.2 L457.9,81.2 L458.9,81.2 L459.9,81.2 L460.9,81.2 L462.0,81.2
		L463.0,81.2 L464.0,81.2 L465.0,81.2 L466.0,81.2 L467.0,81.2 L468.0,81.1 L469.0,81.1 L470.0,81.1
		L471.1,81.1 L472.1,81.1 L473.1,81.1 L474.1,81.1 L475.1,81.1 L476.1,81.1 L477.1,81.1 L478.1,81.1
		L479.1,81.1 L480.2,81.1 L481.2,81.1 L482.2,81.1 L483.2,81.1 L484.2,81.1 L485.2,81.1 L486.2,81.1
		L487.2,81.1 L488.3,81.1 L489.3,81.1 L490.3,81.1 L491.3,81.1 L492.3,81.1 L493.3,81.1 L494.3,81.1
		L495.3,81.1 L496.3,81.1 L497.4,81.1  '/></g>
	</g>
	<g id="gnuplot_plot_2" ><title>Tabulated values</title>
<g fill="none" color="black" stroke="currentColor" stroke-width="1.00" stroke-linecap="butt" stroke-linejoin="miter">
	<g transform="translate(460.4,372.5)" stroke="none" fill="black" font-family="Helvetica" font-size="18.00"  text-anchor="end">
		<text><tspan font-family="Helvetica" >Tabulated values</tspan></text>
	</g>
</g>
<g fill="none" color="black" stroke="currentColor" stroke-width="1.00" stroke-linecap="butt" stroke-linejoin="miter">
	<use xlink:href='#gpPt1' transform='translate(303.1,237.3) scale(6.75)' color='rgb(  0, 158, 115)'/>
	<use xlink:href='#gpPt1' transform='translate(309.6,219.8) scale(6.75)' color='rgb(  0, 158, 115)'/>
	<use xlink:href='#gpPt1' transform='translate(316.1,202.6) scale(6.75)' color='rgb(  0, 158, 115)'/>
	<use xlink:href='#gpPt1' transform='translate(322.6,186.0) scale(6.75)' color='rgb(  0, 158, 115)'/>
	<use xlink:href='#gpPt1' transform='translate(329.0,170.4) scale(6.75)' color='rgb(  0, 158, 115)'/>
	<use xlink:href='#gpPt1' transform='translate(335.5,156.0) scale(6.75)' color='rgb(  0, 158, 115)'/>
	<use xlink:href='#gpPt1' transform='translate(342.0,143.0) scale(6.75)' color='rgb(  0, 158, 115)'/>
	<use xlink:href='#gpPt1' transform='translate(348.4,131.4) scale(6.75)' color='rgb(  0, 158, 115)'/>
	<use xlink:href='#gpPt1' transform='translate(354.9,121.4) scale(6.75)' color='rgb(  0, 158, 115)'/>
	<use xlink:href='#gpPt1' transform='translate(361.4,112.8) scale(6.75)' color='rgb(  0, 158, 115)'/>
	<use xlink:href='#gpPt1' transform='translate(367.9,105.7) scale(6.75)' color='rgb(  0, 158, 115)'/>
	<use xlink:href='#gpPt1' transform='translate(374.3,99.8) scale(6.75)' color='rgb(  0, 158, 115)'/>
	<use xlink:href='#gpPt1' transform='translate(380.8,95.1) scale(6.75)' color='rgb(  0, 158, 115)'/>
	<use xlink:href='#gpPt1' transform='translate(387.3,91.4) scale(6.75)' color='rgb(  0, 158, 115)'/>
	<use xlink:href='#gpPt1' transform='translate(393.8,88.6) scale(6.75)' color='rgb(  0, 158, 115)'/>
	<use xlink:href='#gpPt1' transform='translate(400.2,86.4) scale(6.75)' color='rgb(  0, 158, 115)'/>
	<use xlink:href='#gpPt1' transform='translate(406.7,84.8) scale(6.75)' color='rgb(  0, 158, 115)'/>
	<use xlink:href='#gpPt1' transform='translate(413.2,83.6) scale(6.75)' color='rgb(  0, 158, 115)'/>
	<use xlink:href='#gpPt1' transform='translate(419.7,82.8) scale(6.75)' color='rgb(  0, 158, 115)'/>
	<use xlink:href='#gpPt1' transform='translate(426.1,82.2) scale(6.75)' color='rgb(  0, 158, 115)'/>
	<use xlink:href='#gpPt1' transform='translate(432.6,81.8) scale(6.75)' color='rgb(  0, 158, 115)'/>
	<use xlink:href='#gpPt1' transform='translate(439.1,81.6) scale(6.75)' color='rgb(  0, 158, 115)'/>
	<use xlink:href='#gpPt1' transform='translate(445.6,81.4) scale(6.75)' color='rgb(  0, 158, 115)'/>
	<use xlink:href='#gpPt1' transform='translate(452.0,81.3) scale(6.75)' color='rgb(  0, 158, 115)'/>
	<use xlink:href='#gpPt1' transform='translate(458.5,81.2) scale(6.75)' color='rgb(  0, 158, 115)'/>
	<use xlink:href='#gpPt1' transform='translate(465.0,81.2) scale(6.75)' color='rgb(  0, 158, 115)'/>
	<use xlink:href='#gpPt1' transform='translate(497.4,81.1) scale(6.75)' color='rgb(  0, 158, 115)'/>
	<use xlink:href='#gpPt1' transform='translate(529.7,81.1) scale(6.75)' color='rgb(  0, 158, 115)'/>
	<use xlink:href='#gpPt1' transform='translate(504.9,366.6) scale(6.75)' color='rgb(  0, 158, 115)'/>
</g>
	</g>
<g fill="none" color="#FFFFFF" stroke="rgb(  0, 158, 115)" stroke-width="2.00" stroke-linecap="butt" stroke-linejoin="miter">
</g>
<g fill="none" color="black" stroke="currentColor" stroke-width="2.00" stroke-linecap="butt" stroke-linejoin="miter">
</g>
<g fill="none" color="black" stroke="black" stroke-width="1.00" stroke-linecap="butt" stroke-linejoin="miter">
</g>
<g fill="none" color="black" stroke="currentColor" stroke-width="1.00" stroke-linecap="butt" stroke-linejoin="miter">
	<path stroke='black'  d='M108.9,81.1 L108.9,393.6 L562.1,393.6 L562.1,81.1 L108.9,81.1 Z  '/></g>
<g fill="none" color="black" stroke="currentColor" stroke-width="1.00" stroke-linecap="butt" stroke-linejoin="miter">
</g>
</g>
</svg>

