<?xml version="1.0" encoding="utf-8"  standalone="no"?>
<svg 
 width="600" height="480"
 viewBox="0 0 600 480"
 xmlns="http://www.w3.org/2000/svg"
 xmlns:xlink="http://www.w3.org/1999/xlink"
>

<title>Gnuplot</title>
<desc>Produced by GNUPLOT 5.2 patchlevel 8 </desc>

<g id="gnuplot_canvas">

<rect x="0" y="0" width="600" height="480" fill="#ffffff"/>
<defs>

	<circle id='gpDot' r='0.5' stroke-width='0.5' stroke='currentColor'/>
	<path id='gpPt0' stroke-width='0.148' stroke='currentColor' d='M-1,0 h2 M0,-1 v2'/>
	<path id='gpPt1' stroke-width='0.148' stroke='currentColor' d='M-1,-1 L1,1 M1,-1 L-1,1'/>
	<path id='gpPt2' stroke-width='0.148' stroke='currentColor' d='M-1,0 L1,0 M0,-1 L0,1 M-1,-1 L1,1 M-1,1 L1,-1'/>
	<rect id='gpPt3' stroke-width='0.148' stroke='currentColor' x='-1' y='-1' width='2' height='2'/>
	<rect id='gpPt4' stroke-width='0.148' stroke='currentColor' fill='currentColor' x='-1' y='-1' width='2' height='2'/>
	<circle id='gpPt5' stroke-width='0.148' stroke='currentColor' cx='0' cy='0' r='1'/>
	<use xlink:href='#gpPt5' id='gpPt6' fill='currentColor' stroke='none'/>
	<path id='gpPt7' stroke-width='0.148' stroke='currentColor' d='M0,-1.33 L-1.33,0.67 L1.33,0.67 z'/>
	<use xlink:href='#gpPt7' id='gpPt8' fill='currentColor' stroke='none'/>
	<use xlink:href='#gpPt7' id='gpPt9' stroke='currentColor' transform='rotate(180)'/>
	<use xlink:href='#gpPt9' id='gpPt10' fill='currentColor' stroke='none'/>
	<use xlink:href='#gpPt3' id='gpPt11' stroke='currentColor' transform='rotate(45)'/>
	<use xlink:href='#gpPt11' id='gpPt12' fill='currentColor' stroke='none'/>
	<path id='gpPt13' stroke-width='0.148' stroke='currentColor' d='M0,1.330 L1.265,0.411 L0.782,-1.067 L-0.782,-1.076 L-1.265,0.411 z'/>
	<use xlink:href='#gpPt13' id='gpPt14' fill='currentColor' stroke='none'/>
	<filter id='textbox' filterUnits='objectBoundingBox' x='0' y='0' height='1' width='1'>
	  <feFlood flood-color='#FFFFFF' flood-opacity='1' result='bgnd'/>
	  <feComposite in='SourceGraphic' in2='bgnd' operator='atop'/>
	</filter>
	<filter id='greybox' filterUnits='objectBoundingBox' x='0' y='0' height='1' width='1'>
	  <feFlood flood-color='lightgrey' flood-opacity='1' result='grey'/>
	  <feComposite in='SourceGraphic' in2='grey' operator='atop'/>
	</filter>
</defs>
<g fill="none" color="#FFFFFF" stroke="currentColor" stroke-width="1.00" stroke-linecap="butt" stroke-linejoin="miter">
</g>
<g fill="none" color="black" stroke="currentColor" stroke-width="1.00" stroke-linecap="butt" stroke-linejoin="miter">
	<path stroke='black'  d='M97.2,350.2 L83.7,350.2 M548.6,350.2 L562.1,350.2  '/>	<g transform="translate(71.1,356.1)" stroke="none" fill="black" font-family="Helvetica" font-size="18.00"  text-anchor="end">
		<text><tspan font-family="Helvetica" >-4</tspan></text>
	</g>
</g>
<g fill="none" color="black" stroke="currentColor" stroke-width="1.00" stroke-linecap="butt" stroke-linejoin="miter">
	<path stroke='black'  d='M97.2,290.4 L83.7,290.4 M548.6,290.4 L562.1,290.4  '/>	<g transform="translate(71.1,296.3)" stroke="none" fill="black" font-family="Helvetica" font-size="18.00"  text-anchor="end">
		<text><tspan font-family="Helvetica" >-2</tspan></text>
	</g>
</g>
<g fill="none" color="black" stroke="currentColor" stroke-width="1.00" stroke-linecap="butt" stroke-linejoin="miter">
	<path stroke='black'  d='M97.2,230.6 L83.7,230.6 M548.6,230.6 L562.1,230.6  '/>	<g transform="translate(71.1,236.5)" stroke="none" fill="black" font-family="Helvetica" font-size="18.00"  text-anchor="end">
		<text><tspan font-family="Helvetica" > 0</tspan></text>
	</g>
</g>
<g fill="none" color="black" stroke="currentColor" stroke-width="1.00" stroke-linecap="butt" stroke-linejoin="miter">
	<path stroke='black'  d='M97.2,170.8 L83.7,170.8 M548.6,170.8 L562.1,170.8  '/>	<g transform="translate(71.1,176.7)" stroke="none" fill="black" font-family="Helvetica" font-size="18.00"  text-anchor="end">
		<text><tspan font-family="Helvetica" > 2</tspan></text>
	</g>
</g>
<g fill="none" color="black" stroke="currentColor" stroke-width="1.00" stroke-linecap="butt" stroke-linejoin="miter">
	<path stroke='black'  d='M97.2,111.0 L83.7,111.0 M548.6,111.0 L562.1,111.0  '/>	<g transform="translate(71.1,116.9)" stroke="none" fill="black" font-family="Helvetica" font-size="18.00"  text-anchor="end">
		<text><tspan font-family="Helvetica" > 4</tspan></text>
	</g>
</g>
<g fill="none" color="black" stroke="currentColor" stroke-width="1.00" stroke-linecap="butt" stroke-linejoin="miter">
	<path stroke='black'  d='M142.3,380.1 L142.3,393.6 M142.3,81.1 L142.3,67.6  '/>	<g transform="translate(142.3,426.5)" stroke="none" fill="black" font-family="Helvetica" font-size="18.00"  text-anchor="middle">
		<text><tspan font-family="Helvetica" >-4</tspan></text>
	</g>
</g>
<g fill="none" color="black" stroke="currentColor" stroke-width="1.00" stroke-linecap="butt" stroke-linejoin="miter">
	<path stroke='black'  d='M232.6,380.1 L232.6,393.6 M232.6,81.1 L232.6,67.6  '/>	<g transform="translate(232.6,426.5)" stroke="none" fill="black" font-family="Helvetica" font-size="18.00"  text-anchor="middle">
		<text><tspan font-family="Helvetica" >-2</tspan></text>
	</g>
</g>
<g fill="none" color="black" stroke="currentColor" stroke-width="1.00" stroke-linecap="butt" stroke-linejoin="miter">
	<path stroke='black'  d='M322.9,380.1 L322.9,393.6 M322.9,81.1 L322.9,67.6  '/>	<g transform="translate(322.9,426.5)" stroke="none" fill="black" font-family="Helvetica" font-size="18.00"  text-anchor="middle">
		<text><tspan font-family="Helvetica" > 0</tspan></text>
	</g>
</g>
<g fill="none" color="black" stroke="currentColor" stroke-width="1.00" stroke-linecap="butt" stroke-linejoin="miter">
	<path stroke='black'  d='M413.2,380.1 L413.2,393.6 M413.2,81.1 L413.2,67.6  '/>	<g transform="translate(413.2,426.5)" stroke="none" fill="black" font-family="Helvetica" font-size="18.00"  text-anchor="middle">
		<text><tspan font-family="Helvetica" > 2</tspan></text>
	</g>
</g>
<g fill="none" color="black" stroke="currentColor" stroke-width="1.00" stroke-linecap="butt" stroke-linejoin="miter">
	<path stroke='black'  d='M503.5,380.1 L503.5,393.6 M503.5,81.1 L503.5,67.6  '/>	<g transform="translate(503.5,426.5)" stroke="none" fill="black" font-family="Helvetica" font-size="18.00"  text-anchor="middle">
		<text><tspan font-family="Helvetica" > 4</tspan></text>
	</g>
</g>
<g fill="none" color="black" stroke="currentColor" stroke-width="1.00" stroke-linecap="butt" stroke-linejoin="miter">
</g>
<g fill="none" color="gray" stroke="currentColor" stroke-width="1.00" stroke-linecap="butt" stroke-linejoin="miter">
	<path stroke='black' stroke-dasharray='2,4'  d='M97.2,230.6 L548.6,230.6  '/></g>
<g fill="none" color="gray" stroke="currentColor" stroke-width="1.00" stroke-linecap="butt" stroke-linejoin="miter">
	<path stroke='black' stroke-dasharray='2,4'  d='M322.9,380.1 L322.9,81.1  '/></g>
<g fill="none" color="black" stroke="currentColor" stroke-width="1.00" stroke-linecap="butt" stroke-linejoin="miter">
	<path stroke='black'  d='M97.2,81.1 L97.2,380.1 L548.6,380.1 L548.6,81.1 L97.2,81.1 Z  '/></g>
<g fill="none" color="black" stroke="currentColor" stroke-width="1.00" stroke-linecap="butt" stroke-linejoin="miter">
	<g transform="translate(28.7,230.6) rotate(270)" stroke="none" fill="black" font-family="Helvetica" font-size="18.00"  text-anchor="middle">
		<text><tspan font-family="Helvetica" >f(x)</tspan></text>
	</g>
</g>
<g fill="none" color="black" stroke="currentColor" stroke-width="1.00" stroke-linecap="butt" stroke-linejoin="miter">
	<g transform="translate(322.9,467.0)" stroke="none" fill="black" font-family="Helvetica" font-size="18.00"  text-anchor="middle">
		<text><tspan font-family="Helvetica" >x</tspan></text>
	</g>
</g>
<g fill="none" color="black" stroke="currentColor" stroke-width="1.00" stroke-linecap="butt" stroke-linejoin="miter">
	<g transform="translate(322.9,46.5)" stroke="none" fill="black" font-family="Helvetica" font-size="18.00"  text-anchor="middle">
		<text><tspan font-family="Helvetica" >Gamma function</tspan></text>
	</g>
</g>
<g fill="none" color="black" stroke="currentColor" stroke-width="1.00" stroke-linecap="butt" stroke-linejoin="miter">
</g>
	<g id="gnuplot_plot_1" ><title>G(x)</title>
<g fill="none" color="black" stroke="currentColor" stroke-width="1.00" stroke-linecap="butt" stroke-linejoin="miter">
	<g transform="translate(446.9,332.0)" stroke="none" fill="black" font-family="Helvetica" font-size="18.00"  text-anchor="end">
		<text><tspan font-family="Symbol" >G</tspan><tspan font-family="Helvetica" >(x)</tspan></text>
	</g>
</g>
<g fill="none" color="black" stroke="currentColor" stroke-width="1.00" stroke-linecap="butt" stroke-linejoin="miter">
	<path stroke='rgb(148,   0, 211)'  d='M459.5,326.1 L523.4,326.1 M97.6,262.9 L97.9,247.0 L98.3,241.7 L98.6,239.0 L99.0,237.4 L99.3,236.4
		L99.7,235.6 L100.0,235.1 L100.4,234.6 L100.7,234.3 L101.1,234.0 L101.4,233.8 L101.8,233.6 L102.1,233.4
		L102.5,233.3 L102.8,233.1 L103.2,233.0 L103.5,232.9 L103.9,232.8 L104.3,232.8 L104.6,232.7 L105.0,232.6
		L105.3,232.6 L105.7,232.5 L106.0,232.5 L106.4,232.5 L106.7,232.4 L107.1,232.4 L107.4,232.4 L107.8,232.3
		L108.1,232.3 L108.5,232.3 L108.8,232.3 L109.2,232.3 L109.5,232.2 L109.9,232.2 L110.2,232.2 L110.6,232.2
		L111.0,232.2 L111.3,232.2 L111.7,232.2 L112.0,232.2 L112.4,232.2 L112.7,232.2 L113.1,232.2 L113.4,232.2
		L113.8,232.2 L114.1,232.2 L114.5,232.2 L114.8,232.2 L115.2,232.2 L115.5,232.2 L115.9,232.2 L116.2,232.2
		L116.6,232.2 L116.9,232.3 L117.3,232.3 L117.7,232.3 L118.0,232.3 L118.4,232.3 L118.7,232.3 L119.1,232.4
		L119.4,232.4 L119.8,232.4 L120.1,232.4 L120.5,232.4 L120.8,232.5 L121.2,232.5 L121.5,232.5 L121.9,232.6
		L122.2,232.6 L122.6,232.6 L122.9,232.7 L123.3,232.7 L123.6,232.7 L124.0,232.8 L124.4,232.8 L124.7,232.9
		L125.1,232.9 L125.4,233.0 L125.8,233.0 L126.1,233.1 L126.5,233.1 L126.8,233.2 L127.2,233.3 L127.5,233.4
		L127.9,233.4 L128.2,233.5 L128.6,233.6 L128.9,233.7 L129.3,233.8 L129.6,233.9 L130.0,234.0 L130.3,234.1
		L130.7,234.2 L131.1,234.4 L131.4,234.5 L131.8,234.7 L132.1,234.8 L132.5,235.0 L132.8,235.2 L133.2,235.4
		L133.5,235.6 L133.9,235.9 L134.2,236.2 L134.6,236.5 L134.9,236.8 L135.3,237.1 L135.6,237.5 L136.0,238.0
		L136.3,238.5 L136.7,239.1 L137.1,239.7 L137.4,240.4 L137.8,241.3 L138.1,242.3 L138.5,243.5 L138.8,244.9
		L139.2,246.7 L139.5,248.9 L139.9,251.7 L140.2,255.4 L140.6,260.7 L140.9,268.7 L141.3,282.0 L141.6,308.5
		L141.9,380.1 M142.7,81.1 L143.0,148.9 L143.4,175.5 L143.8,188.7 L144.1,196.7 L144.5,202.0 L144.8,205.7
		L145.2,208.6 L145.5,210.8 L145.9,212.5 L146.2,213.9 L146.6,215.1 L146.9,216.1 L147.3,216.9 L147.6,217.6
		L148.0,218.3 L148.3,218.8 L148.7,219.3 L149.0,219.7 L149.4,220.1 L149.7,220.5 L150.1,220.8 L150.5,221.0
		L150.8,221.3 L151.2,221.5 L151.5,221.7 L151.9,221.9 L152.2,222.1 L152.6,222.2 L152.9,222.4 L153.3,222.5
		L153.6,222.6 L154.0,222.7 L154.3,222.8 L154.7,222.9 L155.0,222.9 L155.4,223.0 L155.7,223.1 L156.1,223.1
		L156.4,223.1 L156.8,223.2 L157.2,223.2 L157.5,223.2 L157.9,223.3 L158.2,223.3 L158.6,223.3 L158.9,223.3
		L159.3,223.3 L159.6,223.3 L160.0,223.2 L160.3,223.2 L160.7,223.2 L161.0,223.2 L161.4,223.1 L161.7,223.1
		L162.1,223.1 L162.4,223.0 L162.8,223.0 L163.1,222.9 L163.5,222.8 L163.9,222.8 L164.2,222.7 L164.6,222.6
		L164.9,222.5 L165.3,222.4 L165.6,222.3 L166.0,222.2 L166.3,222.1 L166.7,222.0 L167.0,221.9 L167.4,221.8
		L167.7,221.6 L168.1,221.5 L168.4,221.3 L168.8,221.2 L169.1,221.0 L169.5,220.8 L169.8,220.6 L170.2,220.4
		L170.6,220.2 L170.9,220.0 L171.3,219.8 L171.6,219.5 L172.0,219.3 L172.3,219.0 L172.7,218.7 L173.0,218.4
		L173.4,218.1 L173.7,217.7 L174.1,217.3 L174.4,216.9 L174.8,216.5 L175.1,216.1 L175.5,215.6 L175.8,215.1
		L176.2,214.6 L176.5,214.0 L176.9,213.4 L177.3,212.7 L177.6,212.0 L178.0,211.2 L178.3,210.4 L178.7,209.4
		L179.0,208.4 L179.4,207.4 L179.7,206.2 L180.1,204.8 L180.4,203.4 L180.8,201.8 L181.1,200.0 L181.5,198.0
		L181.8,195.7 L182.2,193.1 L182.5,190.2 L182.9,186.7 L183.2,182.7 L183.6,178.0 L184.0,172.2 L184.3,165.2
		L184.7,156.5 L185.0,145.1 L185.4,130.0 L185.7,108.9 L186.0,81.1 M189.0,380.1 L189.2,364.9 L189.6,343.7
		L189.9,328.6 L190.3,317.4 L190.7,308.6 L191.0,301.6 L191.4,295.9 L191.7,291.2 L192.1,287.2 L192.4,283.8
		L192.8,280.9 L193.1,278.4 L193.5,276.1 L193.8,274.2 L194.2,272.4 L194.5,270.9 L194.9,269.5 L195.2,268.2
		L195.6,267.1 L195.9,266.1 L196.3,265.2 L196.6,264.3 L197.0,263.6 L197.4,262.9 L197.7,262.2 L198.1,261.6
		L198.4,261.1 L198.8,260.6 L199.1,260.2 L199.5,259.8 L199.8,259.4 L200.2,259.1 L200.5,258.8 L200.9,258.5
		L201.2,258.3 L201.6,258.1 L201.9,257.9 L202.3,257.7 L202.6,257.6 L203.0,257.5 L203.3,257.4 L203.7,257.3
		L204.1,257.2 L204.4,257.2 L204.8,257.2 L205.1,257.2 L205.5,257.2 L205.8,257.2 L206.2,257.2 L206.5,257.3
		L206.9,257.4 L207.2,257.5 L207.6,257.6 L207.9,257.7 L208.3,257.9 L208.6,258.0 L209.0,258.2 L209.3,258.4
		L209.7,258.6 L210.1,258.9 L210.4,259.1 L210.8,259.4 L211.1,259.7 L211.5,260.0 L211.8,260.3 L212.2,260.7
		L212.5,261.1 L212.9,261.5 L213.2,261.9 L213.6,262.3 L213.9,262.8 L214.3,263.3 L214.6,263.8 L215.0,264.4
		L215.3,265.0 L215.7,265.6 L216.0,266.3 L216.4,267.0 L216.8,267.7 L217.1,268.5 L217.5,269.4 L217.8,270.2
		L218.2,271.2 L218.5,272.2 L218.9,273.2 L219.2,274.3 L219.6,275.5 L219.9,276.8 L220.3,278.1 L220.6,279.5
		L221.0,281.1 L221.3,282.7 L221.7,284.5 L222.0,286.3 L222.4,288.4 L222.7,290.5 L223.1,292.9 L223.5,295.5
		L223.8,298.2 L224.2,301.2 L224.5,304.5 L224.9,308.1 L225.2,312.1 L225.6,316.4 L225.9,321.3 L226.3,326.7
		L226.6,332.8 L227.0,339.6 L227.3,347.4 L227.7,356.3 L228.0,366.7 L228.4,378.7 L228.4,380.1 M237.7,81.1
		L237.9,85.6 L238.3,93.3 L238.6,100.1 L239.0,106.0 L239.3,111.3 L239.7,116.1 L240.0,120.3 L240.4,124.2
		L240.7,127.7 L241.1,130.8 L241.4,133.7 L241.8,136.3 L242.1,138.7 L242.5,140.9 L242.8,142.9 L243.2,144.7
		L243.6,146.4 L243.9,148.0 L244.3,149.4 L244.6,150.8 L245.0,152.0 L245.3,153.1 L245.7,154.1 L246.0,155.1
		L246.4,155.9 L246.7,156.7 L247.1,157.5 L247.4,158.1 L247.8,158.7 L248.1,159.2 L248.5,159.7 L248.8,160.1
		L249.2,160.5 L249.5,160.8 L249.9,161.1 L250.3,161.3 L250.6,161.5 L251.0,161.6 L251.3,161.7 L251.7,161.8
		L252.0,161.8 L252.4,161.7 L252.7,161.6 L253.1,161.5 L253.4,161.4 L253.8,161.2 L254.1,160.9 L254.5,160.6
		L254.8,160.3 L255.2,159.9 L255.5,159.5 L255.9,159.1 L256.2,158.6 L256.6,158.0 L257.0,157.4 L257.3,156.8
		L257.7,156.1 L258.0,155.4 L258.4,154.6 L258.7,153.8 L259.1,152.9 L259.4,151.9 L259.8,150.9 L260.1,149.8
		L260.5,148.6 L260.8,147.4 L261.2,146.1 L261.5,144.7 L261.9,143.3 L262.2,141.7 L262.6,140.1 L262.9,138.3
		L263.3,136.5 L263.7,134.5 L264.0,132.4 L264.4,130.2 L264.7,127.8 L265.1,125.3 L265.4,122.6 L265.8,119.7
		L266.1,116.6 L266.5,113.4 L266.8,109.8 L267.2,106.0 L267.5,102.0 L267.9,97.6 L268.2,92.9 L268.6,87.7
		L268.9,82.2 L268.9,81.1 M288.5,380.1 L288.7,378.5 L289.0,375.1 L289.4,372.0 L289.8,369.1 L290.1,366.3
		L290.5,363.8 L290.8,361.4 L291.2,359.2 L291.5,357.2 L291.9,355.2 L292.2,353.5 L292.6,351.8 L292.9,350.2
		L293.3,348.8 L293.6,347.5 L294.0,346.2 L294.3,345.1 L294.7,344.0 L295.0,343.0 L295.4,342.1 L295.7,341.3
		L296.1,340.5 L296.5,339.9 L296.8,339.3 L297.2,338.7 L297.5,338.2 L297.9,337.8 L298.2,337.5 L298.6,337.2
		L298.9,336.9 L299.3,336.8 L299.6,336.6 L300.0,336.6 L300.3,336.6 L300.7,336.7 L301.0,336.8 L301.4,336.9
		L301.7,337.2 L302.1,337.5 L302.4,337.8 L302.8,338.2 L303.2,338.7 L303.5,339.3 L303.9,339.9 L304.2,340.5
		L304.6,341.3 L304.9,342.1 L305.3,343.0 L305.6,343.9 L306.0,345.0 L306.3,346.1 L306.7,347.3 L307.0,348.6
		L307.4,350.0 L307.7,351.5 L308.1,353.2 L308.4,354.9 L308.8,356.7 L309.1,358.7 L309.5,360.8 L309.9,363.1
		L310.2,365.5 L310.6,368.1 L310.9,370.9 L311.3,373.9 L311.6,377.2 L311.9,380.1  '/>	<path stroke='rgb(148,   0, 211)'  d='M331.2,81.1 L331.4,83.6 L331.7,89.8 L332.1,95.6 L332.4,100.9 L332.8,105.8 L333.1,110.3 L333.5,114.5
		L333.8,118.5 L334.2,122.2 L334.5,125.7 L334.9,128.9 L335.2,132.0 L335.6,134.9 L335.9,137.6 L336.3,140.2
		L336.7,142.6 L337.0,144.9 L337.4,147.1 L337.7,149.2 L338.1,151.1 L338.4,153.0 L338.8,154.8 L339.1,156.5
		L339.5,158.2 L339.8,159.7 L340.2,161.2 L340.5,162.6 L340.9,164.0 L341.2,165.3 L341.6,166.6 L341.9,167.8
		L342.3,168.9 L342.6,170.1 L343.0,171.1 L343.4,172.2 L343.7,173.2 L344.1,174.1 L344.4,175.0 L344.8,175.9
		L345.1,176.8 L345.5,177.6 L345.8,178.4 L346.2,179.2 L346.5,179.9 L346.9,180.6 L347.2,181.3 L347.6,182.0
		L347.9,182.7 L348.3,183.3 L348.6,183.9 L349.0,184.5 L349.3,185.1 L349.7,185.6 L350.1,186.2 L350.4,186.7
		L350.8,187.2 L351.1,187.7 L351.5,188.2 L351.8,188.7 L352.2,189.1 L352.5,189.5 L352.9,190.0 L353.2,190.4
		L353.6,190.8 L353.9,191.2 L354.3,191.6 L354.6,191.9 L355.0,192.3 L355.3,192.6 L355.7,193.0 L356.0,193.3
		L356.4,193.6 L356.8,194.0 L357.1,194.3 L357.5,194.6 L357.8,194.9 L358.2,195.1 L358.5,195.4 L358.9,195.7
		L359.2,195.9 L359.6,196.2 L359.9,196.4 L360.3,196.7 L360.6,196.9 L361.0,197.2 L361.3,197.4 L361.7,197.6
		L362.0,197.8 L362.4,198.0 L362.8,198.2 L363.1,198.4 L363.5,198.6 L363.8,198.8 L364.2,199.0 L364.5,199.2
		L364.9,199.3 L365.2,199.5 L365.6,199.7 L365.9,199.8 L366.3,200.0 L366.6,200.1 L367.0,200.3 L367.3,200.4
		L367.7,200.6 L368.0,200.7 L368.4,200.8 L368.7,201.0 L369.1,201.1 L369.5,201.2 L369.8,201.3 L370.2,201.4
		L370.5,201.6 L370.9,201.7 L371.2,201.8 L371.6,201.9 L371.9,202.0 L372.3,202.1 L372.6,202.2 L373.0,202.3
		L373.3,202.4 L373.7,202.4 L374.0,202.5 L374.4,202.6 L374.7,202.7 L375.1,202.8 L375.4,202.8 L375.8,202.9
		L376.2,203.0 L376.5,203.0 L376.9,203.1 L377.2,203.2 L377.6,203.2 L377.9,203.3 L378.3,203.3 L378.6,203.4
		L379.0,203.4 L379.3,203.5 L379.7,203.5 L380.0,203.6 L380.4,203.6 L380.7,203.7 L381.1,203.7 L381.4,203.8
		L381.8,203.8 L382.1,203.8 L382.5,203.9 L382.9,203.9 L383.2,203.9 L383.6,203.9 L383.9,204.0 L384.3,204.0
		L384.6,204.0 L385.0,204.0 L385.3,204.0 L385.7,204.1 L386.0,204.1 L386.4,204.1 L386.7,204.1 L387.1,204.1
		L387.4,204.1 L387.8,204.1 L388.1,204.1 L388.5,204.1 L388.8,204.1 L389.2,204.1 L389.6,204.1 L389.9,204.1
		L390.3,204.1 L390.6,204.1 L391.0,204.1 L391.3,204.1 L391.7,204.1 L392.0,204.1 L392.4,204.0 L392.7,204.0
		L393.1,204.0 L393.4,204.0 L393.8,204.0 L394.1,204.0 L394.5,203.9 L394.8,203.9 L395.2,203.9 L395.5,203.9
		L395.9,203.8 L396.3,203.8 L396.6,203.8 L397.0,203.7 L397.3,203.7 L397.7,203.7 L398.0,203.6 L398.4,203.6
		L398.7,203.5 L399.1,203.5 L399.4,203.5 L399.8,203.4 L400.1,203.4 L400.5,203.3 L400.8,203.3 L401.2,203.2
		L401.5,203.2 L401.9,203.1 L402.2,203.1 L402.6,203.0 L403.0,203.0 L403.3,202.9 L403.7,202.8 L404.0,202.8
		L404.4,202.7 L404.7,202.7 L405.1,202.6 L405.4,202.5 L405.8,202.5 L406.1,202.4 L406.5,202.3 L406.8,202.2
		L407.2,202.2 L407.5,202.1 L407.9,202.0 L408.2,201.9 L408.6,201.9 L408.9,201.8 L409.3,201.7 L409.7,201.6
		L410.0,201.5 L410.4,201.4 L410.7,201.4 L411.1,201.3 L411.4,201.2 L411.8,201.1 L412.1,201.0 L412.5,200.9
		L412.8,200.8 L413.2,200.7 L413.5,200.6 L413.9,200.5 L414.2,200.4 L414.6,200.3 L414.9,200.2 L415.3,200.1
		L415.6,200.0 L416.0,199.9 L416.4,199.7 L416.7,199.6 L417.1,199.5 L417.4,199.4 L417.8,199.3 L418.1,199.2
		L418.5,199.0 L418.8,198.9 L419.2,198.8 L419.5,198.7 L419.9,198.5 L420.2,198.4 L420.6,198.3 L420.9,198.1
		L421.3,198.0 L421.6,197.9 L422.0,197.7 L422.3,197.6 L422.7,197.5 L423.1,197.3 L423.4,197.2 L423.8,197.0
		L424.1,196.9 L424.5,196.7 L424.8,196.6 L425.2,196.4 L425.5,196.3 L425.9,196.1 L426.2,195.9 L426.6,195.8
		L426.9,195.6 L427.3,195.5 L427.6,195.3 L428.0,195.1 L428.3,194.9 L428.7,194.8 L429.0,194.6 L429.4,194.4
		L429.8,194.2 L430.1,194.1 L430.5,193.9 L430.8,193.7 L431.2,193.5 L431.5,193.3 L431.9,193.1 L432.2,192.9
		L432.6,192.7 L432.9,192.5 L433.3,192.3 L433.6,192.1 L434.0,191.9 L434.3,191.7 L434.7,191.5 L435.0,191.3
		L435.4,191.1 L435.8,190.9 L436.1,190.6 L436.5,190.4 L436.8,190.2 L437.2,190.0 L437.5,189.7 L437.9,189.5
		L438.2,189.3 L438.6,189.0 L438.9,188.8 L439.3,188.5 L439.6,188.3 L440.0,188.1 L440.3,187.8 L440.7,187.6
		L441.0,187.3 L441.4,187.0 L441.7,186.8 L442.1,186.5 L442.5,186.2 L442.8,186.0 L443.2,185.7 L443.5,185.4
		L443.9,185.2 L444.2,184.9 L444.6,184.6 L444.9,184.3 L445.3,184.0 L445.6,183.7 L446.0,183.4 L446.3,183.1
		L446.7,182.8 L447.0,182.5 L447.4,182.2 L447.7,181.9 L448.1,181.6 L448.4,181.3 L448.8,180.9 L449.2,180.6
		L449.5,180.3 L449.9,179.9 L450.2,179.6 L450.6,179.3 L450.9,178.9 L451.3,178.6 L451.6,178.2 L452.0,177.9
		L452.3,177.5 L452.7,177.1 L453.0,176.8 L453.4,176.4 L453.7,176.0 L454.1,175.7 L454.4,175.3 L454.8,174.9
		L455.1,174.5 L455.5,174.1 L455.9,173.7 L456.2,173.3 L456.6,172.9 L456.9,172.5 L457.3,172.1 L457.6,171.7
		L458.0,171.2 L458.3,170.8 L458.7,170.4 L459.0,169.9 L459.4,169.5 L459.7,169.0 L460.1,168.6 L460.4,168.1
		L460.8,167.7 L461.1,167.2 L461.5,166.7 L461.8,166.3 L462.2,165.8 L462.6,165.3 L462.9,164.8 L463.3,164.3
		L463.6,163.8 L464.0,163.3 L464.3,162.8 L464.7,162.3 L465.0,161.7 L465.4,161.2 L465.7,160.7 L466.1,160.1
		L466.4,159.6 L466.8,159.0 L467.1,158.5 L467.5,157.9 L467.8,157.3 L468.2,156.7 L468.5,156.2 L468.9,155.6
		L469.3,155.0 L469.6,154.4 L470.0,153.8 L470.3,153.2 L470.7,152.5 L471.0,151.9 L471.4,151.3 L471.7,150.6
		L472.1,150.0 L472.4,149.3 L472.8,148.7 L473.1,148.0 L473.5,147.3 L473.8,146.6 L474.2,145.9 L474.5,145.2
		L474.9,144.5 L475.2,143.8 L475.6,143.1 L476.0,142.3 L476.3,141.6 L476.7,140.9 L477.0,140.1 L477.4,139.3
		L477.7,138.6 L478.1,137.8 L478.4,137.0 L478.8,136.2 L479.1,135.4 L479.5,134.6 L479.8,133.8 L480.2,132.9
		L480.5,132.1 L480.9,131.2 L481.2,130.4 L481.6,129.5 L481.9,128.6 L482.3,127.7 L482.7,126.8 L483.0,125.9
		L483.4,125.0 L483.7,124.1 L484.1,123.1 L484.4,122.2 L484.8,121.2 L485.1,120.2 L485.5,119.3 L485.8,118.3
		L486.2,117.3 L486.5,116.2 L486.9,115.2 L487.2,114.2 L487.6,113.1 L487.9,112.1 L488.3,111.0 L488.6,109.9
		L489.0,108.8 L489.4,107.7 L489.7,106.6 L490.1,105.4 L490.4,104.3 L490.8,103.1 L491.1,102.0 L491.5,100.8
		L491.8,99.6 L492.2,98.4 L492.5,97.1 L492.9,95.9 L493.2,94.6 L493.6,93.4 L493.9,92.1 L494.3,90.8
		L494.6,89.5 L495.0,88.1 L495.3,86.8 L495.7,85.4 L496.1,84.0 L496.4,82.7 L496.8,81.2 L496.8,81.1
		 '/></g>
	</g>
	<g id="gnuplot_plot_2" ><title>Tabulated values</title>
<g fill="none" color="black" stroke="currentColor" stroke-width="1.00" stroke-linecap="butt" stroke-linejoin="miter">
	<g transform="translate(446.9,359.0)" stroke="none" fill="black" font-family="Helvetica" font-size="18.00"  text-anchor="end">
		<text><tspan font-family="Helvetica" >Tabulated values</tspan></text>
	</g>
</g>
<g fill="none" color="black" stroke="currentColor" stroke-width="1.00" stroke-linecap="butt" stroke-linejoin="miter">
	<use xlink:href='#gpPt1' transform='translate(255.2,159.9) scale(6.75)' color='rgb(  0, 158, 115)'/>
	<use xlink:href='#gpPt1' transform='translate(300.3,336.6) scale(6.75)' color='rgb(  0, 158, 115)'/>
	<use xlink:href='#gpPt1' transform='translate(345.5,177.6) scale(6.75)' color='rgb(  0, 158, 115)'/>
	<use xlink:href='#gpPt1' transform='translate(368.0,200.7) scale(6.75)' color='rgb(  0, 158, 115)'/>
	<use xlink:href='#gpPt1' transform='translate(390.6,204.1) scale(6.75)' color='rgb(  0, 158, 115)'/>
	<use xlink:href='#gpPt1' transform='translate(413.2,200.7) scale(6.75)' color='rgb(  0, 158, 115)'/>
	<use xlink:href='#gpPt1' transform='translate(491.4,353.1) scale(6.75)' color='rgb(  0, 158, 115)'/>
</g>
	</g>
<g fill="none" color="#FFFFFF" stroke="rgb(  0, 158, 115)" stroke-width="2.00" stroke-linecap="butt" stroke-linejoin="miter">
</g>
<g fill="none" color="black" stroke="currentColor" stroke-width="2.00" stroke-linecap="butt" stroke-linejoin="miter">
</g>
<g fill="none" color="black" stroke="black" stroke-width="1.00" stroke-linecap="butt" stroke-linejoin="miter">
</g>
<g fill="none" color="black" stroke="currentColor" stroke-width="1.00" stroke-linecap="butt" stroke-linejoin="miter">
	<path stroke='black'  d='M97.2,81.1 L97.2,380.1 L548.6,380.1 L548.6,81.1 L97.2,81.1 Z  '/></g>
<g fill="none" color="black" stroke="currentColor" stroke-width="1.00" stroke-linecap="butt" stroke-linejoin="miter">
</g>
</g>
</svg>

