<?xml version="1.0" encoding="utf-8"  standalone="no"?>
<svg 
 width="600" height="480"
 viewBox="0 0 600 480"
 xmlns="http://www.w3.org/2000/svg"
 xmlns:xlink="http://www.w3.org/1999/xlink"
>

<title>Gnuplot</title>
<desc>Produced by GNUPLOT 5.2 patchlevel 8 </desc>

<g id="gnuplot_canvas">

<rect x="0" y="0" width="600" height="480" fill="#ffffff"/>
<defs>

	<circle id='gpDot' r='0.5' stroke-width='0.5' stroke='currentColor'/>
	<path id='gpPt0' stroke-width='0.148' stroke='currentColor' d='M-1,0 h2 M0,-1 v2'/>
	<path id='gpPt1' stroke-width='0.148' stroke='currentColor' d='M-1,-1 L1,1 M1,-1 L-1,1'/>
	<path id='gpPt2' stroke-width='0.148' stroke='currentColor' d='M-1,0 L1,0 M0,-1 L0,1 M-1,-1 L1,1 M-1,1 L1,-1'/>
	<rect id='gpPt3' stroke-width='0.148' stroke='currentColor' x='-1' y='-1' width='2' height='2'/>
	<rect id='gpPt4' stroke-width='0.148' stroke='currentColor' fill='currentColor' x='-1' y='-1' width='2' height='2'/>
	<circle id='gpPt5' stroke-width='0.148' stroke='currentColor' cx='0' cy='0' r='1'/>
	<use xlink:href='#gpPt5' id='gpPt6' fill='currentColor' stroke='none'/>
	<path id='gpPt7' stroke-width='0.148' stroke='currentColor' d='M0,-1.33 L-1.33,0.67 L1.33,0.67 z'/>
	<use xlink:href='#gpPt7' id='gpPt8' fill='currentColor' stroke='none'/>
	<use xlink:href='#gpPt7' id='gpPt9' stroke='currentColor' transform='rotate(180)'/>
	<use xlink:href='#gpPt9' id='gpPt10' fill='currentColor' stroke='none'/>
	<use xlink:href='#gpPt3' id='gpPt11' stroke='currentColor' transform='rotate(45)'/>
	<use xlink:href='#gpPt11' id='gpPt12' fill='currentColor' stroke='none'/>
	<path id='gpPt13' stroke-width='0.148' stroke='currentColor' d='M0,1.330 L1.265,0.411 L0.782,-1.067 L-0.782,-1.076 L-1.265,0.411 z'/>
	<use xlink:href='#gpPt13' id='gpPt14' fill='currentColor' stroke='none'/>
	<filter id='textbox' filterUnits='objectBoundingBox' x='0' y='0' height='1' width='1'>
	  <feFlood flood-color='#FFFFFF' flood-opacity='1' result='bgnd'/>
	  <feComposite in='SourceGraphic' in2='bgnd' operator='atop'/>
	</filter>
	<filter id='greybox' filterUnits='objectBoundingBox' x='0' y='0' height='1' width='1'>
	  <feFlood flood-color='lightgrey' flood-opacity='1' result='grey'/>
	  <feComposite in='SourceGraphic' in2='grey' operator='atop'/>
	</filter>
</defs>
<g fill="none" color="#FFFFFF" stroke="currentColor" stroke-width="1.00" stroke-linecap="butt" stroke-linejoin="miter">
</g>
<g fill="none" color="black" stroke="currentColor" stroke-width="1.00" stroke-linecap="butt" stroke-linejoin="miter">
	<path stroke='black'  d='M109.8,380.1 L96.3,380.1 M548.6,380.1 L562.1,380.1  '/>	<g transform="translate(83.7,386.0)" stroke="none" fill="black" font-family="Helvetica" font-size="18.00"  text-anchor="end">
		<text><tspan font-family="Helvetica" > 0</tspan></text>
	</g>
</g>
<g fill="none" color="black" stroke="currentColor" stroke-width="1.00" stroke-linecap="butt" stroke-linejoin="miter">
	<path stroke='black'  d='M109.8,330.3 L96.3,330.3 M548.6,330.3 L562.1,330.3  '/>	<g transform="translate(83.7,336.2)" stroke="none" fill="black" font-family="Helvetica" font-size="18.00"  text-anchor="end">
		<text><tspan font-family="Helvetica" > 5</tspan></text>
	</g>
</g>
<g fill="none" color="black" stroke="currentColor" stroke-width="1.00" stroke-linecap="butt" stroke-linejoin="miter">
	<path stroke='black'  d='M109.8,280.4 L96.3,280.4 M548.6,280.4 L562.1,280.4  '/>	<g transform="translate(83.7,286.3)" stroke="none" fill="black" font-family="Helvetica" font-size="18.00"  text-anchor="end">
		<text><tspan font-family="Helvetica" > 10</tspan></text>
	</g>
</g>
<g fill="none" color="black" stroke="currentColor" stroke-width="1.00" stroke-linecap="butt" stroke-linejoin="miter">
	<path stroke='black'  d='M109.8,230.6 L96.3,230.6 M548.6,230.6 L562.1,230.6  '/>	<g transform="translate(83.7,236.5)" stroke="none" fill="black" font-family="Helvetica" font-size="18.00"  text-anchor="end">
		<text><tspan font-family="Helvetica" > 15</tspan></text>
	</g>
</g>
<g fill="none" color="black" stroke="currentColor" stroke-width="1.00" stroke-linecap="butt" stroke-linejoin="miter">
	<path stroke='black'  d='M109.8,180.8 L96.3,180.8 M548.6,180.8 L562.1,180.8  '/>	<g transform="translate(83.7,186.7)" stroke="none" fill="black" font-family="Helvetica" font-size="18.00"  text-anchor="end">
		<text><tspan font-family="Helvetica" > 20</tspan></text>
	</g>
</g>
<g fill="none" color="black" stroke="currentColor" stroke-width="1.00" stroke-linecap="butt" stroke-linejoin="miter">
	<path stroke='black'  d='M109.8,130.9 L96.3,130.9 M548.6,130.9 L562.1,130.9  '/>	<g transform="translate(83.7,136.8)" stroke="none" fill="black" font-family="Helvetica" font-size="18.00"  text-anchor="end">
		<text><tspan font-family="Helvetica" > 25</tspan></text>
	</g>
</g>
<g fill="none" color="black" stroke="currentColor" stroke-width="1.00" stroke-linecap="butt" stroke-linejoin="miter">
	<path stroke='black'  d='M109.8,81.1 L96.3,81.1 M548.6,81.1 L562.1,81.1  '/>	<g transform="translate(83.7,87.0)" stroke="none" fill="black" font-family="Helvetica" font-size="18.00"  text-anchor="end">
		<text><tspan font-family="Helvetica" > 30</tspan></text>
	</g>
</g>
<g fill="none" color="black" stroke="currentColor" stroke-width="1.00" stroke-linecap="butt" stroke-linejoin="miter">
	<path stroke='black'  d='M109.8,380.1 L109.8,393.6 M109.8,81.1 L109.8,67.6  '/>	<g transform="translate(109.8,426.5)" stroke="none" fill="black" font-family="Helvetica" font-size="18.00"  text-anchor="middle">
		<text><tspan font-family="Helvetica" > 4</tspan></text>
	</g>
</g>
<g fill="none" color="black" stroke="currentColor" stroke-width="1.00" stroke-linecap="butt" stroke-linejoin="miter">
	<path stroke='black'  d='M182.9,380.1 L182.9,393.6 M182.9,81.1 L182.9,67.6  '/>	<g transform="translate(182.9,426.5)" stroke="none" fill="black" font-family="Helvetica" font-size="18.00"  text-anchor="middle">
		<text><tspan font-family="Helvetica" > 6</tspan></text>
	</g>
</g>
<g fill="none" color="black" stroke="currentColor" stroke-width="1.00" stroke-linecap="butt" stroke-linejoin="miter">
	<path stroke='black'  d='M256.1,380.1 L256.1,393.6 M256.1,81.1 L256.1,67.6  '/>	<g transform="translate(256.1,426.5)" stroke="none" fill="black" font-family="Helvetica" font-size="18.00"  text-anchor="middle">
		<text><tspan font-family="Helvetica" > 8</tspan></text>
	</g>
</g>
<g fill="none" color="black" stroke="currentColor" stroke-width="1.00" stroke-linecap="butt" stroke-linejoin="miter">
	<path stroke='black'  d='M329.2,380.1 L329.2,393.6 M329.2,81.1 L329.2,67.6  '/>	<g transform="translate(329.2,426.5)" stroke="none" fill="black" font-family="Helvetica" font-size="18.00"  text-anchor="middle">
		<text><tspan font-family="Helvetica" > 10</tspan></text>
	</g>
</g>
<g fill="none" color="black" stroke="currentColor" stroke-width="1.00" stroke-linecap="butt" stroke-linejoin="miter">
	<path stroke='black'  d='M402.3,380.1 L402.3,393.6 M402.3,81.1 L402.3,67.6  '/>	<g transform="translate(402.3,426.5)" stroke="none" fill="black" font-family="Helvetica" font-size="18.00"  text-anchor="middle">
		<text><tspan font-family="Helvetica" > 12</tspan></text>
	</g>
</g>
<g fill="none" color="black" stroke="currentColor" stroke-width="1.00" stroke-linecap="butt" stroke-linejoin="miter">
	<path stroke='black'  d='M475.5,380.1 L475.5,393.6 M475.5,81.1 L475.5,67.6  '/>	<g transform="translate(475.5,426.5)" stroke="none" fill="black" font-family="Helvetica" font-size="18.00"  text-anchor="middle">
		<text><tspan font-family="Helvetica" > 14</tspan></text>
	</g>
</g>
<g fill="none" color="black" stroke="currentColor" stroke-width="1.00" stroke-linecap="butt" stroke-linejoin="miter">
	<path stroke='black'  d='M548.6,380.1 L548.6,393.6 M548.6,81.1 L548.6,67.6  '/>	<g transform="translate(548.6,426.5)" stroke="none" fill="black" font-family="Helvetica" font-size="18.00"  text-anchor="middle">
		<text><tspan font-family="Helvetica" > 16</tspan></text>
	</g>
</g>
<g fill="none" color="black" stroke="currentColor" stroke-width="1.00" stroke-linecap="butt" stroke-linejoin="miter">
</g>
<g fill="none" color="black" stroke="currentColor" stroke-width="1.00" stroke-linecap="butt" stroke-linejoin="miter">
	<path stroke='black'  d='M109.8,81.1 L109.8,380.1 L548.6,380.1 L548.6,81.1 L109.8,81.1 Z  '/></g>
<g fill="none" color="black" stroke="currentColor" stroke-width="1.00" stroke-linecap="butt" stroke-linejoin="miter">
	<g transform="translate(28.7,230.6) rotate(270)" stroke="none" fill="black" font-family="Helvetica" font-size="18.00"  text-anchor="middle">
		<text><tspan font-family="Helvetica" >ln(</tspan><tspan font-family="Symbol" >G</tspan><tspan font-family="Helvetica" >(x))</tspan></text>
	</g>
</g>
<g fill="none" color="black" stroke="currentColor" stroke-width="1.00" stroke-linecap="butt" stroke-linejoin="miter">
	<g transform="translate(329.2,467.0)" stroke="none" fill="black" font-family="Helvetica" font-size="18.00"  text-anchor="middle">
		<text><tspan font-family="Helvetica" >x</tspan></text>
	</g>
</g>
<g fill="none" color="black" stroke="currentColor" stroke-width="1.00" stroke-linecap="butt" stroke-linejoin="miter">
	<g transform="translate(329.2,46.5)" stroke="none" fill="black" font-family="Helvetica" font-size="18.00"  text-anchor="middle">
		<text><tspan font-family="Helvetica" >lngamma function</tspan></text>
	</g>
</g>
<g fill="none" color="black" stroke="currentColor" stroke-width="1.00" stroke-linecap="butt" stroke-linejoin="miter">
</g>
	<g id="gnuplot_plot_1" ><title>ln(G(x))</title>
<g fill="none" color="black" stroke="currentColor" stroke-width="1.00" stroke-linecap="butt" stroke-linejoin="miter">
	<g transform="translate(223.2,114.0)" stroke="none" fill="black" font-family="Helvetica" font-size="18.00"  text-anchor="end">
		<text><tspan font-family="Helvetica" >ln(</tspan><tspan font-family="Symbol" >G</tspan><tspan font-family="Helvetica" >(x))</tspan></text>
	</g>
</g>
<g fill="none" color="black" stroke="currentColor" stroke-width="1.00" stroke-linecap="butt" stroke-linejoin="miter">
	<path stroke='rgb(148,   0, 211)'  d='M235.8,108.1 L299.7,108.1 M146.4,348.4 L182.9,332.4 L219.5,314.5 L256.1,295.1 L292.6,274.4 L329.2,252.5
		L365.8,229.6 L402.3,205.7 L438.9,180.9 L475.5,155.3 L512.0,129.0  '/></g>
	</g>
<g fill="none" color="#FFFFFF" stroke="rgb(148,   0, 211)" stroke-width="2.00" stroke-linecap="butt" stroke-linejoin="miter">
</g>
<g fill="none" color="black" stroke="currentColor" stroke-width="2.00" stroke-linecap="butt" stroke-linejoin="miter">
</g>
<g fill="none" color="black" stroke="black" stroke-width="1.00" stroke-linecap="butt" stroke-linejoin="miter">
</g>
<g fill="none" color="black" stroke="currentColor" stroke-width="1.00" stroke-linecap="butt" stroke-linejoin="miter">
	<path stroke='black'  d='M109.8,81.1 L109.8,380.1 L548.6,380.1 L548.6,81.1 L109.8,81.1 Z  '/></g>
<g fill="none" color="black" stroke="currentColor" stroke-width="1.00" stroke-linecap="butt" stroke-linejoin="miter">
</g>
</g>
</svg>

