####### Exercise A #######
The calculated half-life is: 4.0445 days
The modern experimentally determined half-life of 224Ra is 3.63 days.
The half-life calculated from Rutherford and Soddy's experiments is 11.42 percent away from the modern result.


####### Exercise B #######
The half-life determined by Rutherford and Soddy is 4.04452 +/- 0.0834378
The modern result of 224Ra's half-life is NOT in the interval of the upper and lower uncertainty limit of RutherFord and Soddy's result.


####### Exercise C #######
 See plot.svg.
