<?xml version="1.0" encoding="utf-8"  standalone="no"?>
<svg 
 width="600" height="480"
 viewBox="0 0 600 480"
 xmlns="http://www.w3.org/2000/svg"
 xmlns:xlink="http://www.w3.org/1999/xlink"
>

<title>Gnuplot</title>
<desc>Produced by GNUPLOT 5.2 patchlevel 8 </desc>

<g id="gnuplot_canvas">

<rect x="0" y="0" width="600" height="480" fill="none"/>
<defs>

	<circle id='gpDot' r='0.5' stroke-width='0.5' stroke='currentColor'/>
	<path id='gpPt0' stroke-width='0.222' stroke='currentColor' d='M-1,0 h2 M0,-1 v2'/>
	<path id='gpPt1' stroke-width='0.222' stroke='currentColor' d='M-1,-1 L1,1 M1,-1 L-1,1'/>
	<path id='gpPt2' stroke-width='0.222' stroke='currentColor' d='M-1,0 L1,0 M0,-1 L0,1 M-1,-1 L1,1 M-1,1 L1,-1'/>
	<rect id='gpPt3' stroke-width='0.222' stroke='currentColor' x='-1' y='-1' width='2' height='2'/>
	<rect id='gpPt4' stroke-width='0.222' stroke='currentColor' fill='currentColor' x='-1' y='-1' width='2' height='2'/>
	<circle id='gpPt5' stroke-width='0.222' stroke='currentColor' cx='0' cy='0' r='1'/>
	<use xlink:href='#gpPt5' id='gpPt6' fill='currentColor' stroke='none'/>
	<path id='gpPt7' stroke-width='0.222' stroke='currentColor' d='M0,-1.33 L-1.33,0.67 L1.33,0.67 z'/>
	<use xlink:href='#gpPt7' id='gpPt8' fill='currentColor' stroke='none'/>
	<use xlink:href='#gpPt7' id='gpPt9' stroke='currentColor' transform='rotate(180)'/>
	<use xlink:href='#gpPt9' id='gpPt10' fill='currentColor' stroke='none'/>
	<use xlink:href='#gpPt3' id='gpPt11' stroke='currentColor' transform='rotate(45)'/>
	<use xlink:href='#gpPt11' id='gpPt12' fill='currentColor' stroke='none'/>
	<path id='gpPt13' stroke-width='0.222' stroke='currentColor' d='M0,1.330 L1.265,0.411 L0.782,-1.067 L-0.782,-1.076 L-1.265,0.411 z'/>
	<use xlink:href='#gpPt13' id='gpPt14' fill='currentColor' stroke='none'/>
	<filter id='textbox' filterUnits='objectBoundingBox' x='0' y='0' height='1' width='1'>
	  <feFlood flood-color='white' flood-opacity='1' result='bgnd'/>
	  <feComposite in='SourceGraphic' in2='bgnd' operator='atop'/>
	</filter>
	<filter id='greybox' filterUnits='objectBoundingBox' x='0' y='0' height='1' width='1'>
	  <feFlood flood-color='lightgrey' flood-opacity='1' result='grey'/>
	  <feComposite in='SourceGraphic' in2='grey' operator='atop'/>
	</filter>
</defs>
<g fill="none" color="white" stroke="currentColor" stroke-width="1.00" stroke-linecap="butt" stroke-linejoin="miter">
</g>
<g fill="none" color="black" stroke="currentColor" stroke-width="1.00" stroke-linecap="butt" stroke-linejoin="miter">
	<path stroke='black'  d='M80.9,413.4 L71.9,413.4 M566.0,413.4 L575.0,413.4  '/>	<g transform="translate(63.6,417.3)" stroke="none" fill="black" font-family="Arial" font-size="12.00"  text-anchor="end">
		<text><tspan font-family="Arial" > 0.1</tspan></text>
	</g>
</g>
<g fill="none" color="black" stroke="currentColor" stroke-width="1.00" stroke-linecap="butt" stroke-linejoin="miter">
	<path stroke='black'  d='M80.9,359.3 L76.4,359.3 M566.0,359.3 L570.5,359.3 M80.9,327.7 L76.4,327.7 M566.0,327.7 L570.5,327.7
		M80.9,305.2 L76.4,305.2 M566.0,305.2 L570.5,305.2 M80.9,287.8 L76.4,287.8 M566.0,287.8 L570.5,287.8
		M80.9,273.6 L76.4,273.6 M566.0,273.6 L570.5,273.6 M80.9,261.6 L76.4,261.6 M566.0,261.6 L570.5,261.6
		M80.9,251.2 L76.4,251.2 M566.0,251.2 L570.5,251.2 M80.9,242.0 L76.4,242.0 M566.0,242.0 L570.5,242.0
		M80.9,233.7 L71.9,233.7 M566.0,233.7 L575.0,233.7  '/>	<g transform="translate(63.6,237.6)" stroke="none" fill="black" font-family="Arial" font-size="12.00"  text-anchor="end">
		<text><tspan font-family="Arial" > 1</tspan></text>
	</g>
</g>
<g fill="none" color="black" stroke="currentColor" stroke-width="1.00" stroke-linecap="butt" stroke-linejoin="miter">
	<path stroke='black'  d='M80.9,179.7 L76.4,179.7 M566.0,179.7 L570.5,179.7 M80.9,148.0 L76.4,148.0 M566.0,148.0 L570.5,148.0
		M80.9,125.6 L76.4,125.6 M566.0,125.6 L570.5,125.6 M80.9,108.2 L76.4,108.2 M566.0,108.2 L570.5,108.2
		M80.9,94.0 L76.4,94.0 M566.0,94.0 L570.5,94.0 M80.9,81.9 L76.4,81.9 M566.0,81.9 L570.5,81.9
		M80.9,71.5 L76.4,71.5 M566.0,71.5 L570.5,71.5 M80.9,62.3 L76.4,62.3 M566.0,62.3 L570.5,62.3
		M80.9,54.1 L71.9,54.1 M566.0,54.1 L575.0,54.1  '/>	<g transform="translate(63.6,58.0)" stroke="none" fill="black" font-family="Arial" font-size="12.00"  text-anchor="end">
		<text><tspan font-family="Arial" > 10</tspan></text>
	</g>
</g>
<g fill="none" color="black" stroke="currentColor" stroke-width="1.00" stroke-linecap="butt" stroke-linejoin="miter">
	<path stroke='black'  d='M80.9,413.4 L80.9,422.4 M80.9,54.1 L80.9,45.1  '/>	<g transform="translate(80.9,444.3)" stroke="none" fill="black" font-family="Arial" font-size="12.00"  text-anchor="middle">
		<text><tspan font-family="Arial" > 100</tspan></text>
	</g>
</g>
<g fill="none" color="black" stroke="currentColor" stroke-width="1.00" stroke-linecap="butt" stroke-linejoin="miter">
	<path stroke='black'  d='M153.9,413.4 L153.9,417.9 M153.9,54.1 L153.9,49.6 M196.6,413.4 L196.6,417.9 M196.6,54.1 L196.6,49.6
		M226.9,413.4 L226.9,417.9 M226.9,54.1 L226.9,49.6 M250.4,413.4 L250.4,417.9 M250.4,54.1 L250.4,49.6
		M269.6,413.4 L269.6,417.9 M269.6,54.1 L269.6,49.6 M285.9,413.4 L285.9,417.9 M285.9,54.1 L285.9,49.6
		M299.9,413.4 L299.9,417.9 M299.9,54.1 L299.9,49.6 M312.4,413.4 L312.4,417.9 M312.4,54.1 L312.4,49.6
		M323.5,413.4 L323.5,422.4 M323.5,54.1 L323.5,45.1  '/>	<g transform="translate(323.5,444.3)" stroke="none" fill="black" font-family="Arial" font-size="12.00"  text-anchor="middle">
		<text><tspan font-family="Arial" > 1000</tspan></text>
	</g>
</g>
<g fill="none" color="black" stroke="currentColor" stroke-width="1.00" stroke-linecap="butt" stroke-linejoin="miter">
	<path stroke='black'  d='M396.5,413.4 L396.5,417.9 M396.5,54.1 L396.5,49.6 M439.2,413.4 L439.2,417.9 M439.2,54.1 L439.2,49.6
		M469.5,413.4 L469.5,417.9 M469.5,54.1 L469.5,49.6 M493.0,413.4 L493.0,417.9 M493.0,54.1 L493.0,49.6
		M512.2,413.4 L512.2,417.9 M512.2,54.1 L512.2,49.6 M528.4,413.4 L528.4,417.9 M528.4,54.1 L528.4,49.6
		M542.5,413.4 L542.5,417.9 M542.5,54.1 L542.5,49.6 M554.9,413.4 L554.9,417.9 M554.9,54.1 L554.9,49.6
		M566.0,413.4 L566.0,422.4 M566.0,54.1 L566.0,45.1  '/>	<g transform="translate(566.0,444.3)" stroke="none" fill="black" font-family="Arial" font-size="12.00"  text-anchor="middle">
		<text><tspan font-family="Arial" > 10000</tspan></text>
	</g>
</g>
<g fill="none" color="black" stroke="currentColor" stroke-width="1.00" stroke-linecap="butt" stroke-linejoin="miter">
</g>
<g fill="none" color="black" stroke="currentColor" stroke-width="1.00" stroke-linecap="butt" stroke-linejoin="miter">
	<path stroke='black'  d='M80.9,54.1 L80.9,413.4 L566.0,413.4 L566.0,54.1 L80.9,54.1 Z  '/></g>
<g fill="none" color="black" stroke="currentColor" stroke-width="1.00" stroke-linecap="butt" stroke-linejoin="miter">
	<g transform="translate(19.0,233.8) rotate(270)" stroke="none" fill="black" font-family="Arial" font-size="12.00"  text-anchor="middle">
		<text><tspan font-family="Arial" >Error</tspan></text>
	</g>
</g>
<g fill="none" color="black" stroke="currentColor" stroke-width="1.00" stroke-linecap="butt" stroke-linejoin="miter">
	<g transform="translate(323.4,471.3)" stroke="none" fill="black" font-family="Arial" font-size="12.00"  text-anchor="middle">
		<text><tspan font-family="Arial" >N</tspan></text>
	</g>
</g>
<g fill="none" color="black" stroke="currentColor" stroke-width="1.00" stroke-linecap="butt" stroke-linejoin="miter">
	<g transform="translate(323.4,31.0)" stroke="none" fill="black" font-family="Arial" font-size="12.00"  text-anchor="middle">
		<text><tspan font-family="Arial" >Error as a function of N</tspan></text>
	</g>
</g>
<g fill="none" color="black" stroke="currentColor" stroke-width="1.00" stroke-linecap="butt" stroke-linejoin="miter">
</g>
	<g id="gnuplot_plot_1" ><title>Errors</title>
<g fill="none" color="black" stroke="currentColor" stroke-width="1.00" stroke-linecap="butt" stroke-linejoin="miter">
	<g transform="translate(498.9,76.0)" stroke="none" fill="black" font-family="Arial" font-size="12.00"  text-anchor="end">
		<text><tspan font-family="Arial" >Errors</tspan></text>
	</g>
</g>
<g fill="none" color="black" stroke="currentColor" stroke-width="1.00" stroke-linecap="butt" stroke-linejoin="miter">
	<path stroke='rgb(148,   0, 211)'  d='M507.2,72.1 L549.4,72.1 M80.9,176.1 L153.9,205.7 L196.6,224.4 L226.9,236.9 L250.4,244.6 L269.6,251.8
		L285.9,260.8 L299.9,263.2 L312.4,267.1 L323.4,273.1 L333.5,275.8 L342.7,281.4 L351.1,283.7 L358.9,287.0
		L366.2,290.5 L373.0,290.9 L379.3,294.4 L385.4,294.7 L391.1,297.6 L396.5,300.3 L401.6,301.9 L406.5,303.3
		L411.2,306.4 L415.7,307.6 L420.0,308.4 L424.1,309.6 L428.1,311.0 L431.9,312.0 L435.6,315.1 L439.2,315.5
		L442.6,317.8 L446.0,317.9 L449.2,319.6 L452.4,321.2 L455.4,322.3 L458.4,322.8 L461.3,324.8 L464.1,324.3
		L466.8,326.5 L469.5,327.7 L472.1,329.0 L474.6,329.4 L477.1,330.4 L479.5,331.0 L481.9,331.0 L484.2,332.2
		L486.5,333.6 L488.7,334.4 L490.9,335.7 L493.0,336.7 L495.1,336.4 L497.1,337.0 L499.1,338.0 L501.1,338.5
		L503.0,339.5 L504.9,340.6 L506.8,340.3 L508.6,342.0 L510.4,342.9 L512.2,342.8 L513.9,342.9 L515.6,344.3
		L517.3,345.8 L519.0,345.8 L520.6,346.2 L522.2,347.2 L523.8,347.4 L525.4,348.2 L526.9,347.6 L528.4,349.6
		L529.9,348.9 L531.4,349.5 L532.8,350.3 L534.3,351.3 L535.7,351.1 L537.1,351.9 L538.5,352.3 L539.8,353.2
		L541.2,353.3 L542.5,354.1 L543.8,354.7 L545.1,355.0 L546.4,355.9 L547.6,356.5 L548.9,356.7 L550.1,356.8
		L551.3,357.0 L552.5,358.1 L553.7,357.9 L554.9,359.2 L556.1,359.9 L557.2,359.4 L558.4,360.3 L559.5,360.7
		L560.6,361.1 L561.7,361.7 L562.8,361.5 L563.9,361.8 L564.9,362.3 L566.0,362.7  '/></g>
	</g>
	<g id="gnuplot_plot_2" ><title>fit = 19.630*(1/sqrt(x))</title>
<g fill="none" color="black" stroke="currentColor" stroke-width="1.00" stroke-linecap="butt" stroke-linejoin="miter">
	<g transform="translate(498.9,94.0)" stroke="none" fill="black" font-family="Arial" font-size="12.00"  text-anchor="end">
		<text><tspan font-family="Arial" >fit = 19.630*(1/sqrt(x))</tspan></text>
	</g>
</g>
<g fill="none" color="black" stroke="currentColor" stroke-width="1.00" stroke-linecap="butt" stroke-linejoin="miter">
	<path stroke='rgb(  0, 158, 115)'  d='M507.2,90.1 L549.4,90.1 M80.9,181.1 L85.8,182.9 L90.7,184.8 L95.6,186.6 L100.5,188.4 L105.4,190.2
		L110.3,192.0 L115.2,193.8 L120.1,195.6 L125.0,197.5 L129.9,199.3 L134.8,201.1 L139.7,202.9 L144.6,204.7
		L149.5,206.5 L154.4,208.3 L159.3,210.2 L164.2,212.0 L169.1,213.8 L174.0,215.6 L178.9,217.4 L183.8,219.2
		L188.7,221.0 L193.6,222.9 L198.5,224.7 L203.4,226.5 L208.3,228.3 L213.2,230.1 L218.1,231.9 L223.0,233.8
		L227.9,235.6 L232.8,237.4 L237.7,239.2 L242.6,241.0 L247.5,242.8 L252.4,244.6 L257.3,246.5 L262.2,248.3
		L267.1,250.1 L272.0,251.9 L276.9,253.7 L281.8,255.5 L286.7,257.3 L291.6,259.2 L296.5,261.0 L301.4,262.8
		L306.3,264.6 L311.2,266.4 L316.1,268.2 L321.0,270.0 L325.9,271.9 L330.8,273.7 L335.7,275.5 L340.6,277.3
		L345.5,279.1 L350.4,280.9 L355.3,282.7 L360.2,284.6 L365.1,286.4 L370.0,288.2 L374.9,290.0 L379.8,291.8
		L384.7,293.6 L389.6,295.4 L394.5,297.3 L399.4,299.1 L404.3,300.9 L409.2,302.7 L414.1,304.5 L419.0,306.3
		L423.9,308.2 L428.8,310.0 L433.7,311.8 L438.6,313.6 L443.5,315.4 L448.4,317.2 L453.3,319.0 L458.2,320.9
		L463.1,322.7 L468.0,324.5 L472.9,326.3 L477.8,328.1 L482.7,329.9 L487.6,331.7 L492.5,333.6 L497.4,335.4
		L502.3,337.2 L507.2,339.0 L512.1,340.8 L517.0,342.6 L521.9,344.4 L526.8,346.3 L531.7,348.1 L536.6,349.9
		L541.5,351.7 L546.4,353.5 L551.3,355.3 L556.2,357.1 L561.1,359.0 L566.0,360.8  '/></g>
	</g>
<g fill="none" color="white" stroke="rgb(  0, 158, 115)" stroke-width="2.00" stroke-linecap="butt" stroke-linejoin="miter">
</g>
<g fill="none" color="black" stroke="currentColor" stroke-width="2.00" stroke-linecap="butt" stroke-linejoin="miter">
</g>
<g fill="none" color="black" stroke="black" stroke-width="1.00" stroke-linecap="butt" stroke-linejoin="miter">
</g>
<g fill="none" color="black" stroke="currentColor" stroke-width="1.00" stroke-linecap="butt" stroke-linejoin="miter">
	<path stroke='black'  d='M80.9,54.1 L80.9,413.4 L566.0,413.4 L566.0,54.1 L80.9,54.1 Z  '/></g>
<g fill="none" color="black" stroke="currentColor" stroke-width="1.00" stroke-linecap="butt" stroke-linejoin="miter">
</g>
</g>
</svg>

