Integration of x^2*y^2 with 2258377 points.
Integral  = 42.637652
Sigma     = 0.131455
True value= 42.666666
Error     = 0.029014 = 0.220715 sigma

Integration of Dmitri's singular integral with 70001 points.
Integral  = 1.379739
Sigma     = 0.012385
True value= 1.393204
Error     = 0.013465 = 1.087194 sigma

Integration of (Sqrt(x*y*z))^-1 with 100001 points.
Integral  = 7.871884
Sigma     = 0.076788
True value= 8.000000
Error     = 0.128116 = 1.668447 sigma

