100	2.09457695042701
200	1.43285009743958
300	1.12711315215044
400	0.960945048042452
500	0.870272640139492
600	0.793738341022314
700	0.707349453432628
800	0.685516178655025
900	0.652514463822241
1000	0.604142579156068
1100	0.583034815810498
1200	0.542895588891494
1300	0.526930390780716
1400	0.505546969747089
1500	0.482991832098284
1600	0.48060570653702
1700	0.459555908504844
1800	0.457785352749979
1900	0.441245996393954
2000	0.426271324066008
2100	0.41735503319952
2200	0.409907528421551
2300	0.393893522043309
2400	0.388273058964829
2500	0.384276271752644
2600	0.378134136957682
2700	0.371601333125698
2800	0.366803565721358
2900	0.352622501163274
3000	0.350838811189399
3100	0.340495394389284
3200	0.339894465040671
3300	0.332891377092944
3400	0.326131733714907
3500	0.321255191865796
3600	0.319359135906226
3700	0.31123085955173
3800	0.313377725002401
3900	0.304725445863288
4000	0.299948791092267
4100	0.295149852168077
4200	0.293366945494499
4300	0.289899528010819
4400	0.287490106824329
4500	0.287601004832365
4600	0.283281760124547
4700	0.278016694106768
4800	0.275284946016696
4900	0.270776824767617
5000	0.267412541965057
5100	0.268310200372281
5200	0.266383527891673
5300	0.262744775209602
5400	0.261012909638868
5500	0.257862935733636
5600	0.254141052547655
5700	0.255157431043677
5800	0.249739570243727
5900	0.246822549548947
6000	0.247281577618992
6100	0.246696894831108
6200	0.242315159944532
6300	0.237878358642311
6400	0.237799398544652
6500	0.23665669159873
6600	0.233556072529132
6700	0.232903543603345
6800	0.23068783483096
6900	0.232469120480518
7000	0.226403350989351
7100	0.22871523115501
7200	0.226717663496494
7300	0.224513027119311
7400	0.221758664918602
7500	0.222284470711152
7600	0.219900599714534
7700	0.218755766542515
7800	0.216312165736979
7900	0.21617392099418
8000	0.21395895548546
8100	0.212241013898717
8200	0.211260154210923
8300	0.208839606158473
8400	0.207467992593996
8500	0.206948353584482
8600	0.206584695507093
8700	0.20592431086673
8800	0.203234020741156
8900	0.203743356096566
9000	0.200347237948594
9100	0.198638749053998
9200	0.199757673022443
9300	0.197476786171687
9400	0.196456987919435
9500	0.195438485043928
9600	0.19401107504729
9700	0.19453306939628
9800	0.1936399258136
9900	0.192498366822183
10000	0.191510164748192
