To see the scaling of the calculation time see time.svg and time_comparison.svg

Below are some diagonalized (7x7) (lower triangular) matrices calculated using different methods
The matrix to be diagonalized:
     -1.66      -7.84      -5.41      -7.47      -9.53       8.41      -9.17 
     -7.84       8.77       6.71       4.65       2.59      0.533      -1.53 
     -5.41       6.71      0.898      -5.65      -7.71      -5.28       8.17 
     -7.47       4.65      -5.65       6.11       4.05       6.48    -0.0648 
     -9.53       2.59      -7.71       4.05       2.73       5.15       3.09 
      8.41      0.533      -5.28       6.48       5.15      -3.45      -5.51 
     -9.17      -1.53       8.17    -0.0648       3.09      -5.51      -3.09 


Diagonalized matrices:

                               Cyclic, #rotations =105

     -20.1  -6.54e-15   4.25e-17   1.11e-22  -5.74e-26   2.46e-28   -2.9e-29 
     -7.84      -14.8  -1.49e-17   4.14e-23  -1.29e-29   2.02e-28    1.3e-33 
     -5.41       6.71      -6.44   4.05e-24   3.39e-33  -1.14e-36  -9.56e-44 
     -7.47       4.65      -5.65     -0.199   -1.4e-34  -3.09e-40  -1.02e-55 
     -9.53       2.59      -7.71       4.05       7.64   9.56e-42  -3.49e-62 
      8.41      0.533      -5.28       6.48       5.15       20.3          0 
     -9.17      -1.53       8.17    -0.0648       3.09      -5.51       23.9 


			       Row-by-row, #rotations= 220

     -20.1   6.72e-05  -6.78e-05   5.55e-06     -3e-05   3.73e-05          0 
     -7.84      -14.8  -6.05e-05   9.66e-05   3.72e-05  -4.75e-05  -1.36e-20 
     -5.41       6.71      -6.44   1.48e-05  -2.47e-05   1.84e-05          0 
     -7.47       4.65      -5.65     -0.199  -4.27e-07  -1.41e-06  -8.47e-22 
     -9.53       2.59      -7.71       4.05       7.64  -4.34e-09  -1.32e-23 
      8.41      0.533      -5.28       6.48       5.15       20.3          0 
     -9.17      -1.53       8.17    -0.0648       3.09      -5.51       23.9 


Reversed order of eigenvalues, Cyclic,     #rotations= 105

      23.9  -4.88e-16  -3.12e-24   3.77e-27  -3.02e-30   6.96e-32  -3.44e-32 
     -7.84       20.3   8.95e-26   1.96e-28    1.7e-34   7.89e-31  -4.57e-49 
     -5.41       6.71       7.64  -1.21e-28   -1.2e-36  -7.92e-48   3.77e-52 
     -7.47       4.65      -5.65     -0.199  -7.85e-38  -1.13e-51  -6.13e-65 
     -9.53       2.59      -7.71       4.05      -6.44   2.83e-55   1.94e-83 
      8.41      0.533      -5.28       6.48       5.15      -14.8          0 
     -9.17      -1.53       8.17    -0.0648       3.09      -5.51      -20.1 


Reversed order of eigenvalues, Row-by-Row, #rotations= 223

      23.9   6.15e-06  -0.000174   7.31e-05   2.94e-05   1.57e-05          0 
     -7.84       20.3  -5.74e-05   7.93e-06   1.02e-05  -4.26e-06   1.36e-20 
     -5.41       6.71       7.64  -5.34e-05   4.33e-05   4.39e-06  -2.71e-20 
     -7.47       4.65      -5.65     -0.199   9.88e-06   6.05e-07  -8.47e-22 
     -9.53       2.59      -7.71       4.05      -6.44  -3.28e-07  -4.24e-22 
      8.41      0.533      -5.28       6.48       5.15      -14.8          0 
     -9.17      -1.53       8.17    -0.0648       3.09      -5.51      -20.1 


1 eigenvalue - smallest,       Row-by-Row, #rotations= 102

     -20.1   6.72e-05  -6.78e-05   5.55e-06     -3e-05   3.73e-05          0 
     -7.84       14.9        8.2       6.37       3.98      0.805       2.59 
     -5.41       6.71       1.36      -4.19      -4.58      -7.85       9.88 
     -7.47       4.65      -5.65       8.29        6.3       4.81       2.36 
     -9.53       2.59      -7.71       4.05       5.94       1.01       5.52 
      8.41      0.533      -5.28       6.48       5.15       2.99      -7.06 
     -9.17      -1.53       8.17    -0.0648       3.09      -5.51      -3.05 


1 eigenvalue,- largest         Row-by-Row, #rotations= 120

      23.9   6.15e-06  -0.000174   7.31e-05   2.94e-05   1.57e-05          0 
     -7.84      -7.37         -2      -3.98      -6.38       6.78      -7.08 
     -5.41       6.71      -3.69      -8.02       -8.9      -3.82       7.05 
     -7.47       4.65      -5.65       4.67       2.85       8.05      -2.03 
     -9.53       2.59      -7.71       4.05       1.67       5.89       1.71 
      8.41      0.533      -5.28       6.48       5.15      -3.72      -4.65 
     -9.17      -1.53       8.17    -0.0648       3.09      -5.51      -5.14 
            'Largest-off-diagonal' search, #rotations = 90

     -20.1  -2.95e-15  -2.41e-07   2.19e-11   4.34e-07   5.87e-21   1.08e-07 
     -7.84      -14.8   3.93e-11   1.16e-19   1.57e-08  -3.32e-09  -8.06e-19 
     -5.41       6.71      -6.44   5.25e-18  -2.44e-17  -1.22e-13  -1.86e-27 
     -7.47       4.65      -5.65     -0.199   6.46e-27  -1.95e-17   -9.7e-27 
     -9.53       2.59      -7.71       4.05       7.64   2.19e-41  -1.44e-27 
      8.41      0.533      -5.28       6.48       5.15       20.3  -6.31e-30 
     -9.17      -1.53       8.17    -0.0648       3.09      -5.51       23.9 
