<?xml version="1.0" encoding="utf-8"  standalone="no"?>
<svg 
 width="600" height="480"
 viewBox="0 0 600 480"
 xmlns="http://www.w3.org/2000/svg"
 xmlns:xlink="http://www.w3.org/1999/xlink"
>

<title>Gnuplot</title>
<desc>Produced by GNUPLOT 5.2 patchlevel 8 </desc>

<g id="gnuplot_canvas">

<rect x="0" y="0" width="600" height="480" fill="none"/>
<defs>

	<circle id='gpDot' r='0.5' stroke-width='0.5' stroke='currentColor'/>
	<path id='gpPt0' stroke-width='0.222' stroke='currentColor' d='M-1,0 h2 M0,-1 v2'/>
	<path id='gpPt1' stroke-width='0.222' stroke='currentColor' d='M-1,-1 L1,1 M1,-1 L-1,1'/>
	<path id='gpPt2' stroke-width='0.222' stroke='currentColor' d='M-1,0 L1,0 M0,-1 L0,1 M-1,-1 L1,1 M-1,1 L1,-1'/>
	<rect id='gpPt3' stroke-width='0.222' stroke='currentColor' x='-1' y='-1' width='2' height='2'/>
	<rect id='gpPt4' stroke-width='0.222' stroke='currentColor' fill='currentColor' x='-1' y='-1' width='2' height='2'/>
	<circle id='gpPt5' stroke-width='0.222' stroke='currentColor' cx='0' cy='0' r='1'/>
	<use xlink:href='#gpPt5' id='gpPt6' fill='currentColor' stroke='none'/>
	<path id='gpPt7' stroke-width='0.222' stroke='currentColor' d='M0,-1.33 L-1.33,0.67 L1.33,0.67 z'/>
	<use xlink:href='#gpPt7' id='gpPt8' fill='currentColor' stroke='none'/>
	<use xlink:href='#gpPt7' id='gpPt9' stroke='currentColor' transform='rotate(180)'/>
	<use xlink:href='#gpPt9' id='gpPt10' fill='currentColor' stroke='none'/>
	<use xlink:href='#gpPt3' id='gpPt11' stroke='currentColor' transform='rotate(45)'/>
	<use xlink:href='#gpPt11' id='gpPt12' fill='currentColor' stroke='none'/>
	<path id='gpPt13' stroke-width='0.222' stroke='currentColor' d='M0,1.330 L1.265,0.411 L0.782,-1.067 L-0.782,-1.076 L-1.265,0.411 z'/>
	<use xlink:href='#gpPt13' id='gpPt14' fill='currentColor' stroke='none'/>
	<filter id='textbox' filterUnits='objectBoundingBox' x='0' y='0' height='1' width='1'>
	  <feFlood flood-color='white' flood-opacity='1' result='bgnd'/>
	  <feComposite in='SourceGraphic' in2='bgnd' operator='atop'/>
	</filter>
	<filter id='greybox' filterUnits='objectBoundingBox' x='0' y='0' height='1' width='1'>
	  <feFlood flood-color='lightgrey' flood-opacity='1' result='grey'/>
	  <feComposite in='SourceGraphic' in2='grey' operator='atop'/>
	</filter>
</defs>
<g fill="none" color="white" stroke="currentColor" stroke-width="1.00" stroke-linecap="butt" stroke-linejoin="miter">
</g>
<g fill="none" color="black" stroke="currentColor" stroke-width="1.00" stroke-linecap="butt" stroke-linejoin="miter">
	<path stroke='black'  d='M71.9,422.4 L80.9,422.4 M575.0,422.4 L566.0,422.4  '/>	<g transform="translate(63.6,426.3)" stroke="none" fill="black" font-family="Arial" font-size="12.00"  text-anchor="end">
		<text><tspan font-family="Arial" >-2</tspan></text>
	</g>
</g>
<g fill="none" color="black" stroke="currentColor" stroke-width="1.00" stroke-linecap="butt" stroke-linejoin="miter">
	<path stroke='black'  d='M71.9,361.0 L80.9,361.0 M575.0,361.0 L566.0,361.0  '/>	<g transform="translate(63.6,364.9)" stroke="none" fill="black" font-family="Arial" font-size="12.00"  text-anchor="end">
		<text><tspan font-family="Arial" >-1.5</tspan></text>
	</g>
</g>
<g fill="none" color="black" stroke="currentColor" stroke-width="1.00" stroke-linecap="butt" stroke-linejoin="miter">
	<path stroke='black'  d='M71.9,299.6 L80.9,299.6 M575.0,299.6 L566.0,299.6  '/>	<g transform="translate(63.6,303.5)" stroke="none" fill="black" font-family="Arial" font-size="12.00"  text-anchor="end">
		<text><tspan font-family="Arial" >-1</tspan></text>
	</g>
</g>
<g fill="none" color="black" stroke="currentColor" stroke-width="1.00" stroke-linecap="butt" stroke-linejoin="miter">
	<path stroke='black'  d='M71.9,238.2 L80.9,238.2 M575.0,238.2 L566.0,238.2  '/>	<g transform="translate(63.6,242.1)" stroke="none" fill="black" font-family="Arial" font-size="12.00"  text-anchor="end">
		<text><tspan font-family="Arial" >-0.5</tspan></text>
	</g>
</g>
<g fill="none" color="black" stroke="currentColor" stroke-width="1.00" stroke-linecap="butt" stroke-linejoin="miter">
	<path stroke='black'  d='M71.9,176.9 L80.9,176.9 M575.0,176.9 L566.0,176.9  '/>	<g transform="translate(63.6,180.8)" stroke="none" fill="black" font-family="Arial" font-size="12.00"  text-anchor="end">
		<text><tspan font-family="Arial" > 0</tspan></text>
	</g>
</g>
<g fill="none" color="black" stroke="currentColor" stroke-width="1.00" stroke-linecap="butt" stroke-linejoin="miter">
	<path stroke='black'  d='M71.9,115.5 L80.9,115.5 M575.0,115.5 L566.0,115.5  '/>	<g transform="translate(63.6,119.4)" stroke="none" fill="black" font-family="Arial" font-size="12.00"  text-anchor="end">
		<text><tspan font-family="Arial" > 0.5</tspan></text>
	</g>
</g>
<g fill="none" color="black" stroke="currentColor" stroke-width="1.00" stroke-linecap="butt" stroke-linejoin="miter">
	<path stroke='black'  d='M71.9,54.1 L80.9,54.1 M575.0,54.1 L566.0,54.1  '/>	<g transform="translate(63.6,58.0)" stroke="none" fill="black" font-family="Arial" font-size="12.00"  text-anchor="end">
		<text><tspan font-family="Arial" > 1</tspan></text>
	</g>
</g>
<g fill="none" color="black" stroke="currentColor" stroke-width="1.00" stroke-linecap="butt" stroke-linejoin="miter">
	<path stroke='black'  d='M71.9,422.4 L71.9,413.4 M71.9,54.1 L71.9,63.1  '/>	<g transform="translate(71.9,444.3)" stroke="none" fill="black" font-family="Arial" font-size="12.00"  text-anchor="middle">
		<text><tspan font-family="Arial" >-2</tspan></text>
	</g>
</g>
<g fill="none" color="black" stroke="currentColor" stroke-width="1.00" stroke-linecap="butt" stroke-linejoin="miter">
	<path stroke='black'  d='M134.8,422.4 L134.8,413.4 M134.8,54.1 L134.8,63.1  '/>	<g transform="translate(134.8,444.3)" stroke="none" fill="black" font-family="Arial" font-size="12.00"  text-anchor="middle">
		<text><tspan font-family="Arial" >-1.5</tspan></text>
	</g>
</g>
<g fill="none" color="black" stroke="currentColor" stroke-width="1.00" stroke-linecap="butt" stroke-linejoin="miter">
	<path stroke='black'  d='M197.7,422.4 L197.7,413.4 M197.7,54.1 L197.7,63.1  '/>	<g transform="translate(197.7,444.3)" stroke="none" fill="black" font-family="Arial" font-size="12.00"  text-anchor="middle">
		<text><tspan font-family="Arial" >-1</tspan></text>
	</g>
</g>
<g fill="none" color="black" stroke="currentColor" stroke-width="1.00" stroke-linecap="butt" stroke-linejoin="miter">
	<path stroke='black'  d='M260.6,422.4 L260.6,413.4 M260.6,54.1 L260.6,63.1  '/>	<g transform="translate(260.6,444.3)" stroke="none" fill="black" font-family="Arial" font-size="12.00"  text-anchor="middle">
		<text><tspan font-family="Arial" >-0.5</tspan></text>
	</g>
</g>
<g fill="none" color="black" stroke="currentColor" stroke-width="1.00" stroke-linecap="butt" stroke-linejoin="miter">
	<path stroke='black'  d='M323.5,422.4 L323.5,413.4 M323.5,54.1 L323.5,63.1  '/>	<g transform="translate(323.5,444.3)" stroke="none" fill="black" font-family="Arial" font-size="12.00"  text-anchor="middle">
		<text><tspan font-family="Arial" > 0</tspan></text>
	</g>
</g>
<g fill="none" color="black" stroke="currentColor" stroke-width="1.00" stroke-linecap="butt" stroke-linejoin="miter">
	<path stroke='black'  d='M386.3,422.4 L386.3,413.4 M386.3,54.1 L386.3,63.1  '/>	<g transform="translate(386.3,444.3)" stroke="none" fill="black" font-family="Arial" font-size="12.00"  text-anchor="middle">
		<text><tspan font-family="Arial" > 0.5</tspan></text>
	</g>
</g>
<g fill="none" color="black" stroke="currentColor" stroke-width="1.00" stroke-linecap="butt" stroke-linejoin="miter">
	<path stroke='black'  d='M449.2,422.4 L449.2,413.4 M449.2,54.1 L449.2,63.1  '/>	<g transform="translate(449.2,444.3)" stroke="none" fill="black" font-family="Arial" font-size="12.00"  text-anchor="middle">
		<text><tspan font-family="Arial" > 1</tspan></text>
	</g>
</g>
<g fill="none" color="black" stroke="currentColor" stroke-width="1.00" stroke-linecap="butt" stroke-linejoin="miter">
	<path stroke='black'  d='M512.1,422.4 L512.1,413.4 M512.1,54.1 L512.1,63.1  '/>	<g transform="translate(512.1,444.3)" stroke="none" fill="black" font-family="Arial" font-size="12.00"  text-anchor="middle">
		<text><tspan font-family="Arial" > 1.5</tspan></text>
	</g>
</g>
<g fill="none" color="black" stroke="currentColor" stroke-width="1.00" stroke-linecap="butt" stroke-linejoin="miter">
	<path stroke='black'  d='M575.0,422.4 L575.0,413.4 M575.0,54.1 L575.0,63.1  '/>	<g transform="translate(575.0,444.3)" stroke="none" fill="black" font-family="Arial" font-size="12.00"  text-anchor="middle">
		<text><tspan font-family="Arial" > 2</tspan></text>
	</g>
</g>
<g fill="none" color="black" stroke="currentColor" stroke-width="1.00" stroke-linecap="butt" stroke-linejoin="miter">
</g>
<g fill="none" color="black" stroke="currentColor" stroke-width="1.00" stroke-linecap="butt" stroke-linejoin="miter">
	<path stroke='black'  d='M71.9,54.1 L71.9,422.4 L575.0,422.4 L575.0,54.1 L71.9,54.1 Z  '/></g>
<g fill="none" color="black" stroke="currentColor" stroke-width="1.00" stroke-linecap="butt" stroke-linejoin="miter">
	<g transform="translate(19.0,238.3) rotate(270)" stroke="none" fill="black" font-family="Arial" font-size="12.00"  text-anchor="middle">
		<text><tspan font-family="Arial" >y</tspan></text>
	</g>
</g>
<g fill="none" color="black" stroke="currentColor" stroke-width="1.00" stroke-linecap="butt" stroke-linejoin="miter">
	<g transform="translate(323.4,471.3)" stroke="none" fill="black" font-family="Arial" font-size="12.00"  text-anchor="middle">
		<text><tspan font-family="Arial" >x</tspan></text>
	</g>
</g>
<g fill="none" color="black" stroke="currentColor" stroke-width="1.00" stroke-linecap="butt" stroke-linejoin="miter">
	<g transform="translate(323.4,31.0)" stroke="none" fill="black" font-family="Arial" font-size="12.00"  text-anchor="middle">
		<text><tspan font-family="Arial" >derivative of cubic interpolation</tspan></text>
	</g>
</g>
<g fill="none" color="black" stroke="currentColor" stroke-width="1.00" stroke-linecap="butt" stroke-linejoin="miter">
</g>
	<g id="gnuplot_plot_1" ><title>exact derivative</title>
<g fill="none" color="black" stroke="currentColor" stroke-width="1.00" stroke-linecap="butt" stroke-linejoin="miter">
	<g transform="translate(507.9,233.2)" stroke="none" fill="black" font-family="Arial" font-size="12.00"  text-anchor="end">
		<text><tspan font-family="Arial" >exact derivative</tspan></text>
	</g>
</g>
<g fill="none" color="black" stroke="currentColor" stroke-width="1.00" stroke-linecap="butt" stroke-linejoin="miter">
	<path stroke='rgb(148,   0, 211)'  d='M516.2,229.3 L558.4,229.3 M71.9,145.4 L72.4,145.0 L72.9,144.7 L73.4,144.3 L73.9,143.9 L74.4,143.6
		L74.9,143.2 L75.4,142.8 L75.9,142.4 L76.4,142.0 L76.9,141.6 L77.4,141.3 L77.9,140.9 L78.4,140.5
		L79.0,140.1 L79.5,139.7 L80.0,139.3 L80.5,138.9 L81.0,138.5 L81.5,138.1 L82.0,137.6 L82.5,137.2
		L83.0,136.8 L83.5,136.4 L84.0,136.0 L84.5,135.5 L85.0,135.1 L85.5,134.7 L86.0,134.3 L86.5,133.8
		L87.0,133.4 L87.5,132.9 L88.0,132.5 L88.5,132.1 L89.0,131.6 L89.5,131.2 L90.0,130.7 L90.5,130.2
		L91.0,129.8 L91.5,129.3 L92.0,128.9 L92.5,128.4 L93.1,127.9 L93.6,127.5 L94.1,127.0 L94.6,126.5
		L95.1,126.1 L95.6,125.6 L96.1,125.1 L96.6,124.6 L97.1,124.1 L97.6,123.7 L98.1,123.2 L98.6,122.7
		L99.1,122.2 L99.6,121.7 L100.1,121.2 L100.6,120.7 L101.1,120.2 L101.6,119.7 L102.1,119.2 L102.6,118.7
		L103.1,118.2 L103.6,117.7 L104.1,117.2 L104.6,116.7 L105.1,116.2 L105.6,115.7 L106.1,115.2 L106.6,114.7
		L107.2,114.2 L107.7,113.7 L108.2,113.1 L108.7,112.6 L109.2,112.1 L109.7,111.6 L110.2,111.1 L110.7,110.6
		L111.2,110.0 L111.7,109.5 L112.2,109.0 L112.7,108.5 L113.2,108.0 L113.7,107.4 L114.2,106.9 L114.7,106.4
		L115.2,105.9 L115.7,105.4 L116.2,104.8 L116.7,104.3 L117.2,103.8 L117.7,103.3 L118.2,102.8 L118.7,102.2
		L119.2,101.7 L119.7,101.2 L120.2,100.7 L120.7,100.2 L121.3,99.6 L121.8,99.1 L122.3,98.6 L122.8,98.1
		L123.3,97.6 L123.8,97.1 L124.3,96.6 L124.8,96.0 L125.3,95.5 L125.8,95.0 L126.3,94.5 L126.8,94.0
		L127.3,93.5 L127.8,93.0 L128.3,92.5 L128.8,92.0 L129.3,91.5 L129.8,91.0 L130.3,90.5 L130.8,90.1
		L131.3,89.6 L131.8,89.1 L132.3,88.6 L132.8,88.1 L133.3,87.6 L133.8,87.2 L134.3,86.7 L134.9,86.2
		L135.4,85.8 L135.9,85.3 L136.4,84.8 L136.9,84.4 L137.4,83.9 L137.9,83.5 L138.4,83.1 L138.9,82.6
		L139.4,82.2 L139.9,81.7 L140.4,81.3 L140.9,80.9 L141.4,80.5 L141.9,80.1 L142.4,79.7 L142.9,79.2
		L143.4,78.8 L143.9,78.4 L144.4,78.1 L144.9,77.7 L145.4,77.3 L145.9,76.9 L146.4,76.5 L146.9,76.2
		L147.4,75.8 L147.9,75.5 L148.4,75.1 L149.0,74.8 L149.5,74.4 L150.0,74.1 L150.5,73.8 L151.0,73.5
		L151.5,73.2 L152.0,72.9 L152.5,72.6 L153.0,72.3 L153.5,72.0 L154.0,71.7 L154.5,71.5 L155.0,71.2
		L155.5,70.9 L156.0,70.7 L156.5,70.5 L157.0,70.2 L157.5,70.0 L158.0,69.8 L158.5,69.6 L159.0,69.4
		L159.5,69.2 L160.0,69.0 L160.5,68.8 L161.0,68.7 L161.5,68.5 L162.0,68.4 L162.5,68.2 L163.1,68.1
		L163.6,68.0 L164.1,67.9 L164.6,67.8 L165.1,67.7 L165.6,67.6 L166.1,67.5 L166.6,67.5 L167.1,67.4
		L167.6,67.4 L168.1,67.3 L168.6,67.3 L169.1,67.3 L169.6,67.3 L170.1,67.3 L170.6,67.3 L171.1,67.4
		L171.6,67.4 L172.1,67.5 L172.6,67.5 L173.1,67.6 L173.6,67.7 L174.1,67.8 L174.6,67.9 L175.1,68.0
		L175.6,68.1 L176.1,68.3 L176.6,68.4 L177.2,68.6 L177.7,68.8 L178.2,69.0 L178.7,69.2 L179.2,69.4
		L179.7,69.6 L180.2,69.9 L180.7,70.1 L181.2,70.4 L181.7,70.7 L182.2,71.0 L182.7,71.3 L183.2,71.6
		L183.7,71.9 L184.2,72.3 L184.7,72.6 L185.2,73.0 L185.7,73.4 L186.2,73.8 L186.7,74.2 L187.2,74.6
		L187.7,75.0 L188.2,75.5 L188.7,76.0 L189.2,76.4 L189.7,76.9 L190.2,77.4 L190.8,77.9 L191.3,78.5
		L191.8,79.0 L192.3,79.6 L192.8,80.2 L193.3,80.8 L193.8,81.4 L194.3,82.0 L194.8,82.6 L195.3,83.3
		L195.8,83.9 L196.3,84.6 L196.8,85.3 L197.3,86.0 L197.8,86.7 L198.3,87.5 L198.8,88.2 L199.3,89.0
		L199.8,89.7 L200.3,90.5 L200.8,91.3 L201.3,92.2 L201.8,93.0 L202.3,93.9 L202.8,94.7 L203.3,95.6
		L203.8,96.5 L204.3,97.4 L204.9,98.3 L205.4,99.3 L205.9,100.2 L206.4,101.2 L206.9,102.2 L207.4,103.2
		L207.9,104.2 L208.4,105.2 L208.9,106.2 L209.4,107.3 L209.9,108.4 L210.4,109.4 L210.9,110.5 L211.4,111.7
		L211.9,112.8 L212.4,113.9 L212.9,115.1 L213.4,116.2 L213.9,117.4 L214.4,118.6 L214.9,119.8 L215.4,121.1
		L215.9,122.3 L216.4,123.5 L216.9,124.8 L217.4,126.1 L217.9,127.4 L218.4,128.7 L219.0,130.0 L219.5,131.3
		L220.0,132.7 L220.5,134.1 L221.0,135.4 L221.5,136.8 L222.0,138.2 L222.5,139.6 L223.0,141.0 L223.5,142.5
		L224.0,143.9 L224.5,145.4 L225.0,146.9 L225.5,148.4 L226.0,149.8 L226.5,151.4 L227.0,152.9 L227.5,154.4
		L228.0,156.0 L228.5,157.5 L229.0,159.1 L229.5,160.7 L230.0,162.3 L230.5,163.9 L231.0,165.5 L231.5,167.1
		L232.0,168.7 L232.5,170.4 L233.1,172.0 L233.6,173.7 L234.1,175.4 L234.6,177.0 L235.1,178.7 L235.6,180.4
		L236.1,182.1 L236.6,183.9 L237.1,185.6 L237.6,187.3 L238.1,189.1 L238.6,190.8 L239.1,192.6 L239.6,194.4
		L240.1,196.1 L240.6,197.9 L241.1,199.7 L241.6,201.5 L242.1,203.3 L242.6,205.1 L243.1,207.0 L243.6,208.8
		L244.1,210.6 L244.6,212.5 L245.1,214.3 L245.6,216.2 L246.1,218.0 L246.7,219.9 L247.2,221.7 L247.7,223.6
		L248.2,225.5 L248.7,227.4 L249.2,229.3 L249.7,231.1 L250.2,233.0 L250.7,234.9 L251.2,236.8 L251.7,238.7
		L252.2,240.6 L252.7,242.5 L253.2,244.4 L253.7,246.4 L254.2,248.3 L254.7,250.2 L255.2,252.1 L255.7,254.0
		L256.2,255.9 L256.7,257.9 L257.2,259.8 L257.7,261.7 L258.2,263.6 L258.7,265.5 L259.2,267.4 L259.7,269.4
		L260.2,271.3 L260.8,273.2 L261.3,275.1 L261.8,277.0 L262.3,278.9 L262.8,280.8 L263.3,282.7 L263.8,284.6
		L264.3,286.5 L264.8,288.4 L265.3,290.3 L265.8,292.2 L266.3,294.1 L266.8,296.0 L267.3,297.8 L267.8,299.7
		L268.3,301.6 L268.8,303.4 L269.3,305.3 L269.8,307.1 L270.3,309.0 L270.8,310.8 L271.3,312.6 L271.8,314.4
		L272.3,316.3 L272.8,318.1 L273.3,319.9 L273.8,321.6 L274.3,323.4 L274.9,325.2 L275.4,327.0 L275.9,328.7
		L276.4,330.5 L276.9,332.2 L277.4,333.9 L277.9,335.6 L278.4,337.3 L278.9,339.0 L279.4,340.7 L279.9,342.4
		L280.4,344.1 L280.9,345.7 L281.4,347.3 L281.9,349.0 L282.4,350.6 L282.9,352.2 L283.4,353.8 L283.9,355.4
		L284.4,356.9 L284.9,358.5 L285.4,360.0 L285.9,361.5 L286.4,363.0 L286.9,364.5 L287.4,366.0 L287.9,367.5
		L288.4,368.9 L289.0,370.3 L289.5,371.8 L290.0,373.2 L290.5,374.5 L291.0,375.9 L291.5,377.3 L292.0,378.6
		L292.5,379.9 L293.0,381.2 L293.5,382.5 L294.0,383.8 L294.5,385.0 L295.0,386.3 L295.5,387.5 L296.0,388.7
		L296.5,389.9 L297.0,391.0 L297.5,392.2 L298.0,393.3 L298.5,394.4 L299.0,395.5 L299.5,396.5 L300.0,397.6
		L300.5,398.6 L301.0,399.6 L301.5,400.6 L302.0,401.6 L302.6,402.5 L303.1,403.4 L303.6,404.4 L304.1,405.2
		L304.6,406.1 L305.1,406.9 L305.6,407.8 L306.1,408.6 L306.6,409.3 L307.1,410.1 L307.6,410.8 L308.1,411.6
		L308.6,412.2 L309.1,412.9 L309.6,413.6 L310.1,414.2 L310.6,414.8 L311.1,415.4 L311.6,415.9 L312.1,416.5
		L312.6,417.0 L313.1,417.5 L313.6,417.9 L314.1,418.4 L314.6,418.8 L315.1,419.2 L315.6,419.6 L316.1,419.9
		L316.7,420.3 L317.2,420.6 L317.7,420.8 L318.2,421.1 L318.7,421.3 L319.2,421.5 L319.7,421.7 L320.2,421.9
		L320.7,422.0 L321.2,422.2 L321.7,422.3 L322.2,422.3 L322.7,422.4 L323.2,422.4 L323.7,422.4 L324.2,422.4
		L324.7,422.3 L325.2,422.3 L325.7,422.2 L326.2,422.0 L326.7,421.9 L327.2,421.7 L327.7,421.5 L328.2,421.3
		L328.7,421.1 L329.2,420.8 L329.7,420.6 L330.2,420.3 L330.8,419.9 L331.3,419.6 L331.8,419.2 L332.3,418.8
		L332.8,418.4 L333.3,417.9 L333.8,417.5 L334.3,417.0 L334.8,416.5 L335.3,415.9 L335.8,415.4 L336.3,414.8
		L336.8,414.2 L337.3,413.6 L337.8,412.9 L338.3,412.2 L338.8,411.6 L339.3,410.8 L339.8,410.1 L340.3,409.3
		L340.8,408.6 L341.3,407.8 L341.8,406.9 L342.3,406.1 L342.8,405.2 L343.3,404.4 L343.8,403.4 L344.3,402.5
		L344.9,401.6 L345.4,400.6 L345.9,399.6 L346.4,398.6 L346.9,397.6 L347.4,396.5 L347.9,395.5 L348.4,394.4
		L348.9,393.3 L349.4,392.2 L349.9,391.0 L350.4,389.9 L350.9,388.7 L351.4,387.5 L351.9,386.3 L352.4,385.0
		L352.9,383.8 L353.4,382.5 L353.9,381.2 L354.4,379.9 L354.9,378.6 L355.4,377.3 L355.9,375.9 L356.4,374.5
		L356.9,373.2 L357.4,371.8 L357.9,370.3 L358.5,368.9 L359.0,367.5 L359.5,366.0 L360.0,364.5 L360.5,363.0
		L361.0,361.5 L361.5,360.0 L362.0,358.5 L362.5,356.9 L363.0,355.4 L363.5,353.8 L364.0,352.2 L364.5,350.6
		L365.0,349.0 L365.5,347.3 L366.0,345.7 L366.5,344.1 L367.0,342.4 L367.5,340.7 L368.0,339.0 L368.5,337.3
		L369.0,335.6 L369.5,333.9 L370.0,332.2 L370.5,330.5 L371.0,328.7 L371.5,327.0 L372.0,325.2 L372.6,323.4
		L373.1,321.6 L373.6,319.9 L374.1,318.1 L374.6,316.3 L375.1,314.4 L375.6,312.6 L376.1,310.8 L376.6,309.0
		L377.1,307.1 L377.6,305.3 L378.1,303.4 L378.6,301.6 L379.1,299.7 L379.6,297.8 L380.1,296.0 L380.6,294.1
		L381.1,292.2 L381.6,290.3 L382.1,288.4 L382.6,286.5 L383.1,284.6 L383.6,282.7 L384.1,280.8 L384.6,278.9
		L385.1,277.0 L385.6,275.1 L386.1,273.2 L386.7,271.3 L387.2,269.4 L387.7,267.4 L388.2,265.5 L388.7,263.6
		L389.2,261.7 L389.7,259.8 L390.2,257.9 L390.7,255.9 L391.2,254.0 L391.7,252.1 L392.2,250.2 L392.7,248.3
		L393.2,246.4 L393.7,244.4 L394.2,242.5 L394.7,240.6 L395.2,238.7 L395.7,236.8 L396.2,234.9 L396.7,233.0
		L397.2,231.1 L397.7,229.3 L398.2,227.4 L398.7,225.5 L399.2,223.6 L399.7,221.7 L400.2,219.9 L400.8,218.0
		L401.3,216.2 L401.8,214.3 L402.3,212.5 L402.8,210.6 L403.3,208.8 L403.8,207.0 L404.3,205.1 L404.8,203.3
		L405.3,201.5 L405.8,199.7 L406.3,197.9 L406.8,196.1 L407.3,194.4 L407.8,192.6 L408.3,190.8 L408.8,189.1
		L409.3,187.3 L409.8,185.6 L410.3,183.9 L410.8,182.1 L411.3,180.4 L411.8,178.7 L412.3,177.0 L412.8,175.4
		L413.3,173.7 L413.8,172.0 L414.4,170.4 L414.9,168.7 L415.4,167.1 L415.9,165.5 L416.4,163.9 L416.9,162.3
		L417.4,160.7 L417.9,159.1 L418.4,157.5 L418.9,156.0 L419.4,154.4 L419.9,152.9 L420.4,151.4 L420.9,149.8
		L421.4,148.4 L421.9,146.9 L422.4,145.4 L422.9,143.9 L423.4,142.5 L423.9,141.0 L424.4,139.6 L424.9,138.2
		L425.4,136.8 L425.9,135.4 L426.4,134.1 L426.9,132.7 L427.4,131.3 L427.9,130.0 L428.5,128.7 L429.0,127.4
		L429.5,126.1 L430.0,124.8 L430.5,123.5 L431.0,122.3 L431.5,121.1 L432.0,119.8 L432.5,118.6 L433.0,117.4
		L433.5,116.2 L434.0,115.1 L434.5,113.9 L435.0,112.8 L435.5,111.7 L436.0,110.5 L436.5,109.4 L437.0,108.4
		L437.5,107.3 L438.0,106.2 L438.5,105.2 L439.0,104.2 L439.5,103.2 L440.0,102.2 L440.5,101.2 L441.0,100.2
		L441.5,99.3 L442.0,98.3 L442.6,97.4 L443.1,96.5 L443.6,95.6 L444.1,94.7 L444.6,93.9 L445.1,93.0
		L445.6,92.2 L446.1,91.3 L446.6,90.5 L447.1,89.7 L447.6,89.0 L448.1,88.2 L448.6,87.5 L449.1,86.7
		L449.6,86.0 L450.1,85.3 L450.6,84.6 L451.1,83.9 L451.6,83.3 L452.1,82.6 L452.6,82.0 L453.1,81.4
		L453.6,80.8 L454.1,80.2 L454.6,79.6 L455.1,79.0 L455.6,78.5 L456.1,77.9 L456.7,77.4 L457.2,76.9
		L457.7,76.4 L458.2,76.0 L458.7,75.5 L459.2,75.0 L459.7,74.6 L460.2,74.2 L460.7,73.8 L461.2,73.4
		L461.7,73.0 L462.2,72.6 L462.7,72.3 L463.2,71.9 L463.7,71.6 L464.2,71.3 L464.7,71.0 L465.2,70.7
		L465.7,70.4 L466.2,70.1 L466.7,69.9 L467.2,69.6 L467.7,69.4 L468.2,69.2 L468.7,69.0 L469.2,68.8
		L469.7,68.6 L470.3,68.4 L470.8,68.3 L471.3,68.1 L471.8,68.0 L472.3,67.9 L472.8,67.8 L473.3,67.7
		L473.8,67.6 L474.3,67.5 L474.8,67.5 L475.3,67.4 L475.8,67.4 L476.3,67.3 L476.8,67.3 L477.3,67.3
		L477.8,67.3 L478.3,67.3 L478.8,67.3 L479.3,67.4 L479.8,67.4 L480.3,67.5 L480.8,67.5 L481.3,67.6
		L481.8,67.7 L482.3,67.8 L482.8,67.9 L483.3,68.0 L483.8,68.1 L484.4,68.2 L484.9,68.4 L485.4,68.5
		L485.9,68.7 L486.4,68.8 L486.9,69.0 L487.4,69.2 L487.9,69.4 L488.4,69.6 L488.9,69.8 L489.4,70.0
		L489.9,70.2 L490.4,70.5 L490.9,70.7 L491.4,70.9 L491.9,71.2 L492.4,71.5 L492.9,71.7 L493.4,72.0
		L493.9,72.3 L494.4,72.6 L494.9,72.9 L495.4,73.2 L495.9,73.5 L496.4,73.8 L496.9,74.1 L497.4,74.4
		L497.9,74.8 L498.5,75.1 L499.0,75.5 L499.5,75.8 L500.0,76.2 L500.5,76.5 L501.0,76.9 L501.5,77.3
		L502.0,77.7 L502.5,78.1 L503.0,78.4 L503.5,78.8 L504.0,79.2 L504.5,79.7 L505.0,80.1 L505.5,80.5
		L506.0,80.9 L506.5,81.3 L507.0,81.7 L507.5,82.2 L508.0,82.6 L508.5,83.1 L509.0,83.5 L509.5,83.9
		L510.0,84.4 L510.5,84.8 L511.0,85.3 L511.5,85.8 L512.0,86.2 L512.6,86.7 L513.1,87.2 L513.6,87.6
		L514.1,88.1 L514.6,88.6 L515.1,89.1 L515.6,89.6 L516.1,90.1 L516.6,90.5 L517.1,91.0 L517.6,91.5
		L518.1,92.0 L518.6,92.5 L519.1,93.0 L519.6,93.5 L520.1,94.0 L520.6,94.5 L521.1,95.0 L521.6,95.5
		L522.1,96.0 L522.6,96.6 L523.1,97.1 L523.6,97.6 L524.1,98.1 L524.6,98.6 L525.1,99.1 L525.6,99.6
		L526.2,100.2 L526.7,100.7 L527.2,101.2 L527.7,101.7 L528.2,102.2 L528.7,102.8 L529.2,103.3 L529.7,103.8
		L530.2,104.3 L530.7,104.8 L531.2,105.4 L531.7,105.9 L532.2,106.4 L532.7,106.9 L533.2,107.4 L533.7,108.0
		L534.2,108.5 L534.7,109.0 L535.2,109.5 L535.7,110.0 L536.2,110.6 L536.7,111.1 L537.2,111.6 L537.7,112.1
		L538.2,112.6 L538.7,113.1 L539.2,113.7 L539.7,114.2 L540.3,114.7 L540.8,115.2 L541.3,115.7 L541.8,116.2
		L542.3,116.7 L542.8,117.2 L543.3,117.7 L543.8,118.2 L544.3,118.7 L544.8,119.2 L545.3,119.7 L545.8,120.2
		L546.3,120.7 L546.8,121.2 L547.3,121.7 L547.8,122.2 L548.3,122.7 L548.8,123.2 L549.3,123.7 L549.8,124.1
		L550.3,124.6 L550.8,125.1 L551.3,125.6 L551.8,126.1 L552.3,126.5 L552.8,127.0 L553.3,127.5 L553.8,127.9
		L554.4,128.4 L554.9,128.9 L555.4,129.3 L555.9,129.8 L556.4,130.2 L556.9,130.7 L557.4,131.2 L557.9,131.6
		L558.4,132.1 L558.9,132.5 L559.4,132.9 L559.9,133.4 L560.4,133.8 L560.9,134.3 L561.4,134.7 L561.9,135.1
		L562.4,135.5 L562.9,136.0 L563.4,136.4 L563.9,136.8 L564.4,137.2 L564.9,137.6 L565.4,138.1 L565.9,138.5
		L566.4,138.9 L566.9,139.3 L567.4,139.7 L567.9,140.1 L568.5,140.5 L569.0,140.9 L569.5,141.3 L570.0,141.6
		L570.5,142.0 L571.0,142.4 L571.5,142.8 L572.0,143.2 L572.5,143.6 L573.0,143.9 L573.5,144.3 L574.0,144.7
		L574.5,145.0 L575.0,145.4  '/></g>
	</g>
	<g id="gnuplot_plot_2" ><title>spline derivative</title>
<g fill="none" color="black" stroke="currentColor" stroke-width="1.00" stroke-linecap="butt" stroke-linejoin="miter">
	<g transform="translate(507.9,251.2)" stroke="none" fill="black" font-family="Arial" font-size="12.00"  text-anchor="end">
		<text><tspan font-family="Arial" >spline derivative</tspan></text>
	</g>
</g>
<g fill="none" color="black" stroke="currentColor" stroke-width="1.00" stroke-linecap="butt" stroke-linejoin="miter">
	<path stroke='rgb(  0, 158, 115)'  d='M516.2,247.3 L558.4,247.3 M71.9,131.8 L72.4,131.8 L72.9,131.8 L73.4,131.8 L73.9,131.8 L74.4,131.8
		L74.9,131.7 L75.4,131.7 L75.9,131.7 L76.4,131.6 L76.9,131.6 L77.4,131.5 L77.9,131.4 L78.4,131.4
		L79.0,131.3 L79.5,131.2 L80.0,131.1 L80.5,131.0 L81.0,130.9 L81.5,130.8 L82.0,130.7 L82.5,130.6
		L83.0,130.5 L83.5,130.3 L84.0,130.2 L84.5,130.1 L85.0,129.9 L85.5,129.8 L86.0,129.6 L86.5,129.5
		L87.0,129.3 L87.5,129.1 L88.0,129.0 L88.5,128.8 L89.0,128.6 L89.5,128.4 L90.0,128.2 L90.5,128.0
		L91.0,127.8 L91.5,127.6 L92.0,127.3 L92.5,127.1 L93.1,126.9 L93.6,126.6 L94.1,126.4 L94.6,126.1
		L95.1,125.9 L95.6,125.6 L96.1,125.4 L96.6,125.1 L97.1,124.8 L97.6,124.5 L98.1,124.2 L98.6,123.9
		L99.1,123.6 L99.6,123.3 L100.1,123.0 L100.6,122.7 L101.1,122.4 L101.6,122.0 L102.1,121.7 L102.6,121.4
		L103.1,121.0 L103.6,120.7 L104.1,120.3 L104.6,120.0 L105.1,119.6 L105.6,119.2 L106.1,118.8 L106.6,118.4
		L107.2,118.1 L107.7,117.7 L108.2,117.3 L108.7,116.8 L109.2,116.4 L109.7,116.0 L110.2,115.6 L110.7,115.2
		L111.2,114.7 L111.7,114.3 L112.2,113.8 L112.7,113.4 L113.2,112.9 L113.7,112.5 L114.2,112.0 L114.7,111.5
		L115.2,111.0 L115.7,110.6 L116.2,110.1 L116.7,109.6 L117.2,109.1 L117.7,108.5 L118.2,108.0 L118.7,107.5
		L119.2,107.0 L119.7,106.5 L120.2,105.9 L120.7,105.4 L121.3,104.8 L121.8,104.3 L122.3,103.7 L122.8,103.1
		L123.3,102.6 L123.8,102.0 L124.3,101.4 L124.8,100.8 L125.3,100.2 L125.8,99.6 L126.3,99.0 L126.8,98.4
		L127.3,97.8 L127.8,97.2 L128.3,96.6 L128.8,95.9 L129.3,95.3 L129.8,94.6 L130.3,94.0 L130.8,93.3
		L131.3,92.7 L131.8,92.0 L132.3,91.3 L132.8,90.7 L133.3,90.0 L133.8,89.3 L134.3,88.6 L134.9,87.9
		L135.4,87.2 L135.9,86.5 L136.4,85.8 L136.9,85.2 L137.4,84.5 L137.9,83.9 L138.4,83.3 L138.9,82.7
		L139.4,82.1 L139.9,81.5 L140.4,80.9 L140.9,80.3 L141.4,79.8 L141.9,79.2 L142.4,78.7 L142.9,78.1
		L143.4,77.6 L143.9,77.1 L144.4,76.6 L144.9,76.2 L145.4,75.7 L145.9,75.2 L146.4,74.8 L146.9,74.4
		L147.4,73.9 L147.9,73.5 L148.4,73.1 L149.0,72.8 L149.5,72.4 L150.0,72.0 L150.5,71.7 L151.0,71.3
		L151.5,71.0 L152.0,70.7 L152.5,70.4 L153.0,70.1 L153.5,69.8 L154.0,69.5 L154.5,69.3 L155.0,69.0
		L155.5,68.8 L156.0,68.5 L156.5,68.3 L157.0,68.1 L157.5,67.9 L158.0,67.8 L158.5,67.6 L159.0,67.4
		L159.5,67.3 L160.0,67.1 L160.5,67.0 L161.0,66.9 L161.5,66.8 L162.0,66.7 L162.5,66.6 L163.1,66.6
		L163.6,66.5 L164.1,66.5 L164.6,66.4 L165.1,66.4 L165.6,66.4 L166.1,66.4 L166.6,66.4 L167.1,66.5
		L167.6,66.5 L168.1,66.5 L168.6,66.6 L169.1,66.7 L169.6,66.8 L170.1,66.8 L170.6,67.0 L171.1,67.1
		L171.6,67.2 L172.1,67.3 L172.6,67.5 L173.1,67.7 L173.6,67.8 L174.1,68.0 L174.6,68.2 L175.1,68.4
		L175.6,68.6 L176.1,68.9 L176.6,69.1 L177.2,69.4 L177.7,69.6 L178.2,69.9 L178.7,70.2 L179.2,70.5
		L179.7,70.8 L180.2,71.1 L180.7,71.5 L181.2,71.8 L181.7,72.2 L182.2,72.5 L182.7,72.9 L183.2,73.3
		L183.7,73.7 L184.2,74.1 L184.7,74.5 L185.2,75.0 L185.7,75.4 L186.2,75.9 L186.7,76.4 L187.2,76.8
		L187.7,77.3 L188.2,77.8 L188.7,78.4 L189.2,78.9 L189.7,79.4 L190.2,80.0 L190.8,80.5 L191.3,81.1
		L191.8,81.7 L192.3,82.3 L192.8,82.9 L193.3,83.5 L193.8,84.2 L194.3,84.8 L194.8,85.4 L195.3,86.1
		L195.8,86.8 L196.3,87.5 L196.8,88.2 L197.3,88.9 L197.8,89.6 L198.3,90.3 L198.8,91.1 L199.3,91.9
		L199.8,92.6 L200.3,93.4 L200.8,94.2 L201.3,95.0 L201.8,95.8 L202.3,96.7 L202.8,97.5 L203.3,98.4
		L203.8,99.2 L204.3,100.1 L204.9,101.0 L205.4,101.9 L205.9,102.8 L206.4,103.8 L206.9,104.7 L207.4,105.6
		L207.9,106.6 L208.4,107.6 L208.9,108.6 L209.4,109.6 L209.9,110.6 L210.4,111.6 L210.9,112.7 L211.4,113.7
		L211.9,114.8 L212.4,115.8 L212.9,116.9 L213.4,118.0 L213.9,119.1 L214.4,120.3 L214.9,121.4 L215.4,122.5
		L215.9,123.7 L216.4,124.9 L216.9,126.1 L217.4,127.3 L217.9,128.5 L218.4,129.7 L219.0,130.9 L219.5,132.2
		L220.0,133.4 L220.5,134.7 L221.0,136.0 L221.5,137.3 L222.0,138.6 L222.5,139.9 L223.0,141.2 L223.5,142.6
		L224.0,143.9 L224.5,145.3 L225.0,146.7 L225.5,148.1 L226.0,149.5 L226.5,150.9 L227.0,152.3 L227.5,153.7
		L228.0,155.2 L228.5,156.7 L229.0,158.1 L229.5,159.6 L230.0,161.1 L230.5,162.6 L231.0,164.2 L231.5,165.7
		L232.0,167.2 L232.5,168.8 L233.1,170.4 L233.6,172.0 L234.1,173.6 L234.6,175.2 L235.1,176.8 L235.6,178.4
		L236.1,180.1 L236.6,181.7 L237.1,183.4 L237.6,185.1 L238.1,186.8 L238.6,188.5 L239.1,190.2 L239.6,191.9
		L240.1,193.7 L240.6,195.4 L241.1,197.2 L241.6,199.0 L242.1,200.8 L242.6,202.6 L243.1,204.4 L243.6,206.2
		L244.1,208.0 L244.6,209.9 L245.1,211.8 L245.6,213.6 L246.1,215.5 L246.7,217.4 L247.2,219.3 L247.7,221.3
		L248.2,223.2 L248.7,225.2 L249.2,227.1 L249.7,229.1 L250.2,231.1 L250.7,233.1 L251.2,235.1 L251.7,237.1
		L252.2,239.1 L252.7,241.2 L253.2,243.2 L253.7,245.3 L254.2,247.4 L254.7,249.5 L255.2,251.6 L255.7,253.7
		L256.2,255.9 L256.7,258.0 L257.2,260.2 L257.7,262.3 L258.2,264.5 L258.7,266.7 L259.2,268.9 L259.7,271.1
		L260.2,273.3 L260.8,275.6 L261.3,277.8 L261.8,280.0 L262.3,282.2 L262.8,284.4 L263.3,286.5 L263.8,288.7
		L264.3,290.8 L264.8,292.9 L265.3,295.0 L265.8,297.0 L266.3,299.1 L266.8,301.1 L267.3,303.1 L267.8,305.1
		L268.3,307.1 L268.8,309.1 L269.3,311.0 L269.8,312.9 L270.3,314.8 L270.8,316.7 L271.3,318.6 L271.8,320.4
		L272.3,322.3 L272.8,324.1 L273.3,325.9 L273.8,327.6 L274.3,329.4 L274.9,331.1 L275.4,332.9 L275.9,334.6
		L276.4,336.3 L276.9,337.9 L277.4,339.6 L277.9,341.2 L278.4,342.8 L278.9,344.4 L279.4,346.0 L279.9,347.6
		L280.4,349.1 L280.9,350.6 L281.4,352.2 L281.9,353.6 L282.4,355.1 L282.9,356.6 L283.4,358.0 L283.9,359.4
		L284.4,360.8 L284.9,362.2 L285.4,363.6 L285.9,364.9 L286.4,366.3 L286.9,367.6 L287.4,368.9 L287.9,370.1
		L288.4,371.4 L289.0,372.6 L289.5,373.8 L290.0,375.1 L290.5,376.2 L291.0,377.4 L291.5,378.6 L292.0,379.7
		L292.5,380.8 L293.0,381.9 L293.5,383.0 L294.0,384.0 L294.5,385.1 L295.0,386.1 L295.5,387.1 L296.0,388.1
		L296.5,389.1 L297.0,390.0 L297.5,390.9 L298.0,391.9 L298.5,392.8 L299.0,393.6 L299.5,394.5 L300.0,395.3
		L300.5,396.2 L301.0,397.0 L301.5,397.8 L302.0,398.5 L302.6,399.3 L303.1,400.0 L303.6,400.8 L304.1,401.5
		L304.6,402.1 L305.1,402.8 L305.6,403.4 L306.1,404.1 L306.6,404.7 L307.1,405.3 L307.6,405.9 L308.1,406.4
		L308.6,406.9 L309.1,407.5 L309.6,408.0 L310.1,408.5 L310.6,408.9 L311.1,409.4 L311.6,409.8 L312.1,410.2
		L312.6,410.6 L313.1,411.0 L313.6,411.3 L314.1,411.7 L314.6,412.0 L315.1,412.3 L315.6,412.6 L316.1,412.9
		L316.7,413.1 L317.2,413.4 L317.7,413.6 L318.2,413.8 L318.7,414.0 L319.2,414.1 L319.7,414.3 L320.2,414.4
		L320.7,414.5 L321.2,414.6 L321.7,414.7 L322.2,414.7 L322.7,414.7 L323.2,414.8 L323.7,414.8 L324.2,414.7
		L324.7,414.7 L325.2,414.7 L325.7,414.6 L326.2,414.5 L326.7,414.4 L327.2,414.3 L327.7,414.1 L328.2,414.0
		L328.7,413.8 L329.2,413.6 L329.7,413.4 L330.2,413.1 L330.8,412.9 L331.3,412.6 L331.8,412.3 L332.3,412.0
		L332.8,411.7 L333.3,411.3 L333.8,411.0 L334.3,410.6 L334.8,410.2 L335.3,409.8 L335.8,409.4 L336.3,408.9
		L336.8,408.5 L337.3,408.0 L337.8,407.5 L338.3,406.9 L338.8,406.4 L339.3,405.9 L339.8,405.3 L340.3,404.7
		L340.8,404.1 L341.3,403.4 L341.8,402.8 L342.3,402.1 L342.8,401.5 L343.3,400.8 L343.8,400.0 L344.3,399.3
		L344.9,398.5 L345.4,397.8 L345.9,397.0 L346.4,396.2 L346.9,395.3 L347.4,394.5 L347.9,393.6 L348.4,392.8
		L348.9,391.9 L349.4,390.9 L349.9,390.0 L350.4,389.1 L350.9,388.1 L351.4,387.1 L351.9,386.1 L352.4,385.1
		L352.9,384.0 L353.4,383.0 L353.9,381.9 L354.4,380.8 L354.9,379.7 L355.4,378.6 L355.9,377.4 L356.4,376.2
		L356.9,375.1 L357.4,373.8 L357.9,372.6 L358.5,371.4 L359.0,370.1 L359.5,368.9 L360.0,367.6 L360.5,366.3
		L361.0,364.9 L361.5,363.6 L362.0,362.2 L362.5,360.8 L363.0,359.4 L363.5,358.0 L364.0,356.6 L364.5,355.1
		L365.0,353.6 L365.5,352.2 L366.0,350.6 L366.5,349.1 L367.0,347.6 L367.5,346.0 L368.0,344.4 L368.5,342.8
		L369.0,341.2 L369.5,339.6 L370.0,337.9 L370.5,336.3 L371.0,334.6 L371.5,332.9 L372.0,331.1 L372.6,329.4
		L373.1,327.6 L373.6,325.9 L374.1,324.1 L374.6,322.3 L375.1,320.4 L375.6,318.6 L376.1,316.7 L376.6,314.8
		L377.1,312.9 L377.6,311.0 L378.1,309.1 L378.6,307.1 L379.1,305.1 L379.6,303.1 L380.1,301.1 L380.6,299.1
		L381.1,297.0 L381.6,295.0 L382.1,292.9 L382.6,290.8 L383.1,288.7 L383.6,286.5 L384.1,284.4 L384.6,282.2
		L385.1,280.0 L385.6,277.8 L386.1,275.6 L386.7,273.3 L387.2,271.1 L387.7,268.9 L388.2,266.7 L388.7,264.5
		L389.2,262.3 L389.7,260.2 L390.2,258.0 L390.7,255.9 L391.2,253.7 L391.7,251.6 L392.2,249.5 L392.7,247.4
		L393.2,245.3 L393.7,243.2 L394.2,241.2 L394.7,239.1 L395.2,237.1 L395.7,235.1 L396.2,233.1 L396.7,231.1
		L397.2,229.1 L397.7,227.1 L398.2,225.2 L398.7,223.2 L399.2,221.3 L399.7,219.3 L400.2,217.4 L400.8,215.5
		L401.3,213.6 L401.8,211.8 L402.3,209.9 L402.8,208.0 L403.3,206.2 L403.8,204.4 L404.3,202.6 L404.8,200.8
		L405.3,199.0 L405.8,197.2 L406.3,195.4 L406.8,193.7 L407.3,191.9 L407.8,190.2 L408.3,188.5 L408.8,186.8
		L409.3,185.1 L409.8,183.4 L410.3,181.7 L410.8,180.1 L411.3,178.4 L411.8,176.8 L412.3,175.2 L412.8,173.6
		L413.3,172.0 L413.8,170.4 L414.4,168.8 L414.9,167.2 L415.4,165.7 L415.9,164.2 L416.4,162.6 L416.9,161.1
		L417.4,159.6 L417.9,158.1 L418.4,156.7 L418.9,155.2 L419.4,153.7 L419.9,152.3 L420.4,150.9 L420.9,149.5
		L421.4,148.1 L421.9,146.7 L422.4,145.3 L422.9,143.9 L423.4,142.6 L423.9,141.2 L424.4,139.9 L424.9,138.6
		L425.4,137.3 L425.9,136.0 L426.4,134.7 L426.9,133.4 L427.4,132.2 L427.9,130.9 L428.5,129.7 L429.0,128.5
		L429.5,127.3 L430.0,126.1 L430.5,124.9 L431.0,123.7 L431.5,122.5 L432.0,121.4 L432.5,120.3 L433.0,119.1
		L433.5,118.0 L434.0,116.9 L434.5,115.8 L435.0,114.8 L435.5,113.7 L436.0,112.7 L436.5,111.6 L437.0,110.6
		L437.5,109.6 L438.0,108.6 L438.5,107.6 L439.0,106.6 L439.5,105.6 L440.0,104.7 L440.5,103.8 L441.0,102.8
		L441.5,101.9 L442.0,101.0 L442.6,100.1 L443.1,99.2 L443.6,98.4 L444.1,97.5 L444.6,96.7 L445.1,95.8
		L445.6,95.0 L446.1,94.2 L446.6,93.4 L447.1,92.6 L447.6,91.9 L448.1,91.1 L448.6,90.3 L449.1,89.6
		L449.6,88.9 L450.1,88.2 L450.6,87.5 L451.1,86.8 L451.6,86.1 L452.1,85.4 L452.6,84.8 L453.1,84.2
		L453.6,83.5 L454.1,82.9 L454.6,82.3 L455.1,81.7 L455.6,81.1 L456.1,80.5 L456.7,80.0 L457.2,79.4
		L457.7,78.9 L458.2,78.4 L458.7,77.8 L459.2,77.3 L459.7,76.8 L460.2,76.4 L460.7,75.9 L461.2,75.4
		L461.7,75.0 L462.2,74.5 L462.7,74.1 L463.2,73.7 L463.7,73.3 L464.2,72.9 L464.7,72.5 L465.2,72.2
		L465.7,71.8 L466.2,71.5 L466.7,71.1 L467.2,70.8 L467.7,70.5 L468.2,70.2 L468.7,69.9 L469.2,69.6
		L469.7,69.4 L470.3,69.1 L470.8,68.9 L471.3,68.6 L471.8,68.4 L472.3,68.2 L472.8,68.0 L473.3,67.8
		L473.8,67.7 L474.3,67.5 L474.8,67.3 L475.3,67.2 L475.8,67.1 L476.3,67.0 L476.8,66.8 L477.3,66.8
		L477.8,66.7 L478.3,66.6 L478.8,66.5 L479.3,66.5 L479.8,66.5 L480.3,66.4 L480.8,66.4 L481.3,66.4
		L481.8,66.4 L482.3,66.4 L482.8,66.5 L483.3,66.5 L483.8,66.6 L484.4,66.6 L484.9,66.7 L485.4,66.8
		L485.9,66.9 L486.4,67.0 L486.9,67.1 L487.4,67.3 L487.9,67.4 L488.4,67.6 L488.9,67.8 L489.4,67.9
		L489.9,68.1 L490.4,68.3 L490.9,68.5 L491.4,68.8 L491.9,69.0 L492.4,69.3 L492.9,69.5 L493.4,69.8
		L493.9,70.1 L494.4,70.4 L494.9,70.7 L495.4,71.0 L495.9,71.3 L496.4,71.7 L496.9,72.0 L497.4,72.4
		L497.9,72.8 L498.5,73.1 L499.0,73.5 L499.5,73.9 L500.0,74.4 L500.5,74.8 L501.0,75.2 L501.5,75.7
		L502.0,76.2 L502.5,76.6 L503.0,77.1 L503.5,77.6 L504.0,78.1 L504.5,78.7 L505.0,79.2 L505.5,79.8
		L506.0,80.3 L506.5,80.9 L507.0,81.5 L507.5,82.1 L508.0,82.7 L508.5,83.3 L509.0,83.9 L509.5,84.5
		L510.0,85.2 L510.5,85.8 L511.0,86.5 L511.5,87.2 L512.0,87.9 L512.6,88.6 L513.1,89.3 L513.6,90.0
		L514.1,90.7 L514.6,91.3 L515.1,92.0 L515.6,92.7 L516.1,93.3 L516.6,94.0 L517.1,94.6 L517.6,95.3
		L518.1,95.9 L518.6,96.6 L519.1,97.2 L519.6,97.8 L520.1,98.4 L520.6,99.0 L521.1,99.6 L521.6,100.2
		L522.1,100.8 L522.6,101.4 L523.1,102.0 L523.6,102.6 L524.1,103.1 L524.6,103.7 L525.1,104.3 L525.6,104.8
		L526.2,105.4 L526.7,105.9 L527.2,106.5 L527.7,107.0 L528.2,107.5 L528.7,108.0 L529.2,108.5 L529.7,109.1
		L530.2,109.6 L530.7,110.1 L531.2,110.6 L531.7,111.0 L532.2,111.5 L532.7,112.0 L533.2,112.5 L533.7,112.9
		L534.2,113.4 L534.7,113.8 L535.2,114.3 L535.7,114.7 L536.2,115.2 L536.7,115.6 L537.2,116.0 L537.7,116.4
		L538.2,116.8 L538.7,117.3 L539.2,117.7 L539.7,118.1 L540.3,118.4 L540.8,118.8 L541.3,119.2 L541.8,119.6
		L542.3,120.0 L542.8,120.3 L543.3,120.7 L543.8,121.0 L544.3,121.4 L544.8,121.7 L545.3,122.0 L545.8,122.4
		L546.3,122.7 L546.8,123.0 L547.3,123.3 L547.8,123.6 L548.3,123.9 L548.8,124.2 L549.3,124.5 L549.8,124.8
		L550.3,125.1 L550.8,125.4 L551.3,125.6 L551.8,125.9 L552.3,126.1 L552.8,126.4 L553.3,126.6 L553.8,126.9
		L554.4,127.1 L554.9,127.3 L555.4,127.6 L555.9,127.8 L556.4,128.0 L556.9,128.2 L557.4,128.4 L557.9,128.6
		L558.4,128.8 L558.9,129.0 L559.4,129.1 L559.9,129.3 L560.4,129.5 L560.9,129.6 L561.4,129.8 L561.9,129.9
		L562.4,130.1 L562.9,130.2 L563.4,130.3 L563.9,130.5 L564.4,130.6 L564.9,130.7 L565.4,130.8 L565.9,130.9
		L566.4,131.0 L566.9,131.1 L567.4,131.2 L567.9,131.3 L568.5,131.4 L569.0,131.4 L569.5,131.5 L570.0,131.6
		L570.5,131.6 L571.0,131.7 L571.5,131.7 L572.0,131.7 L572.5,131.8 L573.0,131.8 L573.5,131.8 L574.0,131.8
		L574.5,131.8 L575.0,131.8  '/></g>
	</g>
<g fill="none" color="white" stroke="rgb(  0, 158, 115)" stroke-width="2.00" stroke-linecap="butt" stroke-linejoin="miter">
</g>
<g fill="none" color="black" stroke="currentColor" stroke-width="2.00" stroke-linecap="butt" stroke-linejoin="miter">
</g>
<g fill="none" color="black" stroke="black" stroke-width="1.00" stroke-linecap="butt" stroke-linejoin="miter">
</g>
<g fill="none" color="black" stroke="currentColor" stroke-width="1.00" stroke-linecap="butt" stroke-linejoin="miter">
	<path stroke='black'  d='M71.9,54.1 L71.9,422.4 L575.0,422.4 L575.0,54.1 L71.9,54.1 Z  '/></g>
<g fill="none" color="black" stroke="currentColor" stroke-width="1.00" stroke-linecap="butt" stroke-linejoin="miter">
</g>
</g>
</svg>

