-2 0.0732626
-1.96 0.0823303
-1.92 0.0932009
-1.88 0.105875
-1.84 0.120351
-1.8 0.136631
-1.76 0.154713
-1.72 0.174599
-1.68 0.196287
-1.64 0.219779
-1.6 0.245073
-1.56 0.272171
-1.52 0.301071
-1.48 0.331768
-1.44 0.3641
-1.4 0.39775
-1.36 0.432396
-1.32 0.467715
-1.28 0.503385
-1.24 0.539081
-1.2 0.574483
-1.16 0.609266
-1.12 0.643108
-1.08 0.675686
-1.04 0.706677
-1 0.735759
-0.96 0.762594
-0.92 0.786789
-0.88 0.807935
-0.84 0.825625
-0.8 0.839451
-0.76 0.849005
-0.72 0.853879
-0.68 0.853665
-0.64 0.847955
-0.6 0.836341
-0.56 0.818416
-0.52 0.793771
-0.48 0.762019
-0.44 0.723249
-0.4 0.678027
-0.36 0.626941
-0.32 0.570575
-0.28 0.509518
-0.24 0.444354
-0.2 0.375672
-0.16 0.304056
-0.12 0.230095
-0.08 0.154374
-0.04 0.0774804
0 0
0.04 -0.0774804
0.08 -0.154374
0.12 -0.230095
0.16 -0.304056
0.2 -0.375672
0.24 -0.444354
0.28 -0.509518
0.32 -0.570575
0.36 -0.626941
0.4 -0.678027
0.44 -0.723249
0.48 -0.762019
0.52 -0.793771
0.56 -0.818416
0.6 -0.836341
0.64 -0.847955
0.68 -0.853665
0.72 -0.853879
0.76 -0.849005
0.8 -0.839451
0.84 -0.825625
0.88 -0.807935
0.92 -0.786789
0.96 -0.762594
1 -0.735759
1.04 -0.706677
1.08 -0.675686
1.12 -0.643108
1.16 -0.609266
1.2 -0.574483
1.24 -0.539081
1.28 -0.503385
1.32 -0.467715
1.36 -0.432396
1.4 -0.39775
1.44 -0.3641
1.48 -0.331768
1.52 -0.301071
1.56 -0.272171
1.6 -0.245073
1.64 -0.219779
1.68 -0.196287
1.72 -0.174599
1.76 -0.154713
1.8 -0.136631
1.84 -0.120351
1.88 -0.105875
1.92 -0.0932009
1.96 -0.0823303
2 -0.0732626
