<?xml version="1.0" encoding="utf-8"  standalone="no"?>
<svg 
 width="600" height="480"
 viewBox="0 0 600 480"
 xmlns="http://www.w3.org/2000/svg"
 xmlns:xlink="http://www.w3.org/1999/xlink"
>

<title>Gnuplot</title>
<desc>Produced by GNUPLOT 5.2 patchlevel 8 </desc>

<g id="gnuplot_canvas">

<rect x="0" y="0" width="600" height="480" fill="none"/>
<defs>

	<circle id='gpDot' r='0.5' stroke-width='0.5' stroke='currentColor'/>
	<path id='gpPt0' stroke-width='0.222' stroke='currentColor' d='M-1,0 h2 M0,-1 v2'/>
	<path id='gpPt1' stroke-width='0.222' stroke='currentColor' d='M-1,-1 L1,1 M1,-1 L-1,1'/>
	<path id='gpPt2' stroke-width='0.222' stroke='currentColor' d='M-1,0 L1,0 M0,-1 L0,1 M-1,-1 L1,1 M-1,1 L1,-1'/>
	<rect id='gpPt3' stroke-width='0.222' stroke='currentColor' x='-1' y='-1' width='2' height='2'/>
	<rect id='gpPt4' stroke-width='0.222' stroke='currentColor' fill='currentColor' x='-1' y='-1' width='2' height='2'/>
	<circle id='gpPt5' stroke-width='0.222' stroke='currentColor' cx='0' cy='0' r='1'/>
	<use xlink:href='#gpPt5' id='gpPt6' fill='currentColor' stroke='none'/>
	<path id='gpPt7' stroke-width='0.222' stroke='currentColor' d='M0,-1.33 L-1.33,0.67 L1.33,0.67 z'/>
	<use xlink:href='#gpPt7' id='gpPt8' fill='currentColor' stroke='none'/>
	<use xlink:href='#gpPt7' id='gpPt9' stroke='currentColor' transform='rotate(180)'/>
	<use xlink:href='#gpPt9' id='gpPt10' fill='currentColor' stroke='none'/>
	<use xlink:href='#gpPt3' id='gpPt11' stroke='currentColor' transform='rotate(45)'/>
	<use xlink:href='#gpPt11' id='gpPt12' fill='currentColor' stroke='none'/>
	<path id='gpPt13' stroke-width='0.222' stroke='currentColor' d='M0,1.330 L1.265,0.411 L0.782,-1.067 L-0.782,-1.076 L-1.265,0.411 z'/>
	<use xlink:href='#gpPt13' id='gpPt14' fill='currentColor' stroke='none'/>
	<filter id='textbox' filterUnits='objectBoundingBox' x='0' y='0' height='1' width='1'>
	  <feFlood flood-color='white' flood-opacity='1' result='bgnd'/>
	  <feComposite in='SourceGraphic' in2='bgnd' operator='atop'/>
	</filter>
	<filter id='greybox' filterUnits='objectBoundingBox' x='0' y='0' height='1' width='1'>
	  <feFlood flood-color='lightgrey' flood-opacity='1' result='grey'/>
	  <feComposite in='SourceGraphic' in2='grey' operator='atop'/>
	</filter>
</defs>
<g fill="none" color="white" stroke="currentColor" stroke-width="1.00" stroke-linecap="butt" stroke-linejoin="miter">
</g>
<g fill="none" color="black" stroke="currentColor" stroke-width="1.00" stroke-linecap="butt" stroke-linejoin="miter">
	<path stroke='black'  d='M71.9,422.4 L80.9,422.4 M575.0,422.4 L566.0,422.4  '/>	<g transform="translate(63.6,426.3)" stroke="none" fill="black" font-family="Arial" font-size="12.00"  text-anchor="end">
		<text><tspan font-family="Arial" >-1</tspan></text>
	</g>
</g>
<g fill="none" color="black" stroke="currentColor" stroke-width="1.00" stroke-linecap="butt" stroke-linejoin="miter">
	<path stroke='black'  d='M71.9,385.6 L80.9,385.6 M575.0,385.6 L566.0,385.6  '/>	<g transform="translate(63.6,389.5)" stroke="none" fill="black" font-family="Arial" font-size="12.00"  text-anchor="end">
		<text><tspan font-family="Arial" >-0.8</tspan></text>
	</g>
</g>
<g fill="none" color="black" stroke="currentColor" stroke-width="1.00" stroke-linecap="butt" stroke-linejoin="miter">
	<path stroke='black'  d='M71.9,348.7 L80.9,348.7 M575.0,348.7 L566.0,348.7  '/>	<g transform="translate(63.6,352.6)" stroke="none" fill="black" font-family="Arial" font-size="12.00"  text-anchor="end">
		<text><tspan font-family="Arial" >-0.6</tspan></text>
	</g>
</g>
<g fill="none" color="black" stroke="currentColor" stroke-width="1.00" stroke-linecap="butt" stroke-linejoin="miter">
	<path stroke='black'  d='M71.9,311.9 L80.9,311.9 M575.0,311.9 L566.0,311.9  '/>	<g transform="translate(63.6,315.8)" stroke="none" fill="black" font-family="Arial" font-size="12.00"  text-anchor="end">
		<text><tspan font-family="Arial" >-0.4</tspan></text>
	</g>
</g>
<g fill="none" color="black" stroke="currentColor" stroke-width="1.00" stroke-linecap="butt" stroke-linejoin="miter">
	<path stroke='black'  d='M71.9,275.1 L80.9,275.1 M575.0,275.1 L566.0,275.1  '/>	<g transform="translate(63.6,279.0)" stroke="none" fill="black" font-family="Arial" font-size="12.00"  text-anchor="end">
		<text><tspan font-family="Arial" >-0.2</tspan></text>
	</g>
</g>
<g fill="none" color="black" stroke="currentColor" stroke-width="1.00" stroke-linecap="butt" stroke-linejoin="miter">
	<path stroke='black'  d='M71.9,238.2 L80.9,238.2 M575.0,238.2 L566.0,238.2  '/>	<g transform="translate(63.6,242.1)" stroke="none" fill="black" font-family="Arial" font-size="12.00"  text-anchor="end">
		<text><tspan font-family="Arial" > 0</tspan></text>
	</g>
</g>
<g fill="none" color="black" stroke="currentColor" stroke-width="1.00" stroke-linecap="butt" stroke-linejoin="miter">
	<path stroke='black'  d='M71.9,201.4 L80.9,201.4 M575.0,201.4 L566.0,201.4  '/>	<g transform="translate(63.6,205.3)" stroke="none" fill="black" font-family="Arial" font-size="12.00"  text-anchor="end">
		<text><tspan font-family="Arial" > 0.2</tspan></text>
	</g>
</g>
<g fill="none" color="black" stroke="currentColor" stroke-width="1.00" stroke-linecap="butt" stroke-linejoin="miter">
	<path stroke='black'  d='M71.9,164.6 L80.9,164.6 M575.0,164.6 L566.0,164.6  '/>	<g transform="translate(63.6,168.5)" stroke="none" fill="black" font-family="Arial" font-size="12.00"  text-anchor="end">
		<text><tspan font-family="Arial" > 0.4</tspan></text>
	</g>
</g>
<g fill="none" color="black" stroke="currentColor" stroke-width="1.00" stroke-linecap="butt" stroke-linejoin="miter">
	<path stroke='black'  d='M71.9,127.8 L80.9,127.8 M575.0,127.8 L566.0,127.8  '/>	<g transform="translate(63.6,131.7)" stroke="none" fill="black" font-family="Arial" font-size="12.00"  text-anchor="end">
		<text><tspan font-family="Arial" > 0.6</tspan></text>
	</g>
</g>
<g fill="none" color="black" stroke="currentColor" stroke-width="1.00" stroke-linecap="butt" stroke-linejoin="miter">
	<path stroke='black'  d='M71.9,90.9 L80.9,90.9 M575.0,90.9 L566.0,90.9  '/>	<g transform="translate(63.6,94.8)" stroke="none" fill="black" font-family="Arial" font-size="12.00"  text-anchor="end">
		<text><tspan font-family="Arial" > 0.8</tspan></text>
	</g>
</g>
<g fill="none" color="black" stroke="currentColor" stroke-width="1.00" stroke-linecap="butt" stroke-linejoin="miter">
	<path stroke='black'  d='M71.9,54.1 L80.9,54.1 M575.0,54.1 L566.0,54.1  '/>	<g transform="translate(63.6,58.0)" stroke="none" fill="black" font-family="Arial" font-size="12.00"  text-anchor="end">
		<text><tspan font-family="Arial" > 1</tspan></text>
	</g>
</g>
<g fill="none" color="black" stroke="currentColor" stroke-width="1.00" stroke-linecap="butt" stroke-linejoin="miter">
	<path stroke='black'  d='M71.9,422.4 L71.9,413.4 M71.9,54.1 L71.9,63.1  '/>	<g transform="translate(71.9,444.3)" stroke="none" fill="black" font-family="Arial" font-size="12.00"  text-anchor="middle">
		<text><tspan font-family="Arial" >-2</tspan></text>
	</g>
</g>
<g fill="none" color="black" stroke="currentColor" stroke-width="1.00" stroke-linecap="butt" stroke-linejoin="miter">
	<path stroke='black'  d='M134.8,422.4 L134.8,413.4 M134.8,54.1 L134.8,63.1  '/>	<g transform="translate(134.8,444.3)" stroke="none" fill="black" font-family="Arial" font-size="12.00"  text-anchor="middle">
		<text><tspan font-family="Arial" >-1.5</tspan></text>
	</g>
</g>
<g fill="none" color="black" stroke="currentColor" stroke-width="1.00" stroke-linecap="butt" stroke-linejoin="miter">
	<path stroke='black'  d='M197.7,422.4 L197.7,413.4 M197.7,54.1 L197.7,63.1  '/>	<g transform="translate(197.7,444.3)" stroke="none" fill="black" font-family="Arial" font-size="12.00"  text-anchor="middle">
		<text><tspan font-family="Arial" >-1</tspan></text>
	</g>
</g>
<g fill="none" color="black" stroke="currentColor" stroke-width="1.00" stroke-linecap="butt" stroke-linejoin="miter">
	<path stroke='black'  d='M260.6,422.4 L260.6,413.4 M260.6,54.1 L260.6,63.1  '/>	<g transform="translate(260.6,444.3)" stroke="none" fill="black" font-family="Arial" font-size="12.00"  text-anchor="middle">
		<text><tspan font-family="Arial" >-0.5</tspan></text>
	</g>
</g>
<g fill="none" color="black" stroke="currentColor" stroke-width="1.00" stroke-linecap="butt" stroke-linejoin="miter">
	<path stroke='black'  d='M323.5,422.4 L323.5,413.4 M323.5,54.1 L323.5,63.1  '/>	<g transform="translate(323.5,444.3)" stroke="none" fill="black" font-family="Arial" font-size="12.00"  text-anchor="middle">
		<text><tspan font-family="Arial" > 0</tspan></text>
	</g>
</g>
<g fill="none" color="black" stroke="currentColor" stroke-width="1.00" stroke-linecap="butt" stroke-linejoin="miter">
	<path stroke='black'  d='M386.3,422.4 L386.3,413.4 M386.3,54.1 L386.3,63.1  '/>	<g transform="translate(386.3,444.3)" stroke="none" fill="black" font-family="Arial" font-size="12.00"  text-anchor="middle">
		<text><tspan font-family="Arial" > 0.5</tspan></text>
	</g>
</g>
<g fill="none" color="black" stroke="currentColor" stroke-width="1.00" stroke-linecap="butt" stroke-linejoin="miter">
	<path stroke='black'  d='M449.2,422.4 L449.2,413.4 M449.2,54.1 L449.2,63.1  '/>	<g transform="translate(449.2,444.3)" stroke="none" fill="black" font-family="Arial" font-size="12.00"  text-anchor="middle">
		<text><tspan font-family="Arial" > 1</tspan></text>
	</g>
</g>
<g fill="none" color="black" stroke="currentColor" stroke-width="1.00" stroke-linecap="butt" stroke-linejoin="miter">
	<path stroke='black'  d='M512.1,422.4 L512.1,413.4 M512.1,54.1 L512.1,63.1  '/>	<g transform="translate(512.1,444.3)" stroke="none" fill="black" font-family="Arial" font-size="12.00"  text-anchor="middle">
		<text><tspan font-family="Arial" > 1.5</tspan></text>
	</g>
</g>
<g fill="none" color="black" stroke="currentColor" stroke-width="1.00" stroke-linecap="butt" stroke-linejoin="miter">
	<path stroke='black'  d='M575.0,422.4 L575.0,413.4 M575.0,54.1 L575.0,63.1  '/>	<g transform="translate(575.0,444.3)" stroke="none" fill="black" font-family="Arial" font-size="12.00"  text-anchor="middle">
		<text><tspan font-family="Arial" > 2</tspan></text>
	</g>
</g>
<g fill="none" color="black" stroke="currentColor" stroke-width="1.00" stroke-linecap="butt" stroke-linejoin="miter">
</g>
<g fill="none" color="black" stroke="currentColor" stroke-width="1.00" stroke-linecap="butt" stroke-linejoin="miter">
	<path stroke='black'  d='M71.9,54.1 L71.9,422.4 L575.0,422.4 L575.0,54.1 L71.9,54.1 Z  '/></g>
<g fill="none" color="black" stroke="currentColor" stroke-width="1.00" stroke-linecap="butt" stroke-linejoin="miter">
	<g transform="translate(19.0,238.3) rotate(270)" stroke="none" fill="black" font-family="Arial" font-size="12.00"  text-anchor="middle">
		<text><tspan font-family="Arial" >y</tspan></text>
	</g>
</g>
<g fill="none" color="black" stroke="currentColor" stroke-width="1.00" stroke-linecap="butt" stroke-linejoin="miter">
	<g transform="translate(323.4,471.3)" stroke="none" fill="black" font-family="Arial" font-size="12.00"  text-anchor="middle">
		<text><tspan font-family="Arial" >x</tspan></text>
	</g>
</g>
<g fill="none" color="black" stroke="currentColor" stroke-width="1.00" stroke-linecap="butt" stroke-linejoin="miter">
	<g transform="translate(323.4,31.0)" stroke="none" fill="black" font-family="Arial" font-size="12.00"  text-anchor="middle">
		<text><tspan font-family="Arial" >-2x*exp(-x²) with quadratic interpolation</tspan></text>
	</g>
</g>
<g fill="none" color="black" stroke="currentColor" stroke-width="1.00" stroke-linecap="butt" stroke-linejoin="miter">
</g>
	<g id="gnuplot_plot_1" ><title>exact function</title>
<g fill="none" color="black" stroke="currentColor" stroke-width="1.00" stroke-linecap="butt" stroke-linejoin="miter">
	<g transform="translate(507.9,76.0)" stroke="none" fill="black" font-family="Arial" font-size="12.00"  text-anchor="end">
		<text><tspan font-family="Arial" >exact function</tspan></text>
	</g>
</g>
<g fill="none" color="black" stroke="currentColor" stroke-width="1.00" stroke-linecap="butt" stroke-linejoin="miter">
	<path stroke='rgb(148,   0, 211)'  d='M516.2,72.1 L558.4,72.1 M71.9,224.8 L72.4,224.6 L72.9,224.4 L73.4,224.2 L73.9,224.0 L74.4,223.8
		L74.9,223.6 L75.4,223.4 L75.9,223.2 L76.4,223.0 L76.9,222.8 L77.4,222.5 L77.9,222.3 L78.4,222.1
		L79.0,221.9 L79.5,221.7 L80.0,221.4 L80.5,221.2 L81.0,221.0 L81.5,220.8 L82.0,220.5 L82.5,220.3
		L83.0,220.0 L83.5,219.8 L84.0,219.6 L84.5,219.3 L85.0,219.1 L85.5,218.8 L86.0,218.6 L86.5,218.3
		L87.0,218.0 L87.5,217.8 L88.0,217.5 L88.5,217.2 L89.0,217.0 L89.5,216.7 L90.0,216.4 L90.5,216.1
		L91.0,215.9 L91.5,215.6 L92.0,215.3 L92.5,215.0 L93.1,214.7 L93.6,214.4 L94.1,214.1 L94.6,213.8
		L95.1,213.5 L95.6,213.2 L96.1,212.9 L96.6,212.6 L97.1,212.3 L97.6,212.0 L98.1,211.6 L98.6,211.3
		L99.1,211.0 L99.6,210.7 L100.1,210.3 L100.6,210.0 L101.1,209.6 L101.6,209.3 L102.1,209.0 L102.6,208.6
		L103.1,208.3 L103.6,207.9 L104.1,207.5 L104.6,207.2 L105.1,206.8 L105.6,206.5 L106.1,206.1 L106.6,205.7
		L107.2,205.3 L107.7,205.0 L108.2,204.6 L108.7,204.2 L109.2,203.8 L109.7,203.4 L110.2,203.0 L110.7,202.6
		L111.2,202.2 L111.7,201.8 L112.2,201.4 L112.7,201.0 L113.2,200.6 L113.7,200.2 L114.2,199.8 L114.7,199.3
		L115.2,198.9 L115.7,198.5 L116.2,198.1 L116.7,197.6 L117.2,197.2 L117.7,196.8 L118.2,196.3 L118.7,195.9
		L119.2,195.4 L119.7,195.0 L120.2,194.5 L120.7,194.0 L121.3,193.6 L121.8,193.1 L122.3,192.6 L122.8,192.2
		L123.3,191.7 L123.8,191.2 L124.3,190.7 L124.8,190.3 L125.3,189.8 L125.8,189.3 L126.3,188.8 L126.8,188.3
		L127.3,187.8 L127.8,187.3 L128.3,186.8 L128.8,186.3 L129.3,185.8 L129.8,185.3 L130.3,184.7 L130.8,184.2
		L131.3,183.7 L131.8,183.2 L132.3,182.6 L132.8,182.1 L133.3,181.6 L133.8,181.0 L134.3,180.5 L134.9,180.0
		L135.4,179.4 L135.9,178.9 L136.4,178.3 L136.9,177.8 L137.4,177.2 L137.9,176.6 L138.4,176.1 L138.9,175.5
		L139.4,174.9 L139.9,174.4 L140.4,173.8 L140.9,173.2 L141.4,172.6 L141.9,172.1 L142.4,171.5 L142.9,170.9
		L143.4,170.3 L143.9,169.7 L144.4,169.1 L144.9,168.5 L145.4,167.9 L145.9,167.3 L146.4,166.7 L146.9,166.1
		L147.4,165.5 L147.9,164.9 L148.4,164.3 L149.0,163.7 L149.5,163.1 L150.0,162.5 L150.5,161.9 L151.0,161.2
		L151.5,160.6 L152.0,160.0 L152.5,159.4 L153.0,158.7 L153.5,158.1 L154.0,157.5 L154.5,156.8 L155.0,156.2
		L155.5,155.6 L156.0,154.9 L156.5,154.3 L157.0,153.7 L157.5,153.0 L158.0,152.4 L158.5,151.7 L159.0,151.1
		L159.5,150.4 L160.0,149.8 L160.5,149.1 L161.0,148.5 L161.5,147.8 L162.0,147.2 L162.5,146.5 L163.1,145.9
		L163.6,145.2 L164.1,144.6 L164.6,143.9 L165.1,143.3 L165.6,142.6 L166.1,142.0 L166.6,141.3 L167.1,140.6
		L167.6,140.0 L168.1,139.3 L168.6,138.7 L169.1,138.0 L169.6,137.4 L170.1,136.7 L170.6,136.0 L171.1,135.4
		L171.6,134.7 L172.1,134.1 L172.6,133.4 L173.1,132.7 L173.6,132.1 L174.1,131.4 L174.6,130.8 L175.1,130.1
		L175.6,129.5 L176.1,128.8 L176.6,128.2 L177.2,127.5 L177.7,126.9 L178.2,126.2 L178.7,125.6 L179.2,124.9
		L179.7,124.3 L180.2,123.6 L180.7,123.0 L181.2,122.4 L181.7,121.7 L182.2,121.1 L182.7,120.4 L183.2,119.8
		L183.7,119.2 L184.2,118.6 L184.7,117.9 L185.2,117.3 L185.7,116.7 L186.2,116.1 L186.7,115.4 L187.2,114.8
		L187.7,114.2 L188.2,113.6 L188.7,113.0 L189.2,112.4 L189.7,111.8 L190.2,111.2 L190.8,110.6 L191.3,110.0
		L191.8,109.4 L192.3,108.8 L192.8,108.2 L193.3,107.7 L193.8,107.1 L194.3,106.5 L194.8,105.9 L195.3,105.4
		L195.8,104.8 L196.3,104.3 L196.8,103.7 L197.3,103.2 L197.8,102.6 L198.3,102.1 L198.8,101.6 L199.3,101.0
		L199.8,100.5 L200.3,100.0 L200.8,99.5 L201.3,98.9 L201.8,98.4 L202.3,97.9 L202.8,97.4 L203.3,97.0
		L203.8,96.5 L204.3,96.0 L204.9,95.5 L205.4,95.0 L205.9,94.6 L206.4,94.1 L206.9,93.7 L207.4,93.2
		L207.9,92.8 L208.4,92.4 L208.9,91.9 L209.4,91.5 L209.9,91.1 L210.4,90.7 L210.9,90.3 L211.4,89.9
		L211.9,89.5 L212.4,89.1 L212.9,88.7 L213.4,88.4 L213.9,88.0 L214.4,87.7 L214.9,87.3 L215.4,87.0
		L215.9,86.6 L216.4,86.3 L216.9,86.0 L217.4,85.7 L217.9,85.4 L218.4,85.1 L219.0,84.8 L219.5,84.5
		L220.0,84.3 L220.5,84.0 L221.0,83.8 L221.5,83.5 L222.0,83.3 L222.5,83.0 L223.0,82.8 L223.5,82.6
		L224.0,82.4 L224.5,82.2 L225.0,82.0 L225.5,81.9 L226.0,81.7 L226.5,81.5 L227.0,81.4 L227.5,81.2
		L228.0,81.1 L228.5,81.0 L229.0,80.9 L229.5,80.8 L230.0,80.7 L230.5,80.6 L231.0,80.5 L231.5,80.5
		L232.0,80.4 L232.5,80.4 L233.1,80.3 L233.6,80.3 L234.1,80.3 L234.6,80.3 L235.1,80.3 L235.6,80.3
		L236.1,80.3 L236.6,80.4 L237.1,80.4 L237.6,80.5 L238.1,80.6 L238.6,80.6 L239.1,80.7 L239.6,80.8
		L240.1,80.9 L240.6,81.1 L241.1,81.2 L241.6,81.3 L242.1,81.5 L242.6,81.6 L243.1,81.8 L243.6,82.0
		L244.1,82.2 L244.6,82.4 L245.1,82.6 L245.6,82.9 L246.1,83.1 L246.7,83.4 L247.2,83.6 L247.7,83.9
		L248.2,84.2 L248.7,84.5 L249.2,84.8 L249.7,85.1 L250.2,85.4 L250.7,85.8 L251.2,86.1 L251.7,86.5
		L252.2,86.9 L252.7,87.3 L253.2,87.7 L253.7,88.1 L254.2,88.5 L254.7,88.9 L255.2,89.4 L255.7,89.8
		L256.2,90.3 L256.7,90.8 L257.2,91.3 L257.7,91.8 L258.2,92.3 L258.7,92.8 L259.2,93.4 L259.7,93.9
		L260.2,94.5 L260.8,95.0 L261.3,95.6 L261.8,96.2 L262.3,96.8 L262.8,97.5 L263.3,98.1 L263.8,98.7
		L264.3,99.4 L264.8,100.0 L265.3,100.7 L265.8,101.4 L266.3,102.1 L266.8,102.8 L267.3,103.5 L267.8,104.3
		L268.3,105.0 L268.8,105.8 L269.3,106.5 L269.8,107.3 L270.3,108.1 L270.8,108.9 L271.3,109.7 L271.8,110.5
		L272.3,111.4 L272.8,112.2 L273.3,113.1 L273.8,113.9 L274.3,114.8 L274.9,115.7 L275.4,116.6 L275.9,117.5
		L276.4,118.4 L276.9,119.3 L277.4,120.3 L277.9,121.2 L278.4,122.2 L278.9,123.1 L279.4,124.1 L279.9,125.1
		L280.4,126.1 L280.9,127.1 L281.4,128.1 L281.9,129.2 L282.4,130.2 L282.9,131.3 L283.4,132.3 L283.9,133.4
		L284.4,134.5 L284.9,135.5 L285.4,136.6 L285.9,137.7 L286.4,138.9 L286.9,140.0 L287.4,141.1 L287.9,142.2
		L288.4,143.4 L289.0,144.6 L289.5,145.7 L290.0,146.9 L290.5,148.1 L291.0,149.3 L291.5,150.5 L292.0,151.7
		L292.5,152.9 L293.0,154.1 L293.5,155.3 L294.0,156.6 L294.5,157.8 L295.0,159.1 L295.5,160.3 L296.0,161.6
		L296.5,162.9 L297.0,164.2 L297.5,165.5 L298.0,166.8 L298.5,168.1 L299.0,169.4 L299.5,170.7 L300.0,172.0
		L300.5,173.3 L301.0,174.7 L301.5,176.0 L302.0,177.4 L302.6,178.7 L303.1,180.1 L303.6,181.4 L304.1,182.8
		L304.6,184.2 L305.1,185.6 L305.6,186.9 L306.1,188.3 L306.6,189.7 L307.1,191.1 L307.6,192.5 L308.1,193.9
		L308.6,195.3 L309.1,196.8 L309.6,198.2 L310.1,199.6 L310.6,201.0 L311.1,202.5 L311.6,203.9 L312.1,205.3
		L312.6,206.8 L313.1,208.2 L313.6,209.7 L314.1,211.1 L314.6,212.6 L315.1,214.0 L315.6,215.5 L316.1,216.9
		L316.7,218.4 L317.2,219.9 L317.7,221.3 L318.2,222.8 L318.7,224.3 L319.2,225.7 L319.7,227.2 L320.2,228.7
		L320.7,230.1 L321.2,231.6 L321.7,233.1 L322.2,234.6 L322.7,236.0 L323.2,237.5 L323.7,239.0 L324.2,240.5
		L324.7,241.9 L325.2,243.4 L325.7,244.9 L326.2,246.4 L326.7,247.8 L327.2,249.3 L327.7,250.8 L328.2,252.2
		L328.7,253.7 L329.2,255.2 L329.7,256.6 L330.2,258.1 L330.8,259.6 L331.3,261.0 L331.8,262.5 L332.3,263.9
		L332.8,265.4 L333.3,266.8 L333.8,268.3 L334.3,269.7 L334.8,271.2 L335.3,272.6 L335.8,274.0 L336.3,275.5
		L336.8,276.9 L337.3,278.3 L337.8,279.7 L338.3,281.2 L338.8,282.6 L339.3,284.0 L339.8,285.4 L340.3,286.8
		L340.8,288.2 L341.3,289.6 L341.8,290.9 L342.3,292.3 L342.8,293.7 L343.3,295.1 L343.8,296.4 L344.3,297.8
		L344.9,299.1 L345.4,300.5 L345.9,301.8 L346.4,303.2 L346.9,304.5 L347.4,305.8 L347.9,307.1 L348.4,308.4
		L348.9,309.7 L349.4,311.0 L349.9,312.3 L350.4,313.6 L350.9,314.9 L351.4,316.2 L351.9,317.4 L352.4,318.7
		L352.9,319.9 L353.4,321.2 L353.9,322.4 L354.4,323.6 L354.9,324.8 L355.4,326.0 L355.9,327.2 L356.4,328.4
		L356.9,329.6 L357.4,330.8 L357.9,331.9 L358.5,333.1 L359.0,334.3 L359.5,335.4 L360.0,336.5 L360.5,337.6
		L361.0,338.8 L361.5,339.9 L362.0,341.0 L362.5,342.0 L363.0,343.1 L363.5,344.2 L364.0,345.2 L364.5,346.3
		L365.0,347.3 L365.5,348.4 L366.0,349.4 L366.5,350.4 L367.0,351.4 L367.5,352.4 L368.0,353.4 L368.5,354.3
		L369.0,355.3 L369.5,356.2 L370.0,357.2 L370.5,358.1 L371.0,359.0 L371.5,359.9 L372.0,360.8 L372.6,361.7
		L373.1,362.6 L373.6,363.4 L374.1,364.3 L374.6,365.1 L375.1,366.0 L375.6,366.8 L376.1,367.6 L376.6,368.4
		L377.1,369.2 L377.6,370.0 L378.1,370.7 L378.6,371.5 L379.1,372.2 L379.6,373.0 L380.1,373.7 L380.6,374.4
		L381.1,375.1 L381.6,375.8 L382.1,376.5 L382.6,377.1 L383.1,377.8 L383.6,378.4 L384.1,379.0 L384.6,379.7
		L385.1,380.3 L385.6,380.9 L386.1,381.5 L386.7,382.0 L387.2,382.6 L387.7,383.1 L388.2,383.7 L388.7,384.2
		L389.2,384.7 L389.7,385.2 L390.2,385.7 L390.7,386.2 L391.2,386.7 L391.7,387.1 L392.2,387.6 L392.7,388.0
		L393.2,388.4 L393.7,388.8 L394.2,389.2 L394.7,389.6 L395.2,390.0 L395.7,390.4 L396.2,390.7 L396.7,391.1
		L397.2,391.4 L397.7,391.7 L398.2,392.0 L398.7,392.3 L399.2,392.6 L399.7,392.9 L400.2,393.1 L400.8,393.4
		L401.3,393.6 L401.8,393.9 L402.3,394.1 L402.8,394.3 L403.3,394.5 L403.8,394.7 L404.3,394.9 L404.8,395.0
		L405.3,395.2 L405.8,395.3 L406.3,395.4 L406.8,395.6 L407.3,395.7 L407.8,395.8 L408.3,395.9 L408.8,395.9
		L409.3,396.0 L409.8,396.1 L410.3,396.1 L410.8,396.2 L411.3,396.2 L411.8,396.2 L412.3,396.2 L412.8,396.2
		L413.3,396.2 L413.8,396.2 L414.4,396.1 L414.9,396.1 L415.4,396.0 L415.9,396.0 L416.4,395.9 L416.9,395.8
		L417.4,395.7 L417.9,395.6 L418.4,395.5 L418.9,395.4 L419.4,395.3 L419.9,395.1 L420.4,395.0 L420.9,394.8
		L421.4,394.6 L421.9,394.5 L422.4,394.3 L422.9,394.1 L423.4,393.9 L423.9,393.7 L424.4,393.5 L424.9,393.2
		L425.4,393.0 L425.9,392.7 L426.4,392.5 L426.9,392.2 L427.4,392.0 L427.9,391.7 L428.5,391.4 L429.0,391.1
		L429.5,390.8 L430.0,390.5 L430.5,390.2 L431.0,389.9 L431.5,389.5 L432.0,389.2 L432.5,388.8 L433.0,388.5
		L433.5,388.1 L434.0,387.8 L434.5,387.4 L435.0,387.0 L435.5,386.6 L436.0,386.2 L436.5,385.8 L437.0,385.4
		L437.5,385.0 L438.0,384.6 L438.5,384.1 L439.0,383.7 L439.5,383.3 L440.0,382.8 L440.5,382.4 L441.0,381.9
		L441.5,381.5 L442.0,381.0 L442.6,380.5 L443.1,380.0 L443.6,379.5 L444.1,379.1 L444.6,378.6 L445.1,378.1
		L445.6,377.6 L446.1,377.0 L446.6,376.5 L447.1,376.0 L447.6,375.5 L448.1,374.9 L448.6,374.4 L449.1,373.9
		L449.6,373.3 L450.1,372.8 L450.6,372.2 L451.1,371.7 L451.6,371.1 L452.1,370.6 L452.6,370.0 L453.1,369.4
		L453.6,368.8 L454.1,368.3 L454.6,367.7 L455.1,367.1 L455.6,366.5 L456.1,365.9 L456.7,365.3 L457.2,364.7
		L457.7,364.1 L458.2,363.5 L458.7,362.9 L459.2,362.3 L459.7,361.7 L460.2,361.1 L460.7,360.4 L461.2,359.8
		L461.7,359.2 L462.2,358.6 L462.7,357.9 L463.2,357.3 L463.7,356.7 L464.2,356.1 L464.7,355.4 L465.2,354.8
		L465.7,354.1 L466.2,353.5 L466.7,352.9 L467.2,352.2 L467.7,351.6 L468.2,350.9 L468.7,350.3 L469.2,349.6
		L469.7,349.0 L470.3,348.3 L470.8,347.7 L471.3,347.0 L471.8,346.4 L472.3,345.7 L472.8,345.1 L473.3,344.4
		L473.8,343.8 L474.3,343.1 L474.8,342.4 L475.3,341.8 L475.8,341.1 L476.3,340.5 L476.8,339.8 L477.3,339.1
		L477.8,338.5 L478.3,337.8 L478.8,337.2 L479.3,336.5 L479.8,335.9 L480.3,335.2 L480.8,334.5 L481.3,333.9
		L481.8,333.2 L482.3,332.6 L482.8,331.9 L483.3,331.3 L483.8,330.6 L484.4,330.0 L484.9,329.3 L485.4,328.7
		L485.9,328.0 L486.4,327.4 L486.9,326.7 L487.4,326.1 L487.9,325.4 L488.4,324.8 L488.9,324.1 L489.4,323.5
		L489.9,322.8 L490.4,322.2 L490.9,321.6 L491.4,320.9 L491.9,320.3 L492.4,319.7 L492.9,319.0 L493.4,318.4
		L493.9,317.8 L494.4,317.1 L494.9,316.5 L495.4,315.9 L495.9,315.3 L496.4,314.6 L496.9,314.0 L497.4,313.4
		L497.9,312.8 L498.5,312.2 L499.0,311.6 L499.5,311.0 L500.0,310.4 L500.5,309.8 L501.0,309.2 L501.5,308.6
		L502.0,308.0 L502.5,307.4 L503.0,306.8 L503.5,306.2 L504.0,305.6 L504.5,305.0 L505.0,304.4 L505.5,303.9
		L506.0,303.3 L506.5,302.7 L507.0,302.1 L507.5,301.6 L508.0,301.0 L508.5,300.4 L509.0,299.9 L509.5,299.3
		L510.0,298.7 L510.5,298.2 L511.0,297.6 L511.5,297.1 L512.0,296.5 L512.6,296.0 L513.1,295.5 L513.6,294.9
		L514.1,294.4 L514.6,293.9 L515.1,293.3 L515.6,292.8 L516.1,292.3 L516.6,291.8 L517.1,291.2 L517.6,290.7
		L518.1,290.2 L518.6,289.7 L519.1,289.2 L519.6,288.7 L520.1,288.2 L520.6,287.7 L521.1,287.2 L521.6,286.7
		L522.1,286.2 L522.6,285.8 L523.1,285.3 L523.6,284.8 L524.1,284.3 L524.6,283.9 L525.1,283.4 L525.6,282.9
		L526.2,282.5 L526.7,282.0 L527.2,281.5 L527.7,281.1 L528.2,280.6 L528.7,280.2 L529.2,279.7 L529.7,279.3
		L530.2,278.9 L530.7,278.4 L531.2,278.0 L531.7,277.6 L532.2,277.2 L532.7,276.7 L533.2,276.3 L533.7,275.9
		L534.2,275.5 L534.7,275.1 L535.2,274.7 L535.7,274.3 L536.2,273.9 L536.7,273.5 L537.2,273.1 L537.7,272.7
		L538.2,272.3 L538.7,271.9 L539.2,271.5 L539.7,271.2 L540.3,270.8 L540.8,270.4 L541.3,270.0 L541.8,269.7
		L542.3,269.3 L542.8,269.0 L543.3,268.6 L543.8,268.2 L544.3,267.9 L544.8,267.5 L545.3,267.2 L545.8,266.9
		L546.3,266.5 L546.8,266.2 L547.3,265.8 L547.8,265.5 L548.3,265.2 L548.8,264.9 L549.3,264.5 L549.8,264.2
		L550.3,263.9 L550.8,263.6 L551.3,263.3 L551.8,263.0 L552.3,262.7 L552.8,262.4 L553.3,262.1 L553.8,261.8
		L554.4,261.5 L554.9,261.2 L555.4,260.9 L555.9,260.6 L556.4,260.4 L556.9,260.1 L557.4,259.8 L557.9,259.5
		L558.4,259.3 L558.9,259.0 L559.4,258.7 L559.9,258.5 L560.4,258.2 L560.9,257.9 L561.4,257.7 L561.9,257.4
		L562.4,257.2 L562.9,256.9 L563.4,256.7 L563.9,256.5 L564.4,256.2 L564.9,256.0 L565.4,255.7 L565.9,255.5
		L566.4,255.3 L566.9,255.1 L567.4,254.8 L567.9,254.6 L568.5,254.4 L569.0,254.2 L569.5,254.0 L570.0,253.7
		L570.5,253.5 L571.0,253.3 L571.5,253.1 L572.0,252.9 L572.5,252.7 L573.0,252.5 L573.5,252.3 L574.0,252.1
		L574.5,251.9 L575.0,251.7  '/></g>
	</g>
	<g id="gnuplot_plot_2" ><title>qspline</title>
<g fill="none" color="black" stroke="currentColor" stroke-width="1.00" stroke-linecap="butt" stroke-linejoin="miter">
	<g transform="translate(507.9,94.0)" stroke="none" fill="black" font-family="Arial" font-size="12.00"  text-anchor="end">
		<text><tspan font-family="Arial" >qspline</tspan></text>
	</g>
</g>
<g fill="none" color="black" stroke="currentColor" stroke-width="1.00" stroke-linecap="butt" stroke-linejoin="miter">
	<path stroke='rgb(  0, 158, 115)'  d='M516.2,90.1 L558.4,90.1 M71.9,224.8 L72.4,224.4 L72.9,224.0 L73.4,223.7 L73.9,223.3 L74.4,223.0
		L74.9,222.6 L75.4,222.3 L75.9,221.9 L76.4,221.5 L76.9,221.2 L77.4,220.8 L77.9,220.5 L78.4,220.1
		L79.0,219.7 L79.5,219.4 L80.0,219.0 L80.5,218.7 L81.0,218.3 L81.5,218.0 L82.0,217.6 L82.5,217.2
		L83.0,216.9 L83.5,216.5 L84.0,216.2 L84.5,215.8 L85.0,215.4 L85.5,215.1 L86.0,214.7 L86.5,214.4
		L87.0,214.0 L87.5,213.7 L88.0,213.3 L88.5,212.9 L89.0,212.6 L89.5,212.2 L90.0,211.9 L90.5,211.5
		L91.0,211.1 L91.5,210.8 L92.0,210.4 L92.5,210.1 L93.1,209.7 L93.6,209.4 L94.1,209.0 L94.6,208.6
		L95.1,208.3 L95.6,207.9 L96.1,207.6 L96.6,207.2 L97.1,206.8 L97.6,206.5 L98.1,206.1 L98.6,205.8
		L99.1,205.4 L99.6,205.1 L100.1,204.7 L100.6,204.3 L101.1,204.0 L101.6,203.6 L102.1,203.3 L102.6,202.9
		L103.1,202.5 L103.6,202.2 L104.1,201.8 L104.6,201.5 L105.1,201.1 L105.6,200.8 L106.1,200.4 L106.6,200.0
		L107.2,199.7 L107.7,199.3 L108.2,199.0 L108.7,198.6 L109.2,198.2 L109.7,197.9 L110.2,197.5 L110.7,197.2
		L111.2,196.8 L111.7,196.5 L112.2,196.1 L112.7,195.7 L113.2,195.4 L113.7,195.0 L114.2,194.7 L114.7,194.3
		L115.2,193.9 L115.7,193.6 L116.2,193.2 L116.7,192.9 L117.2,192.5 L117.7,192.2 L118.2,191.8 L118.7,191.4
		L119.2,191.1 L119.7,190.7 L120.2,190.4 L120.7,190.0 L121.3,189.7 L121.8,189.3 L122.3,188.9 L122.8,188.6
		L123.3,188.2 L123.8,187.9 L124.3,187.5 L124.8,187.1 L125.3,186.8 L125.8,186.4 L126.3,186.1 L126.8,185.7
		L127.3,185.4 L127.8,185.0 L128.3,184.6 L128.8,184.3 L129.3,183.9 L129.8,183.6 L130.3,183.2 L130.8,182.8
		L131.3,182.5 L131.8,182.1 L132.3,181.8 L132.8,181.4 L133.3,181.1 L133.8,180.7 L134.3,180.3 L134.9,180.0
		L135.4,179.6 L135.9,179.3 L136.4,178.9 L136.9,178.5 L137.4,178.1 L137.9,177.7 L138.4,177.4 L138.9,177.0
		L139.4,176.6 L139.9,176.2 L140.4,175.8 L140.9,175.4 L141.4,175.0 L141.9,174.5 L142.4,174.1 L142.9,173.7
		L143.4,173.3 L143.9,172.8 L144.4,172.4 L144.9,172.0 L145.4,171.5 L145.9,171.1 L146.4,170.6 L146.9,170.2
		L147.4,169.7 L147.9,169.2 L148.4,168.8 L149.0,168.3 L149.5,167.8 L150.0,167.3 L150.5,166.9 L151.0,166.4
		L151.5,165.9 L152.0,165.4 L152.5,164.9 L153.0,164.4 L153.5,163.8 L154.0,163.3 L154.5,162.8 L155.0,162.3
		L155.5,161.8 L156.0,161.2 L156.5,160.7 L157.0,160.2 L157.5,159.6 L158.0,159.1 L158.5,158.5 L159.0,158.0
		L159.5,157.4 L160.0,156.8 L160.5,156.3 L161.0,155.7 L161.5,155.1 L162.0,154.5 L162.5,153.9 L163.1,153.3
		L163.6,152.8 L164.1,152.2 L164.6,151.5 L165.1,150.9 L165.6,150.3 L166.1,149.7 L166.6,149.1 L167.1,148.5
		L167.6,147.8 L168.1,147.2 L168.6,146.6 L169.1,145.9 L169.6,145.3 L170.1,144.6 L170.6,144.0 L171.1,143.3
		L171.6,142.7 L172.1,142.0 L172.6,141.3 L173.1,140.7 L173.6,140.0 L174.1,139.3 L174.6,138.6 L175.1,137.9
		L175.6,137.2 L176.1,136.5 L176.6,135.8 L177.2,135.1 L177.7,134.4 L178.2,133.7 L178.7,133.0 L179.2,132.3
		L179.7,131.5 L180.2,130.8 L180.7,130.1 L181.2,129.3 L181.7,128.6 L182.2,127.8 L182.7,127.1 L183.2,126.3
		L183.7,125.6 L184.2,124.8 L184.7,124.0 L185.2,123.2 L185.7,122.5 L186.2,121.7 L186.7,120.9 L187.2,120.1
		L187.7,119.3 L188.2,118.5 L188.7,117.7 L189.2,116.9 L189.7,116.1 L190.2,115.3 L190.8,114.5 L191.3,113.6
		L191.8,112.8 L192.3,112.0 L192.8,111.1 L193.3,110.3 L193.8,109.4 L194.3,108.6 L194.8,107.7 L195.3,106.9
		L195.8,106.0 L196.3,105.2 L196.8,104.3 L197.3,103.4 L197.8,102.5 L198.3,101.7 L198.8,100.8 L199.3,100.0
		L199.8,99.1 L200.3,98.3 L200.8,97.5 L201.3,96.7 L201.8,96.0 L202.3,95.2 L202.8,94.4 L203.3,93.7
		L203.8,93.0 L204.3,92.3 L204.9,91.6 L205.4,90.9 L205.9,90.2 L206.4,89.5 L206.9,88.9 L207.4,88.3
		L207.9,87.6 L208.4,87.0 L208.9,86.4 L209.4,85.9 L209.9,85.3 L210.4,84.7 L210.9,84.2 L211.4,83.7
		L211.9,83.1 L212.4,82.6 L212.9,82.1 L213.4,81.7 L213.9,81.2 L214.4,80.7 L214.9,80.3 L215.4,79.9
		L215.9,79.5 L216.4,79.1 L216.9,78.7 L217.4,78.3 L217.9,78.0 L218.4,77.6 L219.0,77.3 L219.5,77.0
		L220.0,76.6 L220.5,76.4 L221.0,76.1 L221.5,75.8 L222.0,75.5 L222.5,75.3 L223.0,75.1 L223.5,74.9
		L224.0,74.7 L224.5,74.5 L225.0,74.3 L225.5,74.1 L226.0,74.0 L226.5,73.8 L227.0,73.7 L227.5,73.6
		L228.0,73.5 L228.5,73.4 L229.0,73.3 L229.5,73.3 L230.0,73.2 L230.5,73.2 L231.0,73.2 L231.5,73.2
		L232.0,73.2 L232.5,73.2 L233.1,73.2 L233.6,73.3 L234.1,73.3 L234.6,73.4 L235.1,73.5 L235.6,73.6
		L236.1,73.7 L236.6,73.8 L237.1,74.0 L237.6,74.1 L238.1,74.3 L238.6,74.4 L239.1,74.6 L239.6,74.8
		L240.1,75.1 L240.6,75.3 L241.1,75.5 L241.6,75.8 L242.1,76.0 L242.6,76.3 L243.1,76.6 L243.6,76.9
		L244.1,77.2 L244.6,77.6 L245.1,77.9 L245.6,78.3 L246.1,78.7 L246.7,79.0 L247.2,79.4 L247.7,79.8
		L248.2,80.3 L248.7,80.7 L249.2,81.2 L249.7,81.6 L250.2,82.1 L250.7,82.6 L251.2,83.1 L251.7,83.6
		L252.2,84.1 L252.7,84.7 L253.2,85.2 L253.7,85.8 L254.2,86.4 L254.7,87.0 L255.2,87.6 L255.7,88.2
		L256.2,88.8 L256.7,89.5 L257.2,90.1 L257.7,90.8 L258.2,91.5 L258.7,92.2 L259.2,92.9 L259.7,93.6
		L260.2,94.4 L260.8,95.1 L261.3,95.9 L261.8,96.6 L262.3,97.4 L262.8,98.2 L263.3,99.0 L263.8,99.8
		L264.3,100.6 L264.8,101.4 L265.3,102.2 L265.8,103.0 L266.3,103.8 L266.8,104.6 L267.3,105.5 L267.8,106.3
		L268.3,107.1 L268.8,108.0 L269.3,108.9 L269.8,109.7 L270.3,110.6 L270.8,111.5 L271.3,112.4 L271.8,113.3
		L272.3,114.2 L272.8,115.1 L273.3,116.0 L273.8,116.9 L274.3,117.8 L274.9,118.7 L275.4,119.7 L275.9,120.6
		L276.4,121.6 L276.9,122.5 L277.4,123.5 L277.9,124.4 L278.4,125.4 L278.9,126.4 L279.4,127.4 L279.9,128.4
		L280.4,129.4 L280.9,130.4 L281.4,131.4 L281.9,132.4 L282.4,133.4 L282.9,134.5 L283.4,135.5 L283.9,136.5
		L284.4,137.6 L284.9,138.6 L285.4,139.7 L285.9,140.8 L286.4,141.9 L286.9,142.9 L287.4,144.0 L287.9,145.1
		L288.4,146.2 L289.0,147.3 L289.5,148.4 L290.0,149.6 L290.5,150.7 L291.0,151.8 L291.5,153.0 L292.0,154.1
		L292.5,155.3 L293.0,156.4 L293.5,157.6 L294.0,158.7 L294.5,159.9 L295.0,161.1 L295.5,162.3 L296.0,163.5
		L296.5,164.7 L297.0,165.9 L297.5,167.1 L298.0,168.3 L298.5,169.6 L299.0,170.8 L299.5,172.0 L300.0,173.3
		L300.5,174.5 L301.0,175.8 L301.5,177.1 L302.0,178.3 L302.6,179.6 L303.1,180.9 L303.6,182.2 L304.1,183.5
		L304.6,184.8 L305.1,186.1 L305.6,187.4 L306.1,188.7 L306.6,190.1 L307.1,191.4 L307.6,192.7 L308.1,194.1
		L308.6,195.4 L309.1,196.8 L309.6,198.2 L310.1,199.5 L310.6,200.9 L311.1,202.3 L311.6,203.7 L312.1,205.1
		L312.6,206.5 L313.1,207.9 L313.6,209.3 L314.1,210.8 L314.6,212.2 L315.1,213.6 L315.6,215.1 L316.1,216.5
		L316.7,218.0 L317.2,219.4 L317.7,220.9 L318.2,222.4 L318.7,223.9 L319.2,225.3 L319.7,226.8 L320.2,228.3
		L320.7,229.8 L321.2,231.4 L321.7,232.9 L322.2,234.4 L322.7,235.9 L323.2,237.5 L323.7,239.0 L324.2,240.6
		L324.7,242.1 L325.2,243.6 L325.7,245.1 L326.2,246.7 L326.7,248.2 L327.2,249.7 L327.7,251.2 L328.2,252.6
		L328.7,254.1 L329.2,255.6 L329.7,257.1 L330.2,258.5 L330.8,260.0 L331.3,261.4 L331.8,262.9 L332.3,264.3
		L332.8,265.7 L333.3,267.2 L333.8,268.6 L334.3,270.0 L334.8,271.4 L335.3,272.8 L335.8,274.2 L336.3,275.6
		L336.8,277.0 L337.3,278.3 L337.8,279.7 L338.3,281.1 L338.8,282.4 L339.3,283.8 L339.8,285.1 L340.3,286.4
		L340.8,287.8 L341.3,289.1 L341.8,290.4 L342.3,291.7 L342.8,293.0 L343.3,294.3 L343.8,295.6 L344.3,296.9
		L344.9,298.2 L345.4,299.4 L345.9,300.7 L346.4,302.0 L346.9,303.2 L347.4,304.5 L347.9,305.7 L348.4,306.9
		L348.9,308.2 L349.4,309.4 L349.9,310.6 L350.4,311.8 L350.9,313.0 L351.4,314.2 L351.9,315.4 L352.4,316.6
		L352.9,317.8 L353.4,318.9 L353.9,320.1 L354.4,321.2 L354.9,322.4 L355.4,323.5 L355.9,324.7 L356.4,325.8
		L356.9,326.9 L357.4,328.1 L357.9,329.2 L358.5,330.3 L359.0,331.4 L359.5,332.5 L360.0,333.6 L360.5,334.6
		L361.0,335.7 L361.5,336.8 L362.0,337.9 L362.5,338.9 L363.0,340.0 L363.5,341.0 L364.0,342.0 L364.5,343.1
		L365.0,344.1 L365.5,345.1 L366.0,346.1 L366.5,347.1 L367.0,348.1 L367.5,349.1 L368.0,350.1 L368.5,351.1
		L369.0,352.1 L369.5,353.0 L370.0,354.0 L370.5,354.9 L371.0,355.9 L371.5,356.8 L372.0,357.8 L372.6,358.7
		L373.1,359.6 L373.6,360.5 L374.1,361.4 L374.6,362.3 L375.1,363.2 L375.6,364.1 L376.1,365.0 L376.6,365.9
		L377.1,366.8 L377.6,367.6 L378.1,368.5 L378.6,369.4 L379.1,370.2 L379.6,371.0 L380.1,371.9 L380.6,372.7
		L381.1,373.5 L381.6,374.3 L382.1,375.1 L382.6,375.9 L383.1,376.7 L383.6,377.5 L384.1,378.3 L384.6,379.1
		L385.1,379.9 L385.6,380.6 L386.1,381.4 L386.7,382.1 L387.2,382.9 L387.7,383.6 L388.2,384.3 L388.7,385.0
		L389.2,385.7 L389.7,386.4 L390.2,387.0 L390.7,387.7 L391.2,388.3 L391.7,388.9 L392.2,389.5 L392.7,390.1
		L393.2,390.7 L393.7,391.3 L394.2,391.8 L394.7,392.4 L395.2,392.9 L395.7,393.4 L396.2,393.9 L396.7,394.4
		L397.2,394.9 L397.7,395.3 L398.2,395.8 L398.7,396.2 L399.2,396.7 L399.7,397.1 L400.2,397.5 L400.8,397.8
		L401.3,398.2 L401.8,398.6 L402.3,398.9 L402.8,399.3 L403.3,399.6 L403.8,399.9 L404.3,400.2 L404.8,400.5
		L405.3,400.7 L405.8,401.0 L406.3,401.2 L406.8,401.4 L407.3,401.7 L407.8,401.9 L408.3,402.1 L408.8,402.2
		L409.3,402.4 L409.8,402.5 L410.3,402.7 L410.8,402.8 L411.3,402.9 L411.8,403.0 L412.3,403.1 L412.8,403.2
		L413.3,403.2 L413.8,403.3 L414.4,403.3 L414.9,403.3 L415.4,403.3 L415.9,403.3 L416.4,403.3 L416.9,403.3
		L417.4,403.2 L417.9,403.2 L418.4,403.1 L418.9,403.0 L419.4,402.9 L419.9,402.8 L420.4,402.7 L420.9,402.5
		L421.4,402.4 L421.9,402.2 L422.4,402.0 L422.9,401.8 L423.4,401.6 L423.9,401.4 L424.4,401.2 L424.9,401.0
		L425.4,400.7 L425.9,400.4 L426.4,400.1 L426.9,399.9 L427.4,399.5 L427.9,399.2 L428.5,398.9 L429.0,398.5
		L429.5,398.2 L430.0,397.8 L430.5,397.4 L431.0,397.0 L431.5,396.6 L432.0,396.2 L432.5,395.8 L433.0,395.3
		L433.5,394.8 L434.0,394.4 L434.5,393.9 L435.0,393.4 L435.5,392.8 L436.0,392.3 L436.5,391.8 L437.0,391.2
		L437.5,390.6 L438.0,390.1 L438.5,389.5 L439.0,388.9 L439.5,388.2 L440.0,387.6 L440.5,387.0 L441.0,386.3
		L441.5,385.6 L442.0,384.9 L442.6,384.2 L443.1,383.5 L443.6,382.8 L444.1,382.1 L444.6,381.3 L445.1,380.5
		L445.6,379.8 L446.1,379.0 L446.6,378.2 L447.1,377.4 L447.6,376.5 L448.1,375.7 L448.6,374.8 L449.1,374.0
		L449.6,373.1 L450.1,372.2 L450.6,371.3 L451.1,370.5 L451.6,369.6 L452.1,368.8 L452.6,367.9 L453.1,367.1
		L453.6,366.2 L454.1,365.4 L454.6,364.5 L455.1,363.7 L455.6,362.9 L456.1,362.0 L456.7,361.2 L457.2,360.4
		L457.7,359.6 L458.2,358.8 L458.7,358.0 L459.2,357.2 L459.7,356.4 L460.2,355.6 L460.7,354.8 L461.2,354.0
		L461.7,353.3 L462.2,352.5 L462.7,351.7 L463.2,350.9 L463.7,350.2 L464.2,349.4 L464.7,348.7 L465.2,347.9
		L465.7,347.2 L466.2,346.4 L466.7,345.7 L467.2,345.0 L467.7,344.2 L468.2,343.5 L468.7,342.8 L469.2,342.1
		L469.7,341.4 L470.3,340.7 L470.8,340.0 L471.3,339.3 L471.8,338.6 L472.3,337.9 L472.8,337.2 L473.3,336.5
		L473.8,335.8 L474.3,335.2 L474.8,334.5 L475.3,333.8 L475.8,333.2 L476.3,332.5 L476.8,331.9 L477.3,331.2
		L477.8,330.6 L478.3,329.9 L478.8,329.3 L479.3,328.7 L479.8,328.0 L480.3,327.4 L480.8,326.8 L481.3,326.2
		L481.8,325.6 L482.3,325.0 L482.8,324.3 L483.3,323.7 L483.8,323.2 L484.4,322.6 L484.9,322.0 L485.4,321.4
		L485.9,320.8 L486.4,320.2 L486.9,319.7 L487.4,319.1 L487.9,318.5 L488.4,318.0 L488.9,317.4 L489.4,316.9
		L489.9,316.3 L490.4,315.8 L490.9,315.3 L491.4,314.7 L491.9,314.2 L492.4,313.7 L492.9,313.2 L493.4,312.7
		L493.9,312.1 L494.4,311.6 L494.9,311.1 L495.4,310.6 L495.9,310.1 L496.4,309.6 L496.9,309.2 L497.4,308.7
		L497.9,308.2 L498.5,307.7 L499.0,307.3 L499.5,306.8 L500.0,306.3 L500.5,305.9 L501.0,305.4 L501.5,305.0
		L502.0,304.5 L502.5,304.1 L503.0,303.7 L503.5,303.2 L504.0,302.8 L504.5,302.4 L505.0,302.0 L505.5,301.5
		L506.0,301.1 L506.5,300.7 L507.0,300.3 L507.5,299.9 L508.0,299.5 L508.5,299.1 L509.0,298.8 L509.5,298.4
		L510.0,298.0 L510.5,297.6 L511.0,297.2 L511.5,296.9 L512.0,296.5 L512.6,296.2 L513.1,295.8 L513.6,295.4
		L514.1,295.1 L514.6,294.7 L515.1,294.4 L515.6,294.0 L516.1,293.7 L516.6,293.3 L517.1,292.9 L517.6,292.6
		L518.1,292.2 L518.6,291.9 L519.1,291.5 L519.6,291.1 L520.1,290.8 L520.6,290.4 L521.1,290.1 L521.6,289.7
		L522.1,289.4 L522.6,289.0 L523.1,288.6 L523.6,288.3 L524.1,287.9 L524.6,287.6 L525.1,287.2 L525.6,286.8
		L526.2,286.5 L526.7,286.1 L527.2,285.8 L527.7,285.4 L528.2,285.1 L528.7,284.7 L529.2,284.3 L529.7,284.0
		L530.2,283.6 L530.7,283.3 L531.2,282.9 L531.7,282.6 L532.2,282.2 L532.7,281.8 L533.2,281.5 L533.7,281.1
		L534.2,280.8 L534.7,280.4 L535.2,280.0 L535.7,279.7 L536.2,279.3 L536.7,279.0 L537.2,278.6 L537.7,278.3
		L538.2,277.9 L538.7,277.5 L539.2,277.2 L539.7,276.8 L540.3,276.5 L540.8,276.1 L541.3,275.7 L541.8,275.4
		L542.3,275.0 L542.8,274.7 L543.3,274.3 L543.8,274.0 L544.3,273.6 L544.8,273.2 L545.3,272.9 L545.8,272.5
		L546.3,272.2 L546.8,271.8 L547.3,271.4 L547.8,271.1 L548.3,270.7 L548.8,270.4 L549.3,270.0 L549.8,269.7
		L550.3,269.3 L550.8,268.9 L551.3,268.6 L551.8,268.2 L552.3,267.9 L552.8,267.5 L553.3,267.1 L553.8,266.8
		L554.4,266.4 L554.9,266.1 L555.4,265.7 L555.9,265.4 L556.4,265.0 L556.9,264.6 L557.4,264.3 L557.9,263.9
		L558.4,263.6 L558.9,263.2 L559.4,262.8 L559.9,262.5 L560.4,262.1 L560.9,261.8 L561.4,261.4 L561.9,261.1
		L562.4,260.7 L562.9,260.3 L563.4,260.0 L563.9,259.6 L564.4,259.3 L564.9,258.9 L565.4,258.5 L565.9,258.2
		L566.4,257.8 L566.9,257.5 L567.4,257.1 L567.9,256.8 L568.5,256.4 L569.0,256.0 L569.5,255.7 L570.0,255.3
		L570.5,255.0 L571.0,254.6 L571.5,254.2 L572.0,253.9 L572.5,253.5 L573.0,253.2 L573.5,252.8 L574.0,252.5
		L574.5,252.1 L575.0,251.7  '/></g>
	</g>
	<g id="gnuplot_plot_3" ><title>Input points</title>
<g fill="none" color="black" stroke="currentColor" stroke-width="1.00" stroke-linecap="butt" stroke-linejoin="miter">
	<g transform="translate(507.9,112.0)" stroke="none" fill="black" font-family="Arial" font-size="12.00"  text-anchor="end">
		<text><tspan font-family="Arial" >Input points</tspan></text>
	</g>
</g>
<g fill="none" color="black" stroke="currentColor" stroke-width="1.00" stroke-linecap="butt" stroke-linejoin="miter">
	<use xlink:href='#gpPt0' transform='translate(71.9,224.8) scale(4.50)' color='rgb(148,   0, 211)'/>
	<use xlink:href='#gpPt0' transform='translate(134.8,180.0) scale(4.50)' color='rgb(148,   0, 211)'/>
	<use xlink:href='#gpPt0' transform='translate(197.7,102.8) scale(4.50)' color='rgb(148,   0, 211)'/>
	<use xlink:href='#gpPt0' transform='translate(260.6,94.8) scale(4.50)' color='rgb(148,   0, 211)'/>
	<use xlink:href='#gpPt0' transform='translate(323.5,238.2) scale(4.50)' color='rgb(148,   0, 211)'/>
	<use xlink:href='#gpPt0' transform='translate(386.3,381.7) scale(4.50)' color='rgb(148,   0, 211)'/>
	<use xlink:href='#gpPt0' transform='translate(449.2,373.7) scale(4.50)' color='rgb(148,   0, 211)'/>
	<use xlink:href='#gpPt0' transform='translate(512.1,296.5) scale(4.50)' color='rgb(148,   0, 211)'/>
	<use xlink:href='#gpPt0' transform='translate(575.0,251.7) scale(4.50)' color='rgb(148,   0, 211)'/>
	<use xlink:href='#gpPt0' transform='translate(537.3,108.1) scale(4.50)' color='rgb(148,   0, 211)'/>
</g>
	</g>
<g fill="none" color="white" stroke="rgb(148,   0, 211)" stroke-width="2.00" stroke-linecap="butt" stroke-linejoin="miter">
</g>
<g fill="none" color="black" stroke="currentColor" stroke-width="2.00" stroke-linecap="butt" stroke-linejoin="miter">
</g>
<g fill="none" color="black" stroke="black" stroke-width="1.00" stroke-linecap="butt" stroke-linejoin="miter">
</g>
<g fill="none" color="black" stroke="currentColor" stroke-width="1.00" stroke-linecap="butt" stroke-linejoin="miter">
	<path stroke='black'  d='M71.9,54.1 L71.9,422.4 L575.0,422.4 L575.0,54.1 L71.9,54.1 Z  '/></g>
<g fill="none" color="black" stroke="currentColor" stroke-width="1.00" stroke-linecap="butt" stroke-linejoin="miter">
</g>
</g>
</svg>

