% $ biblatex auxiliary file $
% $ biblatex bbl format version 3.1 $
% Do not modify the above lines!
%
% This is an auxiliary file used by the 'biblatex' package.
% This file may safely be deleted. It will be recreated by
% biber as required.
%
\begingroup
\makeatletter
\@ifundefined{ver@biblatex.sty}
  {\@latex@error
     {Missing 'biblatex' package}
     {The bibliography requires the 'biblatex' package.}
      \aftergroup\endinput}
  {}
\endgroup


\refsection{0}
  \datalist[entry]{nty/global//global/global}
    \entry{Davis1959}{article}{}
      \name{author}{1}{}{%
        {{hash=549bcfd7091735a0fb4273ae8b501fec}{%
           family={Davis},
           familyi={D\bibinitperiod},
           given={P.\bibnamedelimi J.},
           giveni={P\bibinitperiod\bibinitdelim J\bibinitperiod}}}%
      }
      \strng{namehash}{549bcfd7091735a0fb4273ae8b501fec}
      \strng{fullhash}{549bcfd7091735a0fb4273ae8b501fec}
      \strng{bibnamehash}{549bcfd7091735a0fb4273ae8b501fec}
      \strng{authorbibnamehash}{549bcfd7091735a0fb4273ae8b501fec}
      \strng{authornamehash}{549bcfd7091735a0fb4273ae8b501fec}
      \strng{authorfullhash}{549bcfd7091735a0fb4273ae8b501fec}
      \field{sortinit}{D}
      \field{sortinithash}{c438b3d5d027251ba63f5ed538d98af5}
      \field{labelnamesource}{author}
      \field{labeltitlesource}{title}
      \field{journaltitle}{American Mathematical Monthly}
      \field{number}{10}
      \field{title}{Leonhard Euler's Integral: A Historical Profile of the Gamma Function}
      \field{volume}{66}
      \field{year}{1959}
      \field{pages}{849\bibrangedash 869}
      \range{pages}{21}
    \endentry
  \enddatalist
\endrefsection
\endinput

