\relax 
\abx@aux@refcontext{nty/global//global/global}
\@writefile{toc}{\boolfalse {citerequest}\boolfalse {citetracker}\boolfalse {pagetracker}\boolfalse {backtracker}\relax }
\@writefile{lof}{\boolfalse {citerequest}\boolfalse {citetracker}\boolfalse {pagetracker}\boolfalse {backtracker}\relax }
\@writefile{lot}{\boolfalse {citerequest}\boolfalse {citetracker}\boolfalse {pagetracker}\boolfalse {backtracker}\relax }
\@writefile{lof}{\defcounter {refsection}{0}\relax }\@writefile{lof}{\contentsline {figure}{\numberline {1}{\ignorespaces Gammafunktionen omkring 0 langs den reelle akse. $\Gamma (z)$ er en memoforisk funktion, defineret på hele det komplekse rum pånær når $z$ er 0 eller et negativt heltal.}}{1}\protected@file@percent }
\@writefile{toc}{\defcounter {refsection}{0}\relax }\@writefile{toc}{\contentsline {section}{\numberline {1}Definition}{1}\protected@file@percent }
\abx@aux@cite{Davis1959}
\abx@aux@segm{0}{0}{Davis1959}
\abx@aux@refcontextdefaultsdone
\abx@aux@defaultrefcontext{0}{Davis1959}{nty/global//global/global}
