%!PS-Adobe-3.0 EPSF-3.0
%%Creator: cairo 1.16.0 (https://cairographics.org)
%%CreationDate: Wed Jun 24 19:24:51 2020
%%Pages: 1
%%DocumentData: Clean7Bit
%%LanguageLevel: 2
%%BoundingBox: 0 0 238 238
%%EndComments
%%BeginProlog
50 dict begin
/q { gsave } bind def
/Q { grestore } bind def
/cm { 6 array astore concat } bind def
/w { setlinewidth } bind def
/J { setlinecap } bind def
/j { setlinejoin } bind def
/M { setmiterlimit } bind def
/d { setdash } bind def
/m { moveto } bind def
/l { lineto } bind def
/c { curveto } bind def
/h { closepath } bind def
/re { exch dup neg 3 1 roll 5 3 roll moveto 0 rlineto
      0 exch rlineto 0 rlineto closepath } bind def
/S { stroke } bind def
/f { fill } bind def
/f* { eofill } bind def
/n { newpath } bind def
/W { clip } bind def
/W* { eoclip } bind def
/BT { } bind def
/ET { } bind def
/BDC { mark 3 1 roll /BDC pdfmark } bind def
/EMC { mark /EMC pdfmark } bind def
/cairo_store_point { /cairo_point_y exch def /cairo_point_x exch def } def
/Tj { show currentpoint cairo_store_point } bind def
/TJ {
  {
    dup
    type /stringtype eq
    { show } { -0.001 mul 0 cairo_font_matrix dtransform rmoveto } ifelse
  } forall
  currentpoint cairo_store_point
} bind def
/cairo_selectfont { cairo_font_matrix aload pop pop pop 0 0 6 array astore
    cairo_font exch selectfont cairo_point_x cairo_point_y moveto } bind def
/Tf { pop /cairo_font exch def /cairo_font_matrix where
      { pop cairo_selectfont } if } bind def
/Td { matrix translate cairo_font_matrix matrix concatmatrix dup
      /cairo_font_matrix exch def dup 4 get exch 5 get cairo_store_point
      /cairo_font where { pop cairo_selectfont } if } bind def
/Tm { 2 copy 8 2 roll 6 array astore /cairo_font_matrix exch def
      cairo_store_point /cairo_font where { pop cairo_selectfont } if } bind def
/g { setgray } bind def
/rg { setrgbcolor } bind def
/d1 { setcachedevice } bind def
/cairo_data_source {
  CairoDataIndex CairoData length lt
    { CairoData CairoDataIndex get /CairoDataIndex CairoDataIndex 1 add def }
    { () } ifelse
} def
/cairo_flush_ascii85_file { cairo_ascii85_file status { cairo_ascii85_file flushfile } if } def
/cairo_image { image cairo_flush_ascii85_file } def
/cairo_imagemask { imagemask cairo_flush_ascii85_file } def
%%EndProlog
%%BeginSetup
%%EndSetup
%%Page: 1 1
%%BeginPageSetup
%%PageBoundingBox: 0 0 238 238
%%EndPageSetup
q 25 20 196 212 rectclip
1 0 0 -1 0 238 cm q
0 g
0.25 w
0 J
0 j
[] 0.0 d
3.8 M q 1 0 0 1 0 0 cm
29.75 192.801 m 25.699 192.801 l S Q
q 1 0 0 1 0 0 cm
216.602 192.801 m 220.648 192.801 l S Q
q 1 0 0 1 0 0 cm
29.75 152.352 m 25.699 152.352 l S Q
q 1 0 0 1 0 0 cm
216.602 152.352 m 220.648 152.352 l S Q
q 1 0 0 1 0 0 cm
29.75 111.898 m 25.699 111.898 l S Q
q 1 0 0 1 0 0 cm
216.602 111.898 m 220.648 111.898 l S Q
q 1 0 0 1 0 0 cm
29.75 71.449 m 25.699 71.449 l S Q
q 1 0 0 1 0 0 cm
216.602 71.449 m 220.648 71.449 l S Q
q 1 0 0 1 0 0 cm
29.75 31 m 25.699 31 l S Q
q 1 0 0 1 0 0 cm
216.602 31 m 220.648 31 l S Q
q 1 0 0 1 0 0 cm
48.449 213.051 m 48.449 217.102 l S Q
q 1 0 0 1 0 0 cm
48.449 10.75 m 48.449 6.699 l S Q
q 1 0 0 1 0 0 cm
85.801 213.051 m 85.801 217.102 l S Q
q 1 0 0 1 0 0 cm
85.801 10.75 m 85.801 6.699 l S Q
q 1 0 0 1 0 0 cm
123.199 213.051 m 123.199 217.102 l S Q
q 1 0 0 1 0 0 cm
123.199 10.75 m 123.199 6.699 l S Q
q 1 0 0 1 0 0 cm
160.551 213.051 m 160.551 217.102 l S Q
q 1 0 0 1 0 0 cm
160.551 10.75 m 160.551 6.699 l S Q
q 1 0 0 1 0 0 cm
197.898 213.051 m 197.898 217.102 l S Q
q 1 0 0 1 0 0 cm
197.898 10.75 m 197.898 6.699 l S Q
[ 0.2 2] 0 d
q 1 0 0 1 0 0 cm
29.75 111.898 m 216.602 111.898 l S Q
[ 0.2 2] 0 d
q 1 0 0 1 0 0 cm
123.199 213.051 m 123.199 10.75 l S Q
[] 0.0 d
q 1 0 0 1 0 0 cm
29.75 10.75 186.852 202.301 re S Q
0.580392 0 0.827451 rg
q 1 0 0 1 0 0 cm
29.898 133.75 m 30.051 123 l 30.199 119.398 l 30.352 117.602 l 30.5 116.5
 l 30.648 115.801 l 30.75 115.301 l 30.898 114.898 l 31.051 114.602 l 31.199
 114.398 l 31.352 114.199 l 31.5 114.051 l 31.648 113.898 l 31.801 113.801
 l 31.949 113.699 l 32.102 113.602 l 32.25 113.551 l 32.398 113.449 l 32.5
 113.398 l 32.648 113.352 l 32.801 113.301 l 32.949 113.301 l 33.102 113.25
 l 33.25 113.199 l 33.398 113.199 l 33.551 113.148 l 33.699 113.148 l 33.852
 113.102 l 34 113.102 l 34.148 113.051 l 34.551 113.051 l 34.699 113 l 35.602
 113 l 35.75 112.949 l 36.75 112.949 l 36.898 113 l 37.898 113 l 38.051 
113.051 l 38.648 113.051 l 38.801 113.102 l 39.102 113.102 l 39.25 113.148
 l 39.551 113.148 l 39.699 113.199 l 39.949 113.199 l 40.102 113.25 l 40.25
 113.25 l 40.398 113.301 l 40.551 113.301 l 40.699 113.352 l 40.852 113.352
 l 41 113.398 l 41.148 113.449 l 41.301 113.449 l 41.449 113.5 l 41.551 
113.551 l 41.699 113.602 l 41.852 113.602 l 42 113.648 l 42.148 113.699 
l 42.301 113.75 l 42.449 113.801 l 42.602 113.852 l 42.75 113.949 l 42.898
 114 l 43.051 114.051 l 43.199 114.102 l 43.352 114.199 l 43.449 114.301
 l 43.602 114.352 l 43.75 114.449 l 43.898 114.551 l 44.051 114.648 l 44.199
 114.75 l 44.352 114.898 l 44.5 115 l 44.801 115.301 l 44.949 115.5 l 45.102
 115.648 l 45.199 115.852 l 45.352 116.102 l 45.648 116.602 l 45.801 116.898
 l 45.949 117.25 l 46.102 117.602 l 46.25 118.051 l 46.398 118.551 l 46.551
 119.148 l 46.699 119.801 l 46.852 120.602 l 47 121.602 l 47.102 122.75 
l 47.25 124.25 l 47.398 126.148 l 47.551 128.699 l 47.699 132.301 l 47.852
 137.648 l 48 146.648 l 48.148 164.602 l 48.25 213.051 l S Q
q 1 0 0 1 0 0 cm
48.602 10.75 m 48.75 56.648 l 48.852 74.602 l 49 83.602 l 49.148 88.949
 l 49.301 92.551 l 49.449 95.102 l 49.602 97 l 49.75 98.449 l 49.898 99.648
 l 50.051 100.602 l 50.199 101.398 l 50.352 102.051 l 50.5 102.648 l 50.602
 103.148 l 50.75 103.551 l 50.898 103.949 l 51.051 104.25 l 51.199 104.551
 l 51.352 104.801 l 51.5 105.051 l 51.648 105.25 l 51.801 105.449 l 51.949
 105.602 l 52.102 105.75 l 52.25 105.898 l 52.398 106 l 52.5 106.148 l 52.648
 106.25 l 52.801 106.301 l 52.949 106.398 l 53.102 106.5 l 53.398 106.602
 l 53.551 106.648 l 53.699 106.699 l 53.852 106.75 l 54.148 106.852 l 54.25
 106.852 l 54.398 106.898 l 54.699 106.898 l 54.852 106.949 l 55.602 106.949
 l 55.75 106.898 l 56.051 106.898 l 56.148 106.852 l 56.301 106.852 l 56.449
 106.801 l 56.602 106.801 l 56.75 106.75 l 56.898 106.75 l 57.051 106.699
 l 57.199 106.648 l 57.352 106.602 l 57.648 106.5 l 57.801 106.449 l 57.898
 106.352 l 58.051 106.301 l 58.199 106.25 l 58.352 106.148 l 58.5 106.102
 l 58.648 106 l 58.801 105.898 l 58.949 105.852 l 59.102 105.75 l 59.25 
105.648 l 59.398 105.5 l 59.551 105.398 l 59.699 105.301 l 59.801 105.148
 l 59.949 105 l 60.102 104.898 l 60.25 104.75 l 60.398 104.551 l 60.699 
104.25 l 60.852 104.051 l 61 103.852 l 61.148 103.648 l 61.301 103.398 l
 61.449 103.199 l 61.551 102.949 l 61.699 102.648 l 61.852 102.398 l 62 
102.102 l 62.148 101.75 l 62.301 101.398 l 62.449 101.051 l 62.602 100.648
 l 62.75 100.25 l 62.898 99.801 l 63.051 99.301 l 63.199 98.75 l 63.301 
98.199 l 63.449 97.602 l 63.602 96.898 l 63.75 96.148 l 63.898 95.352 l 
64.051 94.5 l 64.199 93.5 l 64.352 92.398 l 64.5 91.199 l 64.648 89.852 
l 64.801 88.301 l 64.949 86.551 l 65.102 84.551 l 65.199 82.199 l 65.352
 79.5 l 65.5 76.301 l 65.648 72.398 l 65.801 67.648 l 65.949 61.75 l 66.102
 54.102 l 66.25 43.852 l 66.398 29.551 l 66.5 10.75 l S Q
q 1 0 0 1 0 0 cm
67.75 213.051 m 67.852 202.75 l 68 188.449 l 68.148 178.25 l 68.301 170.602
 l 68.449 164.648 l 68.602 159.949 l 68.75 156.102 l 68.852 152.898 l 69
 150.199 l 69.148 147.898 l 69.301 145.949 l 69.449 144.199 l 69.602 142.699
 l 69.75 141.398 l 69.898 140.199 l 70.051 139.148 l 70.199 138.199 l 70.352
 137.352 l 70.5 136.602 l 70.602 135.898 l 70.75 135.301 l 70.898 134.699
 l 71.051 134.199 l 71.199 133.75 l 71.352 133.301 l 71.5 132.898 l 71.648
 132.551 l 71.801 132.199 l 71.949 131.898 l 72.102 131.648 l 72.25 131.398
 l 72.398 131.199 l 72.5 131 l 72.648 130.801 l 72.949 130.5 l 73.102 130.352
 l 73.398 130.148 l 73.551 130.102 l 73.699 130 l 73.852 129.949 l 74 129.898
 l 74.148 129.898 l 74.25 129.852 l 74.398 129.852 l 74.551 129.898 l 74.699
 129.898 l 74.852 129.949 l 75 129.949 l 75.148 130 l 75.301 130.102 l 75.449
 130.148 l 75.602 130.25 l 75.75 130.352 l 75.898 130.449 l 76 130.602 l
 76.148 130.699 l 76.449 131 l 76.602 131.199 l 76.75 131.398 l 76.898 131.602
 l 77.051 131.801 l 77.199 132 l 77.352 132.25 l 77.5 132.5 l 77.648 132.801
 l 77.801 133.051 l 77.898 133.352 l 78.051 133.699 l 78.199 134.051 l 78.352
 134.398 l 78.5 134.75 l 78.648 135.148 l 78.801 135.602 l 78.949 136.051
 l 79.102 136.5 l 79.25 137.051 l 79.398 137.551 l 79.551 138.102 l 79.648
 138.699 l 79.801 139.352 l 79.949 140 l 80.102 140.75 l 80.25 141.5 l 80.398
 142.301 l 80.551 143.148 l 80.699 144.051 l 80.852 145 l 81 146.051 l 81.148
 147.148 l 81.301 148.352 l 81.449 149.602 l 81.551 151 l 81.699 152.449
 l 81.852 154.051 l 82 155.801 l 82.148 157.648 l 82.301 159.699 l 82.449
 161.898 l 82.602 164.352 l 82.75 167 l 82.898 170 l 83.051 173.25 l 83.199
 176.949 l 83.301 181.051 l 83.449 185.648 l 83.602 190.949 l 83.75 196.949
 l 83.898 203.949 l 84.051 212.102 l 84.051 213.051 l S Q
q 1 0 0 1 0 0 cm
87.898 10.75 m 88 13.801 l 88.148 19 l 88.301 23.551 l 88.449 27.602 l 
88.602 31.199 l 88.699 34.398 l 88.852 37.301 l 89 39.898 l 89.148 42.25
 l 89.301 44.398 l 89.449 46.301 l 89.602 48.102 l 89.75 49.699 l 89.898
 51.199 l 90.051 52.551 l 90.199 53.801 l 90.352 54.949 l 90.5 56 l 90.602
 57 l 90.75 57.898 l 90.898 58.699 l 91.051 59.449 l 91.199 60.148 l 91.352
 60.801 l 91.5 61.398 l 91.648 61.898 l 91.801 62.398 l 91.949 62.852 l 
92.102 63.25 l 92.25 63.602 l 92.352 63.949 l 92.648 64.449 l 92.801 64.699
 l 92.949 64.852 l 93.102 65 l 93.25 65.148 l 93.398 65.25 l 93.551 65.301
 l 94 65.301 l 94.148 65.25 l 94.25 65.148 l 94.398 65.051 l 94.699 64.75
 l 94.852 64.551 l 95 64.352 l 95.148 64.102 l 95.301 63.801 l 95.449 63.5
 l 95.602 63.148 l 95.75 62.801 l 95.898 62.398 l 96 62 l 96.148 61.5 l 
96.301 61 l 96.449 60.5 l 96.602 59.898 l 96.75 59.301 l 96.898 58.648 l
 97.051 57.949 l 97.199 57.25 l 97.352 56.449 l 97.5 55.602 l 97.648 54.75
 l 97.801 53.801 l 97.898 52.801 l 98.051 51.75 l 98.199 50.648 l 98.352
 49.449 l 98.5 48.199 l 98.648 46.898 l 98.801 45.449 l 98.949 43.949 l 
99.102 42.352 l 99.25 40.648 l 99.398 38.801 l 99.551 36.852 l 99.648 34.801
 l 99.801 32.551 l 99.949 30.199 l 100.102 27.648 l 100.25 24.852 l 100.398
 21.898 l 100.551 18.699 l 100.699 15.25 l 100.852 11.449 l 100.852 10.75
 l S Q
q 1 0 0 1 0 0 cm
108.898 213.051 m 109 212 l 109.148 209.699 l 109.301 207.551 l 109.449
 205.602 l 109.602 203.75 l 109.75 202 l 109.898 200.398 l 110.051 198.898
 l 110.199 197.551 l 110.352 196.25 l 110.5 195.051 l 110.602 193.898 l 
110.75 192.852 l 110.898 191.852 l 111.051 190.949 l 111.199 190.148 l 111.352
 189.352 l 111.5 188.648 l 111.648 187.949 l 111.801 187.352 l 111.949 186.801
 l 112.102 186.301 l 112.25 185.852 l 112.352 185.398 l 112.5 185.051 l 
112.648 184.699 l 112.801 184.449 l 112.949 184.199 l 113.102 184 l 113.25
 183.852 l 113.398 183.75 l 113.551 183.648 l 113.699 183.602 l 113.852 
183.602 l 114 183.648 l 114.102 183.75 l 114.25 183.852 l 114.398 184 l 
114.551 184.199 l 114.699 184.449 l 114.852 184.75 l 115 185.051 l 115.148
 185.398 l 115.301 185.801 l 115.449 186.301 l 115.602 186.801 l 115.75 
187.352 l 115.898 187.949 l 116 188.602 l 116.148 189.301 l 116.301 190.051
 l 116.449 190.852 l 116.602 191.75 l 116.75 192.699 l 116.898 193.75 l 
117.051 194.801 l 117.199 196 l 117.352 197.25 l 117.5 198.602 l 117.648
 200 l 117.75 201.551 l 117.898 203.199 l 118.051 204.949 l 118.199 206.852
 l 118.352 208.898 l 118.5 211.051 l 118.602 213.051 l S Q
q 1 0 0 1 0 0 cm
126.602 10.75 m 126.699 12.449 l 126.801 16.648 l 126.949 20.551 l 127.102
 24.102 l 127.25 27.449 l 127.398 30.5 l 127.551 33.352 l 127.699 36.051
 l 127.852 38.551 l 128 40.898 l 128.148 43.102 l 128.301 45.199 l 128.449
 47.148 l 128.602 48.949 l 128.699 50.699 l 128.852 52.352 l 129 53.898 
l 129.148 55.398 l 129.301 56.801 l 129.449 58.148 l 129.602 59.398 l 129.75
 60.648 l 129.898 61.801 l 130.051 62.898 l 130.199 63.949 l 130.352 64.949
 l 130.449 65.898 l 130.602 66.852 l 130.75 67.75 l 130.898 68.602 l 131.051
 69.398 l 131.199 70.199 l 131.352 70.949 l 131.5 71.648 l 131.648 72.352
 l 131.801 73.051 l 131.949 73.699 l 132.102 74.301 l 132.25 74.898 l 132.352
 75.5 l 132.648 76.602 l 132.801 77.102 l 132.949 77.602 l 133.102 78.102
 l 133.25 78.551 l 133.398 79.051 l 133.551 79.449 l 133.699 79.898 l 133.852
 80.301 l 134 80.699 l 134.102 81.102 l 134.25 81.5 l 134.398 81.852 l 134.551
 82.199 l 134.699 82.551 l 134.852 82.898 l 135.148 83.5 l 135.301 83.852
 l 135.449 84.102 l 135.602 84.398 l 135.75 84.699 l 135.852 84.949 l 136
 85.25 l 136.148 85.5 l 136.301 85.75 l 136.449 86 l 136.602 86.199 l 136.898
 86.699 l 137.051 86.898 l 137.199 87.102 l 137.352 87.301 l 137.648 87.699
 l 137.75 87.898 l 137.898 88.102 l 138.051 88.301 l 138.199 88.449 l 138.352
 88.648 l 138.5 88.801 l 138.949 89.25 l 139.102 89.398 l 139.25 89.551 
l 139.398 89.699 l 139.5 89.852 l 139.648 90 l 139.801 90.148 l 139.949 
90.25 l 140.102 90.398 l 140.25 90.5 l 140.398 90.648 l 140.551 90.75 l 
140.699 90.852 l 140.852 90.949 l 141 91.102 l 141.148 91.199 l 141.301 
91.301 l 141.398 91.398 l 141.551 91.5 l 141.699 91.602 l 141.852 91.648
 l 142.148 91.852 l 142.301 91.949 l 142.449 92 l 142.602 92.102 l 142.75
 92.199 l 142.898 92.25 l 143.051 92.352 l 143.148 92.398 l 143.301 92.449
 l 143.449 92.551 l 143.602 92.602 l 143.75 92.648 l 143.898 92.75 l 144.051
 92.801 l 144.199 92.852 l 144.352 92.898 l 144.648 93 l 144.801 93.051 
l 144.949 93.102 l 145.051 93.148 l 145.199 93.199 l 145.352 93.25 l 145.648
 93.352 l 145.801 93.398 l 145.949 93.398 l 146.102 93.449 l 146.398 93.551
 l 146.551 93.551 l 146.699 93.602 l 146.801 93.648 l 146.949 93.648 l 147.102
 93.699 l 147.25 93.699 l 147.398 93.75 l 147.551 93.75 l 147.699 93.801
 l 148 93.801 l 148.148 93.852 l 148.301 93.852 l 148.449 93.898 l 148.852
 93.898 l 149 93.949 l 149.75 93.949 l 149.898 94 l 151.051 94 l 151.199
 93.949 l 151.949 93.949 l 152.102 93.898 l 152.5 93.898 l 152.648 93.852
 l 152.949 93.852 l 153.102 93.801 l 153.398 93.801 l 153.551 93.75 l 153.699
 93.75 l 153.852 93.699 l 154 93.699 l 154.102 93.648 l 154.25 93.648 l 
154.398 93.602 l 154.551 93.602 l 154.699 93.551 l 154.852 93.551 l 155 
93.5 l 155.148 93.5 l 155.301 93.449 l 155.449 93.398 l 155.602 93.398 l
 155.75 93.352 l 155.852 93.301 l 156 93.25 l 156.148 93.25 l 156.301 93.199
 l 156.449 93.148 l 156.602 93.102 l 156.75 93.051 l 156.898 93.051 l 157.051
 93 l 157.199 92.949 l 157.352 92.898 l 157.5 92.852 l 157.648 92.801 l 
157.75 92.75 l 157.898 92.699 l 158.051 92.648 l 158.199 92.602 l 158.352
 92.551 l 158.648 92.449 l 158.801 92.398 l 158.949 92.352 l 159.102 92.301
 l 159.25 92.25 l 159.398 92.148 l 159.5 92.102 l 159.648 92.051 l 159.801
 92 l 159.949 91.949 l 160.102 91.852 l 160.398 91.75 l 160.551 91.648 l
 160.699 91.602 l 160.852 91.551 l 161 91.449 l 161.148 91.398 l 161.25 
91.301 l 161.398 91.25 l 161.551 91.199 l 161.699 91.102 l 161.852 91.051
 l 162 90.949 l 162.148 90.852 l 162.301 90.801 l 162.449 90.699 l 162.602
 90.648 l 162.75 90.551 l 162.898 90.449 l 163.051 90.398 l 163.148 90.301
 l 163.301 90.199 l 163.449 90.102 l 163.602 90.051 l 163.75 89.949 l 163.898
 89.852 l 164.051 89.75 l 164.199 89.648 l 164.352 89.551 l 164.5 89.5 l
 164.648 89.398 l 164.801 89.301 l 164.898 89.199 l 165.051 89.102 l 165.199
 89 l 165.352 88.898 l 165.5 88.75 l 165.648 88.648 l 165.801 88.551 l 165.949
 88.449 l 166.102 88.352 l 166.25 88.25 l 166.398 88.102 l 166.551 88 l 
166.699 87.898 l 166.801 87.75 l 166.949 87.648 l 167.102 87.551 l 167.25
 87.398 l 167.398 87.301 l 167.551 87.148 l 167.699 87.051 l 167.852 86.898
 l 168 86.801 l 168.148 86.648 l 168.301 86.551 l 168.449 86.398 l 168.551
 86.25 l 168.699 86.148 l 168.852 86 l 169 85.852 l 169.148 85.75 l 169.301
 85.602 l 169.449 85.449 l 169.602 85.301 l 169.75 85.148 l 169.898 85 l
 170.051 84.852 l 170.199 84.699 l 170.352 84.551 l 170.449 84.398 l 170.602
 84.25 l 170.75 84.102 l 170.898 83.949 l 171.051 83.75 l 171.5 83.301 l
 171.648 83.102 l 171.801 82.949 l 171.949 82.75 l 172.102 82.602 l 172.199
 82.449 l 172.352 82.25 l 172.5 82.051 l 172.648 81.898 l 172.801 81.699
 l 172.949 81.5 l 173.102 81.352 l 173.25 81.148 l 173.398 80.949 l 173.551
 80.75 l 173.699 80.551 l 173.852 80.398 l 173.949 80.199 l 174.102 80 l
 174.25 79.75 l 174.398 79.551 l 174.551 79.352 l 174.699 79.148 l 174.852
 78.949 l 175 78.75 l 175.148 78.5 l 175.301 78.301 l 175.449 78.051 l 175.602
 77.852 l 175.75 77.648 l 175.852 77.398 l 176 77.148 l 176.148 76.949 l
 176.301 76.699 l 176.449 76.449 l 176.602 76.199 l 176.75 76 l 176.898 
75.75 l 177.051 75.5 l 177.199 75.25 l 177.352 75 l 177.5 74.75 l 177.602
 74.449 l 177.898 73.949 l 178.051 73.699 l 178.199 73.398 l 178.352 73.148
 l 178.5 72.852 l 178.648 72.602 l 178.801 72.301 l 178.949 72 l 179.102
 71.75 l 179.398 71.148 l 179.5 70.852 l 179.648 70.551 l 179.801 70.25 
l 179.949 69.949 l 180.102 69.648 l 180.25 69.301 l 180.398 69 l 180.551
 68.699 l 180.699 68.352 l 180.852 68.051 l 181 67.699 l 181.148 67.398 
l 181.25 67.051 l 181.398 66.699 l 181.551 66.352 l 181.699 66 l 181.852
 65.648 l 182 65.301 l 182.148 64.949 l 182.301 64.602 l 182.449 64.199 
l 182.602 63.852 l 182.75 63.449 l 182.898 63.102 l 183.051 62.699 l 183.148
 62.301 l 183.301 61.949 l 183.449 61.551 l 183.602 61.148 l 183.898 60.352
 l 184.051 59.898 l 184.199 59.5 l 184.352 59.102 l 184.5 58.648 l 184.648
 58.199 l 184.801 57.801 l 184.898 57.352 l 185.051 56.898 l 185.199 56.449
 l 185.352 56 l 185.648 55.102 l 185.801 54.602 l 185.949 54.148 l 186.102
 53.648 l 186.25 53.199 l 186.398 52.699 l 186.551 52.199 l 186.648 51.699
 l 186.801 51.199 l 186.949 50.648 l 187.102 50.148 l 187.25 49.648 l 187.398
 49.102 l 187.551 48.551 l 187.699 48.051 l 187.852 47.5 l 188.148 46.398
 l 188.301 45.801 l 188.449 45.25 l 188.551 44.648 l 188.699 44.102 l 188.852
 43.5 l 189 42.898 l 189.148 42.301 l 189.301 41.699 l 189.449 41.102 l 
189.602 40.449 l 189.75 39.801 l 189.898 39.199 l 190.051 38.551 l 190.199
 37.898 l 190.301 37.25 l 190.449 36.551 l 190.602 35.898 l 190.75 35.199
 l 190.898 34.551 l 191.051 33.852 l 191.199 33.148 l 191.352 32.398 l 191.648
 31 l 191.801 30.25 l 191.949 29.5 l 192.102 28.75 l 192.199 28 l 192.352
 27.199 l 192.5 26.449 l 192.648 25.648 l 192.801 24.852 l 192.949 24.051
 l 193.102 23.25 l 193.25 22.398 l 193.398 21.602 l 193.551 20.75 l 193.699
 19.898 l 193.852 19.051 l 193.949 18.148 l 194.102 17.301 l 194.25 16.398
 l 194.398 15.5 l 194.551 14.602 l 194.699 13.648 l 194.852 12.75 l 195.148
 10.852 l 195.148 10.75 l S Q
0 g
q 1 0 0 1 0 0 cm
29.75 10.75 186.852 202.301 re S Q
Q Q
showpage
%%Trailer
end
%%EOF
