Integration of 4*Sqrt(1-x*x) from 0 to 1 using recursive adaptive integration with tridivision:
	abs = 1E-06, eps = 1E-06

	result     = 3.141591, tolerance : 4.142e-006
	true value = 3.141593, error     : 2.149e-006
	calls: 531
Test passed

Integration of Sqrt(x) from 0 to 1 using recursive adaptive integration with tridivision:
	abs = 1E-06, eps = 1E-06

	result     = 0.666665, tolerance : 1.667e-006
	true value = 0.666667, error     : 1.178e-006
	calls: 261
Test passed

