The function fitted is: f(x) = x*Cos(4x)*Exp(-x*x).
It is fitted using 4 hidden neurons and The gaussian wavelet as activation function.
It is also fitted using 4 hidden neurons and the wavelet function from the exercises as activation function.
See plot_Func.svg for the fit together with the true value points

The Antiderivative of the gaussian wavelet and the wavelet fit is found using the Adaptive recursive integrator method.
See plot_AntiDeriv.svg for the comparison with the true values of the antiderivative at selected points.

The derivative is calculated by a simple weigted sum of the derivative of the function contributions from the single hidden neurons.
See plot_Deriv.svg for the comparison with the true values of the derivative at selected points.
