0.001	0.999999833333342
0.101	0.998300700292752
0.201	0.993280088929855
0.301	0.984968090468942
0.401	0.973414484887751
0.501	0.958688385842476
0.601	0.940877748005284
0.701	0.920088740640064
0.801	0.896444992278073
0.901	0.870086712351532
1.001	0.841169696591665
1.101	0.809864223890662
1.201	0.776353853157207
1.301	0.740834129455943
1.401	0.703511209406287
1.501	0.66460041642004
1.601	0.624324736875272
1.701	0.582913268752077
1.801	0.540599634590557
1.901	0.497620370870293
2.001	0.454213306051882
2.101	0.410615939563906
2.201	0.367063833962857
2.301	0.323789032339813
2.401	0.281018512797562
2.501	0.238972691477763
2.601	0.197863985182716
2.701	0.157895444114242
2.801	0.119259464647701
2.901	0.082136591377457
3.001	0.0466944169171162
3.101	0.0130865871200286
3.201	-0.0185480814901358
3.301	-0.0480863662150071
3.401	-0.0754212797082444
3.501	-0.100462584641313
3.601	-0.123137178645244
3.701	-0.143389347711647
3.801	-0.161180887291209
3.901	-0.176491091382757
4.001	-0.189316610951921
4.101	-0.199671184046969
4.201	-0.207585240981997
4.301	-0.213105388926251
4.401	-0.216293781165025
4.501	-0.217227377174934
4.601	-0.215997100477341
4.701	-0.212706901991898
4.801	-0.207472737301546
4.901	-0.200421466855689


0	0.940021811199548
0.01	0.942536672752527
0.02	0.944949265555625
0.03	0.947260351177195
0.04	0.949470711666315
0.05	0.951581148990075
0.06	0.953592484459477
0.07	0.955505558144337
0.08	0.957321228277623
0.09	0.95904037064966
0.1	0.960663877992664
0.11	0.962192659356037
0.12	0.963627639472938
0.13	0.964969758118574
0.14	0.966219969460744
0.15	0.967379241403117
0.16	0.968448554921789
0.17	0.969428903395623
0.18	0.970321291930938
0.19	0.971126736681072
0.2	0.971846264161405
0.21	0.972480910560383
0.22	0.973031721047136
0.23	0.97349974907627
0.24	0.973886055690418
0.25	0.974191708821147
0.26	0.97441778258884
0.27	0.974565356602131
0.28	0.974635515257538
0.29	0.974629347039879
0.3	0.974547943824128
0.31	0.974392400179291
0.32	0.974163812674968
0.33	0.973863279191196
0.34	0.973491898232215
0.35	0.973050768244789
0.36	0.972540986941686
0.37	0.97196365063097
0.38	0.971319853551707
0.39	0.970610687216705
0.4	0.969837239762923
0.41	0.969000595310134
0.42	0.968101833328463
0.43	0.967142028015401
0.44	0.966122247682877
0.45	0.965043554154986
0.46	0.963907002176933
0.47	0.96271363883578
0.48	0.961464502993538
0.49	0.960160624733154
0.5	0.958803024817935
0.51	0.957392714164918
0.52	0.955930693332707
0.53	0.954417952024271
0.54	0.952855468605169
0.55	0.951244209637687
0.56	0.949585129431324
0.57	0.947879169610059
0.58	0.946127258696816
0.59	0.944330311715523
0.6	0.942489229811131
0.61	0.940604899887974
0.62	0.938678194266773
0.63	0.936709970360628
0.64	0.934701070370277
0.65	0.932652320998893
0.66	0.930564533186677
0.67	0.928438501865459
0.68	0.926275005733516
0.69	0.924074807050788
0.7	0.921838651454634
0.71	0.919567267796257
0.72	0.917261367997909
0.73	0.914921646930936
0.74	0.912548782314723
0.75	0.91014343463656
0.76	0.907706247092416
0.77	0.905237845548604
0.78	0.902738838524259
0.79	0.900209817194567
0.8	0.897651355414606
0.81	0.895064009763671
0.820000000000001	0.892448319609927
0.830000000000001	0.889804807195157
0.840000000000001	0.887133977739424
0.850000000000001	0.884436319565368
0.860000000000001	0.881712304241868
0.870000000000001	0.878962386746768
0.880000000000001	0.876187005648328
0.890000000000001	0.873386583305052
0.900000000000001	0.8705615260835
0.910000000000001	0.867712224593679
0.920000000000001	0.864839053941577
0.930000000000001	0.861942373998386
0.940000000000001	0.85902252968592
0.950000000000001	0.856079851277732
0.960000000000001	0.853114654715396
0.970000000000001	0.850127241939402
0.980000000000001	0.847117901234087
0.990000000000001	0.844086907586022
1	0.841034523055214
1.01	0.837960997158525
1.02	0.834866567264627
1.03	0.831751458999838
1.04	0.828615886664153
1.05	0.825460053656771
1.06	0.822284152910393
1.07	0.81908836733359
1.08	0.815872870260461
1.09	0.81263782590687
1.1	0.809383389832482
1.11	0.806109709407827
1.12	0.80281692428563
1.13	0.799505166875611
1.14	0.796174562821982
1.15	0.792825231482838
1.16	0.789457286410657
1.17	0.786070835833124
1.18	0.782665983133466
1.19	0.779242827329535
1.2	0.775801463550824
1.21	0.772341983512665
1.22	0.768864475986802
1.23	0.765369027267595
1.24	0.761855721633087
1.25	0.758324641800178
1.26	0.754775869373183
1.27	0.75120948528504
1.28	0.747625570230463
1.29	0.744024205090337
1.3	0.740405471346695
1.31	0.736769451487596
1.32	0.733116229401294
1.33	0.729445890759044
1.34	0.72575852338598
1.35	0.722054217619478
1.36	0.718333066654453
1.37	0.714595166875078
1.38	0.710840618172413
1.39	0.707069524247493
1.4	0.703281992899422
1.41	0.699478136298059
1.42	0.695658071240936
1.43	0.691821919394032
1.44	0.687969807516104
1.45	0.684101867666282
1.46	0.680218237394681
1.47	0.676319059915806
1.48	0.672404484264575
1.49	0.668474665434802
1.5	0.664529764500034
1.51	0.660569948716656
1.52	0.656595391609232
1.53	0.652606273038072
1.54	0.648602779249038
1.55	0.644585102905689
1.56	0.640553443103826
1.57	0.636508005368614
1.58	0.63244900163441
1.59	0.628376650207554
1.6	0.62429117571232
1.61	0.620192809020336
1.62	0.616081787163763
1.63	0.611958353232601
1.64	0.607822756256473
1.65	0.603675251071307
1.66	0.599516098171371
1.67	0.595345563547105
1.68	0.591163918509267
1.69	0.586971439499917
1.7	0.582768407890792
1.71	0.578555109769652
1.72	0.574331835715212
1.73	0.570098880561271
1.74	0.565856543150708
1.75	0.561605126080005
1.76	0.557344935434993
1.77	0.553076280518528
1.78	0.548799473570818
1.79	0.544514829483151
1.8	0.540222665505766
1.81	0.535923300950632
1.82	0.531617056889913
1.83	0.527304255850897
1.84	0.522985221508169
1.85	0.518660278373837
1.86	0.514329751486579
1.87	0.509993966100329
1.88	0.505653247373377
1.89	0.501307920058682
1.9	0.496958308196177
1.91	0.492604734807855
1.92	0.488247521596381
1.93	0.48388698864802
1.94	0.4795234541406
1.95	0.475157234057259
1.96	0.47078864190669
1.97	0.466417988450571
1.98	0.462045581438879
1.99	0.457671725353737
2	0.453296721162425
2.01	0.448920866080182
2.02	0.444544453343371
2.03	0.440167771993584
2.04	0.435791106673205
2.05	0.431414737432935
2.06	0.427038939551764
2.07	0.422663983369815
2.08	0.418290134134464
2.09	0.413917651860129
2.1	0.409546791202044
2.11	0.40517780134432
2.12	0.400810925902578
2.13	0.396446402841348
2.14	0.392084464406458
2.15	0.387725337072532
2.16	0.383369241505721
2.17	0.379016392541747
2.18	0.374666999179274
2.19	0.370321264588608
2.2	0.36597938613568
2.21	0.361641555421215
2.22	0.357307958334972
2.23	0.352978775124882
2.24	0.348654180480871
2.25	0.344334343633148
2.26	0.34001942846465
2.27	0.335709593637338
2.28	0.331404992731998
2.29	0.327105774401133
2.29999999999999	0.322812082534549
2.30999999999999	0.318524056437151
2.31999999999999	0.314241831018476
2.32999999999999	0.309965536993434
2.33999999999999	0.305695301093708
2.34999999999999	0.301431246289223
2.35999999999999	0.297173492019094
2.36999999999999	0.292922154431404
2.37999999999999	0.28867734663117
2.38999999999999	0.284439178935797
2.39999999999999	0.280207759137355
2.40999999999999	0.275983192770917
2.41999999999999	0.271765583388268
2.42999999999999	0.267555032836202
2.43999999999999	0.263351641538667
2.44999999999999	0.259155508781964
2.45999999999999	0.254966733002242
2.46999999999999	0.250785412074476
2.47999999999999	0.246611643602152
2.48999999999999	0.242445525206856
2.49999999999999	0.238287154816962
2.50999999999999	0.234136630954637
2.51999999999999	0.22999405302036
2.52999999999999	0.225859521574174
2.53999999999999	0.221733138612888
2.54999999999999	0.217615007842465
2.55999999999999	0.213505234944829
2.56999999999999	0.20940392783836
2.57999999999999	0.205311196931337
2.58999999999999	0.201227155367634
2.59999999999999	0.197151919263955
2.60999999999999	0.193085607937969
2.61999999999999	0.189028344126676
2.62999999999999	0.184980254194393
2.63999999999999	0.18094146832977
2.64999999999999	0.176912120731262
2.65999999999999	0.172892349780529
2.66999999999999	0.168882298203257
2.67999999999999	0.164882113216931
2.68999999999999	0.160891946665123
2.69999999999999	0.156911955137884
2.70999999999999	0.152942300077895
2.71999999999999	0.148983147872027
2.72999999999999	0.145034669928034
2.73999999999999	0.141097042736125
2.74999999999999	0.1371704479152
2.75999999999999	0.133255072243582
2.76999999999998	0.129351107674126
2.77999999999998	0.125458751333592
2.78999999999998	0.121578205506262
2.79999999999998	0.117709677601779
2.80999999999998	0.113853380107245
2.81999999999998	0.110009530523672
2.82999999999998	0.106178351286884
2.83999999999998	0.10236006967304
2.84999999999998	0.0985549176889909
2.85999999999998	0.0947631319476915
2.86999999999998	0.0909849535289632
2.87999999999998	0.0872206278259229
2.88999999999998	0.0834704043774361
2.89999999999998	0.0797345366869919
2.90999999999998	0.0760132820284297
2.91999999999998	0.0723069012389793
2.92999999999998	0.0686156585001241
2.93999999999998	0.0649398211068099
2.94999999999998	0.0612796592255686
2.95999999999998	0.0576354456421432
2.96999999999998	0.0540074554992391
2.97999999999998	0.0503959660250468
2.98999999999998	0.046801256253201
2.99999999999998	0.0432236067348759
3.00999999999998	0.0396632992437286
3.01999999999998	0.0361206164744142
3.02999999999998	0.0325958417354375
3.03999999999998	0.0290892586370876
3.04999999999998	0.0256011507752424
3.05999999999998	0.0221318014118274
3.06999999999998	0.0186814931527226
3.07999999999998	0.0152505076239149
3.08999999999998	0.0118391251467128
3.09999999999998	0.0084476244128161
3.10999999999998	0.00507628216005929
3.11999999999998	0.00172537284962504
3.12999999999998	-0.00160483165446734
3.13999999999998	-0.00491406240280601
3.14999999999998	-0.00820205367418425
3.15999999999998	-0.0114685432845724
3.16999999999998	-0.0147132728907065
3.17999999999998	-0.0179359882875517
3.18999999999998	-0.021136439698906
3.19999999999998	-0.0243143820604464
3.20999999999998	-0.0274695752945188
3.21999999999998	-0.0306017845760151
3.22999999999998	-0.0337107805886951
3.23999999999997	-0.0367963397713365
3.24999999999997	-0.039858244553133
3.25999999999997	-0.0428962835777833
3.26999999999997	-0.0459102519157346
3.27999999999997	-0.048899951264111
3.28999999999997	-0.0518651901338385
3.29999999999997	-0.0548057840235684
3.30999999999997	-0.0577215555799909
3.31999999999997	-0.0606123347441995
3.32999999999997	-0.0634779588837818
3.33999999999997	-0.0663182729103715
3.34999999999997	-0.0691331293824161
3.35999999999997	-0.0719223885929653
3.36999999999997	-0.0746859186423291
3.37999999999997	-0.0774235954954799
3.38999999999997	-0.0801353030241315
3.39999999999997	-0.0828209330334522
3.40999999999997	-0.0854803852734242
3.41999999999997	-0.0881135674348936
3.42999999999997	-0.0907203951303951
3.43999999999997	-0.0933007918598822
3.44999999999997	-0.0958546889615273
3.45999999999997	-0.0983820255477981
3.46999999999997	-0.100882748427051
3.47999999999997	-0.103356812010928
3.48999999999997	-0.10580417820787
3.49999999999997	-0.108224816303103
3.50999999999997	-0.110618702825484
3.51999999999997	-0.112985821401628
3.52999999999997	-0.115326162597775
3.53999999999997	-0.117639723749863
3.54999999999997	-0.119926508782353
3.55999999999997	-0.122186528016308
3.56999999999997	-0.124419797967335
3.57999999999997	-0.12662634113394
3.58999999999997	-0.128806185776946
3.59999999999997	-0.130959365690592
3.60999999999997	-0.133085919965967
3.61999999999997	-0.135185892747464
3.62999999999997	-0.137259332982926
3.63999999999997	-0.139306294168195
3.64999999999997	-0.141326834086781
3.65999999999997	-0.143321014545351
3.66999999999997	-0.145288901105797
3.67999999999997	-0.147230562814593
3.68999999999997	-0.149146071930192
3.69999999999997	-0.151035503649194
3.70999999999996	-0.152898935832033
3.71999999999996	-0.1547364487289
3.72999999999996	-0.156548124706653
3.73999999999996	-0.158334047977423
3.74999999999996	-0.160094304329628
3.75999999999996	-0.161828980862112
3.76999999999996	-0.163538165722076
3.77999999999996	-0.165221947847506
3.78999999999996	-0.166880416714722
3.79999999999996	-0.168513662091716
3.80999999999996	-0.170121773797886
3.81999999999996	-0.17170484147076
3.82999999999996	-0.173262954340299
3.83999999999996	-0.174796201011311
3.84999999999996	-0.176304669254518
3.85999999999996	-0.177788445806749
3.86999999999996	-0.179247616180752
3.87999999999996	-0.180682264485041
3.88999999999996	-0.182092473254189
3.89999999999996	-0.183478323289945
3.90999999999996	-0.184839893513514
3.91999999999996	-0.186177260829294
3.92999999999996	-0.187490500000363
3.93999999999996	-0.188779683535925
3.94999999999996	-0.190044881590941
3.95999999999996	-0.191286161878091
3.96999999999996	-0.192503589592202
3.97999999999996	-0.19369722734723
3.98999999999996	-0.194867135125845
3.99999999999996	-0.196013370241649
4.00999999999996	-0.197135987313991
4.01999999999996	-0.198235038255329
4.02999999999996	-0.19931057227105
4.03999999999996	-0.200362635871609
4.04999999999996	-0.201391272896834
4.05999999999996	-0.202396524552186
4.06999999999996	-0.203378429456747
4.07999999999996	-0.204337023702673
4.08999999999996	-0.205272340925805
4.09999999999996	-0.206184412387109
4.10999999999996	-0.20707326706459
4.11999999999996	-0.20793893175528
4.12999999999996	-0.208781431186892
4.13999999999996	-0.209600788138685
4.14999999999996	-0.210397023571076
4.15999999999996	-0.211170156763499
4.16999999999996	-0.21192020546
4.17999999999996	-0.212647186022017
4.18999999999996	-0.213351113587808
4.19999999999995	-0.214032002237923
4.20999999999995	-0.214689865166152
4.21999999999995	-0.215324714855328
4.22999999999995	-0.215936563257376
4.23999999999995	-0.216525421976956
4.24999999999995	-0.217091302458094
4.25999999999995	-0.217634216173116
4.26999999999995	-0.218154174813264
4.27999999999995	-0.21865119048031
4.28999999999995	-0.219125275878529
4.29999999999995	-0.219576444506365
4.30999999999995	-0.220004710847124
4.31999999999995	-0.220410090558051
4.32999999999995	-0.220792600657139
4.33999999999995	-0.221152259707021
4.34999999999995	-0.221489087995325
4.35999999999995	-0.221803107710849
4.36999999999995	-0.222094343114964
4.37999999999995	-0.222362820707642
4.38999999999995	-0.222608569387512
4.39999999999995	-0.222831620605405
4.40999999999995	-0.22303200851082
4.41999999999995	-0.223209770090787
4.42999999999995	-0.223364945300629
4.43999999999995	-0.223497577186132
4.44999999999995	-0.22360771199666
4.45999999999995	-0.22369539928879
4.46999999999995	-0.223760692020043
4.47999999999995	-0.223803646632341
4.48999999999995	-0.223824323124824
4.49999999999995	-0.223822785115711
4.50999999999995	-0.223799099892898
4.51999999999995	-0.223753338453034
4.52999999999995	-0.223685575528836
4.53999999999995	-0.223595889604436
4.54999999999995	-0.223484362918598
4.55999999999995	-0.223351081455649
4.56999999999995	-0.223196134924031
4.57999999999995	-0.223019616722389
4.58999999999995	-0.22282162389316
4.59999999999995	-0.222602257063648
4.60999999999995	-0.222361620374616
4.61999999999995	-0.222099821396445
4.62999999999995	-0.22181697103295
4.63999999999995	-0.221513183412984
4.64999999999995	-0.221188575769966
4.65999999999995	-0.220843268309533
4.66999999999994	-0.220477384065527
4.67999999999994	-0.220091048744562
4.68999999999994	-0.219684390559444
4.69999999999994	-0.219257540051757
4.70999999999994	-0.218810629903939
4.71999999999994	-0.218343794741212
4.72999999999994	-0.217857170923753
4.73999999999994	-0.21735089632952
4.74999999999994	-0.216825110128154
4.75999999999994	-0.216279952546439
4.76999999999994	-0.215715564625783
4.77999999999994	-0.215132087972228
4.78999999999994	-0.214529664499507
4.79999999999994	-0.213908436165698
4.80999999999994	-0.213268544704011
4.81999999999994	-0.212610131348302
4.82999999999994	-0.211933336553883
4.83999999999994	-0.211238299714236
4.84999999999994	-0.210525158874236
4.85999999999994	-0.209794050440507
4.86999999999994	-0.209045108889536
4.87999999999994	-0.208278466474179
4.88999999999994	-0.207494252929205
4.89999999999994	-0.206692595176516
4.90999999999994	-0.205873617030695
4.91999999999994	-0.205037438905524
4.92999999999994	-0.204184177522132
4.93999999999994	-0.203313945619399
4.94999999999994	-0.202426851667275
4.95999999999994	-0.201522999583644
4.96999999999994	-0.20060248845537
4.97999999999994	-0.199665412264134
4.98999999999994	-0.198711859617698
4.99999999999994	-0.197741913487178
