<?xml version="1.0" encoding="utf-8"  standalone="no"?>
<svg 
 width="600" height="480"
 viewBox="0 0 600 480"
 xmlns="http://www.w3.org/2000/svg"
 xmlns:xlink="http://www.w3.org/1999/xlink"
>

<title>Gnuplot</title>
<desc>Produced by GNUPLOT 5.2 patchlevel 8 </desc>

<g id="gnuplot_canvas">

<rect x="0" y="0" width="600" height="480" fill="none"/>
<defs>

	<circle id='gpDot' r='0.5' stroke-width='0.5' stroke='currentColor'/>
	<path id='gpPt0' stroke-width='0.222' stroke='currentColor' d='M-1,0 h2 M0,-1 v2'/>
	<path id='gpPt1' stroke-width='0.222' stroke='currentColor' d='M-1,-1 L1,1 M1,-1 L-1,1'/>
	<path id='gpPt2' stroke-width='0.222' stroke='currentColor' d='M-1,0 L1,0 M0,-1 L0,1 M-1,-1 L1,1 M-1,1 L1,-1'/>
	<rect id='gpPt3' stroke-width='0.222' stroke='currentColor' x='-1' y='-1' width='2' height='2'/>
	<rect id='gpPt4' stroke-width='0.222' stroke='currentColor' fill='currentColor' x='-1' y='-1' width='2' height='2'/>
	<circle id='gpPt5' stroke-width='0.222' stroke='currentColor' cx='0' cy='0' r='1'/>
	<use xlink:href='#gpPt5' id='gpPt6' fill='currentColor' stroke='none'/>
	<path id='gpPt7' stroke-width='0.222' stroke='currentColor' d='M0,-1.33 L-1.33,0.67 L1.33,0.67 z'/>
	<use xlink:href='#gpPt7' id='gpPt8' fill='currentColor' stroke='none'/>
	<use xlink:href='#gpPt7' id='gpPt9' stroke='currentColor' transform='rotate(180)'/>
	<use xlink:href='#gpPt9' id='gpPt10' fill='currentColor' stroke='none'/>
	<use xlink:href='#gpPt3' id='gpPt11' stroke='currentColor' transform='rotate(45)'/>
	<use xlink:href='#gpPt11' id='gpPt12' fill='currentColor' stroke='none'/>
	<path id='gpPt13' stroke-width='0.222' stroke='currentColor' d='M0,1.330 L1.265,0.411 L0.782,-1.067 L-0.782,-1.076 L-1.265,0.411 z'/>
	<use xlink:href='#gpPt13' id='gpPt14' fill='currentColor' stroke='none'/>
	<filter id='textbox' filterUnits='objectBoundingBox' x='0' y='0' height='1' width='1'>
	  <feFlood flood-color='white' flood-opacity='1' result='bgnd'/>
	  <feComposite in='SourceGraphic' in2='bgnd' operator='atop'/>
	</filter>
	<filter id='greybox' filterUnits='objectBoundingBox' x='0' y='0' height='1' width='1'>
	  <feFlood flood-color='lightgrey' flood-opacity='1' result='grey'/>
	  <feComposite in='SourceGraphic' in2='grey' operator='atop'/>
	</filter>
</defs>
<g fill="none" color="white" stroke="currentColor" stroke-width="1.00" stroke-linecap="butt" stroke-linejoin="miter">
</g>
<g fill="none" color="black" stroke="currentColor" stroke-width="1.00" stroke-linecap="butt" stroke-linejoin="miter">
	<path stroke='black'  d='M89.2,413.4 L80.2,413.4 M566.0,413.4 L575.0,413.4  '/>	<g transform="translate(71.9,417.3)" stroke="none" fill="black" font-family="Arial" font-size="12.00"  text-anchor="end">
		<text><tspan font-family="Arial" > 0</tspan></text>
	</g>
</g>
<g fill="none" color="black" stroke="currentColor" stroke-width="1.00" stroke-linecap="butt" stroke-linejoin="miter">
	<path stroke='black'  d='M89.2,377.5 L80.2,377.5 M566.0,377.5 L575.0,377.5  '/>	<g transform="translate(71.9,381.4)" stroke="none" fill="black" font-family="Arial" font-size="12.00"  text-anchor="end">
		<text><tspan font-family="Arial" > 0.02</tspan></text>
	</g>
</g>
<g fill="none" color="black" stroke="currentColor" stroke-width="1.00" stroke-linecap="butt" stroke-linejoin="miter">
	<path stroke='black'  d='M89.2,341.5 L80.2,341.5 M566.0,341.5 L575.0,341.5  '/>	<g transform="translate(71.9,345.4)" stroke="none" fill="black" font-family="Arial" font-size="12.00"  text-anchor="end">
		<text><tspan font-family="Arial" > 0.04</tspan></text>
	</g>
</g>
<g fill="none" color="black" stroke="currentColor" stroke-width="1.00" stroke-linecap="butt" stroke-linejoin="miter">
	<path stroke='black'  d='M89.2,305.6 L80.2,305.6 M566.0,305.6 L575.0,305.6  '/>	<g transform="translate(71.9,309.5)" stroke="none" fill="black" font-family="Arial" font-size="12.00"  text-anchor="end">
		<text><tspan font-family="Arial" > 0.06</tspan></text>
	</g>
</g>
<g fill="none" color="black" stroke="currentColor" stroke-width="1.00" stroke-linecap="butt" stroke-linejoin="miter">
	<path stroke='black'  d='M89.2,269.7 L80.2,269.7 M566.0,269.7 L575.0,269.7  '/>	<g transform="translate(71.9,273.6)" stroke="none" fill="black" font-family="Arial" font-size="12.00"  text-anchor="end">
		<text><tspan font-family="Arial" > 0.08</tspan></text>
	</g>
</g>
<g fill="none" color="black" stroke="currentColor" stroke-width="1.00" stroke-linecap="butt" stroke-linejoin="miter">
	<path stroke='black'  d='M89.2,233.7 L80.2,233.7 M566.0,233.7 L575.0,233.7  '/>	<g transform="translate(71.9,237.6)" stroke="none" fill="black" font-family="Arial" font-size="12.00"  text-anchor="end">
		<text><tspan font-family="Arial" > 0.1</tspan></text>
	</g>
</g>
<g fill="none" color="black" stroke="currentColor" stroke-width="1.00" stroke-linecap="butt" stroke-linejoin="miter">
	<path stroke='black'  d='M89.2,197.8 L80.2,197.8 M566.0,197.8 L575.0,197.8  '/>	<g transform="translate(71.9,201.7)" stroke="none" fill="black" font-family="Arial" font-size="12.00"  text-anchor="end">
		<text><tspan font-family="Arial" > 0.12</tspan></text>
	</g>
</g>
<g fill="none" color="black" stroke="currentColor" stroke-width="1.00" stroke-linecap="butt" stroke-linejoin="miter">
	<path stroke='black'  d='M89.2,161.9 L80.2,161.9 M566.0,161.9 L575.0,161.9  '/>	<g transform="translate(71.9,165.8)" stroke="none" fill="black" font-family="Arial" font-size="12.00"  text-anchor="end">
		<text><tspan font-family="Arial" > 0.14</tspan></text>
	</g>
</g>
<g fill="none" color="black" stroke="currentColor" stroke-width="1.00" stroke-linecap="butt" stroke-linejoin="miter">
	<path stroke='black'  d='M89.2,126.0 L80.2,126.0 M566.0,126.0 L575.0,126.0  '/>	<g transform="translate(71.9,129.9)" stroke="none" fill="black" font-family="Arial" font-size="12.00"  text-anchor="end">
		<text><tspan font-family="Arial" > 0.16</tspan></text>
	</g>
</g>
<g fill="none" color="black" stroke="currentColor" stroke-width="1.00" stroke-linecap="butt" stroke-linejoin="miter">
	<path stroke='black'  d='M89.2,90.0 L80.2,90.0 M566.0,90.0 L575.0,90.0  '/>	<g transform="translate(71.9,93.9)" stroke="none" fill="black" font-family="Arial" font-size="12.00"  text-anchor="end">
		<text><tspan font-family="Arial" > 0.18</tspan></text>
	</g>
</g>
<g fill="none" color="black" stroke="currentColor" stroke-width="1.00" stroke-linecap="butt" stroke-linejoin="miter">
	<path stroke='black'  d='M89.2,54.1 L80.2,54.1 M566.0,54.1 L575.0,54.1  '/>	<g transform="translate(71.9,58.0)" stroke="none" fill="black" font-family="Arial" font-size="12.00"  text-anchor="end">
		<text><tspan font-family="Arial" > 0.2</tspan></text>
	</g>
</g>
<g fill="none" color="black" stroke="currentColor" stroke-width="1.00" stroke-linecap="butt" stroke-linejoin="miter">
	<path stroke='black'  d='M89.2,413.4 L89.2,422.4 M89.2,54.1 L89.2,45.1  '/>	<g transform="translate(89.2,444.3)" stroke="none" fill="black" font-family="Arial" font-size="12.00"  text-anchor="middle">
		<text><tspan font-family="Arial" >-1</tspan></text>
	</g>
</g>
<g fill="none" color="black" stroke="currentColor" stroke-width="1.00" stroke-linecap="butt" stroke-linejoin="miter">
	<path stroke='black'  d='M208.4,413.4 L208.4,422.4 M208.4,54.1 L208.4,45.1  '/>	<g transform="translate(208.4,444.3)" stroke="none" fill="black" font-family="Arial" font-size="12.00"  text-anchor="middle">
		<text><tspan font-family="Arial" >-0.5</tspan></text>
	</g>
</g>
<g fill="none" color="black" stroke="currentColor" stroke-width="1.00" stroke-linecap="butt" stroke-linejoin="miter">
	<path stroke='black'  d='M327.6,413.4 L327.6,422.4 M327.6,54.1 L327.6,45.1  '/>	<g transform="translate(327.6,444.3)" stroke="none" fill="black" font-family="Arial" font-size="12.00"  text-anchor="middle">
		<text><tspan font-family="Arial" > 0</tspan></text>
	</g>
</g>
<g fill="none" color="black" stroke="currentColor" stroke-width="1.00" stroke-linecap="butt" stroke-linejoin="miter">
	<path stroke='black'  d='M446.8,413.4 L446.8,422.4 M446.8,54.1 L446.8,45.1  '/>	<g transform="translate(446.8,444.3)" stroke="none" fill="black" font-family="Arial" font-size="12.00"  text-anchor="middle">
		<text><tspan font-family="Arial" > 0.5</tspan></text>
	</g>
</g>
<g fill="none" color="black" stroke="currentColor" stroke-width="1.00" stroke-linecap="butt" stroke-linejoin="miter">
	<path stroke='black'  d='M566.0,413.4 L566.0,422.4 M566.0,54.1 L566.0,45.1  '/>	<g transform="translate(566.0,444.3)" stroke="none" fill="black" font-family="Arial" font-size="12.00"  text-anchor="middle">
		<text><tspan font-family="Arial" > 1</tspan></text>
	</g>
</g>
<g fill="none" color="black" stroke="currentColor" stroke-width="1.00" stroke-linecap="butt" stroke-linejoin="miter">
</g>
<g fill="none" color="black" stroke="currentColor" stroke-width="1.00" stroke-linecap="butt" stroke-linejoin="miter">
	<path stroke='black'  d='M89.2,54.1 L89.2,413.4 L566.0,413.4 L566.0,54.1 L89.2,54.1 Z  '/></g>
<g fill="none" color="black" stroke="currentColor" stroke-width="1.00" stroke-linecap="butt" stroke-linejoin="miter">
	<g transform="translate(19.0,233.8) rotate(270)" stroke="none" fill="black" font-family="Arial" font-size="12.00"  text-anchor="middle">
		<text><tspan font-family="Arial" >y</tspan></text>
	</g>
</g>
<g fill="none" color="black" stroke="currentColor" stroke-width="1.00" stroke-linecap="butt" stroke-linejoin="miter">
	<g transform="translate(327.6,471.3)" stroke="none" fill="black" font-family="Arial" font-size="12.00"  text-anchor="middle">
		<text><tspan font-family="Arial" >x</tspan></text>
	</g>
</g>
<g fill="none" color="black" stroke="currentColor" stroke-width="1.00" stroke-linecap="butt" stroke-linejoin="miter">
	<g transform="translate(327.6,31.0)" stroke="none" fill="black" font-family="Arial" font-size="12.00"  text-anchor="middle">
		<text><tspan font-family="Arial" >The antiderivative of x*Cos(4*x)*Exp(-x*x)</tspan></text>
	</g>
</g>
<g fill="none" color="black" stroke="currentColor" stroke-width="1.00" stroke-linecap="butt" stroke-linejoin="miter">
</g>
	<g id="gnuplot_plot_1" ><title>Fit-GaussWavelet</title>
<g fill="none" color="black" stroke="currentColor" stroke-width="1.00" stroke-linecap="butt" stroke-linejoin="miter">
	<g transform="translate(498.9,76.0)" stroke="none" fill="black" font-family="Arial" font-size="12.00"  text-anchor="end">
		<text><tspan font-family="Arial" >Fit-GaussWavelet</tspan></text>
	</g>
</g>
<g fill="none" color="black" stroke="currentColor" stroke-width="1.00" stroke-linecap="butt" stroke-linejoin="miter">
	<path stroke='rgb(148,   0, 211)'  d='M507.2,72.1 L549.4,72.1 M89.2,413.4 L91.6,409.0 L94.0,404.3 L96.4,399.4 L98.7,394.2 L101.1,388.8
		L103.5,383.2 L105.9,377.4 L108.3,371.3 L110.7,365.1 L113.0,358.7 L115.4,352.1 L117.8,345.4 L120.2,338.5
		L122.6,331.4 L125.0,324.3 L127.3,317.0 L129.7,309.7 L132.1,302.2 L134.5,294.7 L136.9,287.2 L139.3,279.6
		L141.6,272.0 L144.0,264.3 L146.4,256.7 L148.8,249.1 L151.2,241.6 L153.6,234.1 L156.0,226.6 L158.3,219.2
		L160.7,212.0 L163.1,204.8 L165.5,197.7 L167.9,190.8 L170.3,184.1 L172.6,177.5 L175.0,171.0 L177.4,164.8
		L179.8,158.7 L182.2,152.9 L184.6,147.2 L186.9,141.8 L189.3,136.7 L191.7,131.7 L194.1,127.1 L196.5,122.6
		L198.9,118.5 L201.2,114.6 L203.6,111.0 L206.0,107.6 L208.4,104.6 L210.8,101.8 L213.2,99.3 L215.6,97.1
		L217.9,95.1 L220.3,93.4 L222.7,92.1 L225.1,90.9 L227.5,90.1 L229.9,89.5 L232.2,89.2 L234.6,89.1
		L237.0,89.2 L239.4,89.6 L241.8,90.2 L244.2,91.0 L246.5,92.1 L248.9,93.3 L251.3,94.7 L253.7,96.2
		L256.1,97.9 L258.5,99.7 L260.8,101.7 L263.2,103.8 L265.6,106.0 L268.0,108.2 L270.4,110.5 L272.8,112.9
		L275.2,115.3 L277.5,117.7 L279.9,120.2 L282.3,122.6 L284.7,125.0 L287.1,127.3 L289.5,129.6 L291.8,131.9
		L294.2,134.0 L296.6,136.1 L299.0,138.1 L301.4,139.9 L303.8,141.6 L306.1,143.2 L308.5,144.7 L310.9,146.0
		L313.3,147.1 L315.7,148.1 L318.1,148.9 L320.4,149.6 L322.8,150.0 L325.2,150.3 L327.6,150.4 L330.0,150.3
		L332.4,150.0 L334.8,149.5 L337.1,148.9 L339.5,148.1 L341.9,147.1 L344.3,146.0 L346.7,144.7 L349.1,143.2
		L351.4,141.6 L353.8,139.9 L356.2,138.1 L358.6,136.1 L361.0,134.0 L363.4,131.9 L365.7,129.6 L368.1,127.3
		L370.5,124.9 L372.9,122.6 L375.3,120.1 L377.7,117.7 L380.0,115.3 L382.4,112.9 L384.8,110.5 L387.2,108.2
		L389.6,105.9 L392.0,103.8 L394.4,101.7 L396.7,99.7 L399.1,97.9 L401.5,96.2 L403.9,94.6 L406.3,93.3
		L408.7,92.0 L411.0,91.0 L413.4,90.2 L415.8,89.6 L418.2,89.2 L420.6,89.1 L423.0,89.2 L425.3,89.5
		L427.7,90.1 L430.1,90.9 L432.5,92.1 L434.9,93.4 L437.3,95.1 L439.6,97.1 L442.0,99.3 L444.4,101.8
		L446.8,104.6 L449.2,107.6 L451.6,111.0 L454.0,114.6 L456.3,118.5 L458.7,122.6 L461.1,127.1 L463.5,131.7
		L465.9,136.7 L468.3,141.8 L470.6,147.2 L473.0,152.9 L475.4,158.7 L477.8,164.8 L480.2,171.0 L482.6,177.5
		L484.9,184.1 L487.3,190.8 L489.7,197.7 L492.1,204.8 L494.5,211.9 L496.9,219.2 L499.2,226.6 L501.6,234.0
		L504.0,241.5 L506.4,249.1 L508.8,256.7 L511.2,264.3 L513.6,271.9 L515.9,279.5 L518.3,287.1 L520.7,294.7
		L523.1,302.2 L525.5,309.6 L527.9,317.0 L530.2,324.2 L532.6,331.4 L535.0,338.4 L537.4,345.3 L539.8,352.1
		L542.2,358.7 L544.5,365.1 L546.9,371.3 L549.3,377.4 L551.7,383.2 L554.1,388.8 L556.5,394.2 L558.8,399.4
		L561.2,404.3 L563.6,409.0  '/></g>
	</g>
	<g id="gnuplot_plot_2" ><title>Fit-Wavelet</title>
<g fill="none" color="black" stroke="currentColor" stroke-width="1.00" stroke-linecap="butt" stroke-linejoin="miter">
	<g transform="translate(498.9,94.0)" stroke="none" fill="black" font-family="Arial" font-size="12.00"  text-anchor="end">
		<text><tspan font-family="Arial" >Fit-Wavelet</tspan></text>
	</g>
</g>
<g fill="none" color="black" stroke="currentColor" stroke-width="1.00" stroke-linecap="butt" stroke-linejoin="miter">
	<path stroke='rgb(  0, 158, 115)'  d='M507.2,90.1 L549.4,90.1 M89.2,413.4 L91.6,408.9 L94.0,404.3 L96.4,399.3 L98.7,394.2 L101.1,388.9
		L103.5,383.3 L105.9,377.5 L108.3,371.6 L110.7,365.4 L113.0,359.1 L115.4,352.6 L117.8,346.0 L120.2,339.1
		L122.6,332.2 L125.0,325.1 L127.3,317.9 L129.7,310.6 L132.1,303.2 L134.5,295.7 L136.9,288.2 L139.3,280.6
		L141.6,273.0 L144.0,265.4 L146.4,257.7 L148.8,250.1 L151.2,242.5 L153.6,235.0 L156.0,227.5 L158.3,220.1
		L160.7,212.7 L163.1,205.5 L165.5,198.4 L167.9,191.4 L170.3,184.6 L172.6,177.9 L175.0,171.4 L177.4,165.1
		L179.8,159.0 L182.2,153.1 L184.6,147.4 L186.9,142.0 L189.3,136.8 L191.7,131.8 L194.1,127.1 L196.5,122.7
		L198.9,118.5 L201.2,114.6 L203.6,111.0 L206.0,107.7 L208.4,104.6 L210.8,101.9 L213.2,99.4 L215.6,97.2
		L217.9,95.3 L220.3,93.7 L222.7,92.3 L225.1,91.2 L227.5,90.4 L229.9,89.9 L232.2,89.6 L234.6,89.6
		L237.0,89.8 L239.4,90.2 L241.8,90.9 L244.2,91.7 L246.5,92.8 L248.9,94.0 L251.3,95.5 L253.7,97.0
		L256.1,98.8 L258.5,100.6 L260.8,102.6 L263.2,104.7 L265.6,106.9 L268.0,109.1 L270.4,111.4 L272.8,113.8
		L275.2,116.2 L277.5,118.6 L279.9,121.0 L282.3,123.4 L284.7,125.7 L287.1,128.1 L289.5,130.3 L291.8,132.5
		L294.2,134.7 L296.6,136.7 L299.0,138.6 L301.4,140.4 L303.8,142.1 L306.1,143.7 L308.5,145.1 L310.9,146.3
		L313.3,147.4 L315.7,148.4 L318.1,149.2 L320.4,149.8 L322.8,150.2 L325.2,150.5 L327.6,150.5 L330.0,150.4
		L332.4,150.2 L334.8,149.7 L337.1,149.1 L339.5,148.3 L341.9,147.3 L344.3,146.2 L346.7,144.9 L349.1,143.5
		L351.4,141.9 L353.8,140.2 L356.2,138.4 L358.6,136.4 L361.0,134.4 L363.4,132.3 L365.7,130.1 L368.1,127.8
		L370.5,125.5 L372.9,123.1 L375.3,120.8 L377.7,118.4 L380.0,116.0 L382.4,113.6 L384.8,111.3 L387.2,109.0
		L389.6,106.7 L392.0,104.6 L394.4,102.5 L396.7,100.6 L399.1,98.7 L401.5,97.0 L403.9,95.5 L406.3,94.1
		L408.7,92.8 L411.0,91.8 L413.4,91.0 L415.8,90.3 L418.2,89.9 L420.6,89.7 L423.0,89.8 L425.3,90.1
		L427.7,90.7 L430.1,91.5 L432.5,92.6 L434.9,93.9 L437.3,95.5 L439.6,97.5 L442.0,99.6 L444.4,102.1
		L446.8,104.9 L449.2,107.9 L451.6,111.2 L454.0,114.8 L456.3,118.7 L458.7,122.9 L461.1,127.3 L463.5,132.0
		L465.9,136.9 L468.3,142.1 L470.6,147.5 L473.0,153.1 L475.4,159.0 L477.8,165.1 L480.2,171.4 L482.6,177.8
		L484.9,184.5 L487.3,191.3 L489.7,198.2 L492.1,205.3 L494.5,212.5 L496.9,219.8 L499.2,227.2 L501.6,234.7
		L504.0,242.2 L506.4,249.8 L508.8,257.4 L511.2,265.1 L513.6,272.7 L515.9,280.3 L518.3,287.9 L520.7,295.5
		L523.1,303.0 L525.5,310.4 L527.9,317.8 L530.2,325.0 L532.6,332.1 L535.0,339.1 L537.4,346.0 L539.8,352.7
		L542.2,359.2 L544.5,365.6 L546.9,371.8 L549.3,377.8 L551.7,383.6 L554.1,389.1 L556.5,394.5 L558.8,399.6
		L561.2,404.5 L563.6,409.2  '/></g>
	</g>
	<g id="gnuplot_plot_3" ><title>True values</title>
<g fill="none" color="black" stroke="currentColor" stroke-width="1.00" stroke-linecap="butt" stroke-linejoin="miter">
	<g transform="translate(498.9,112.0)" stroke="none" fill="black" font-family="Arial" font-size="12.00"  text-anchor="end">
		<text><tspan font-family="Arial" >True values</tspan></text>
	</g>
</g>
<g fill="none" color="black" stroke="currentColor" stroke-width="1.00" stroke-linecap="butt" stroke-linejoin="miter">
	<use xlink:href='#gpPt2' transform='translate(113.0,359.0) scale(4.50)' color='rgb( 86, 180, 233)'/>
	<use xlink:href='#gpPt2' transform='translate(136.9,287.8) scale(4.50)' color='rgb( 86, 180, 233)'/>
	<use xlink:href='#gpPt2' transform='translate(160.7,212.4) scale(4.50)' color='rgb( 86, 180, 233)'/>
	<use xlink:href='#gpPt2' transform='translate(184.6,147.4) scale(4.50)' color='rgb( 86, 180, 233)'/>
	<use xlink:href='#gpPt2' transform='translate(208.4,104.6) scale(4.50)' color='rgb( 86, 180, 233)'/>
	<use xlink:href='#gpPt2' transform='translate(232.2,89.5) scale(4.50)' color='rgb( 86, 180, 233)'/>
	<use xlink:href='#gpPt2' transform='translate(256.1,98.5) scale(4.50)' color='rgb( 86, 180, 233)'/>
	<use xlink:href='#gpPt2' transform='translate(279.9,120.6) scale(4.50)' color='rgb( 86, 180, 233)'/>
	<use xlink:href='#gpPt2' transform='translate(303.8,141.9) scale(4.50)' color='rgb( 86, 180, 233)'/>
	<use xlink:href='#gpPt2' transform='translate(327.6,150.5) scale(4.50)' color='rgb( 86, 180, 233)'/>
	<use xlink:href='#gpPt2' transform='translate(351.4,141.9) scale(4.50)' color='rgb( 86, 180, 233)'/>
	<use xlink:href='#gpPt2' transform='translate(375.3,120.6) scale(4.50)' color='rgb( 86, 180, 233)'/>
	<use xlink:href='#gpPt2' transform='translate(399.1,98.5) scale(4.50)' color='rgb( 86, 180, 233)'/>
	<use xlink:href='#gpPt2' transform='translate(423.0,89.5) scale(4.50)' color='rgb( 86, 180, 233)'/>
	<use xlink:href='#gpPt2' transform='translate(446.8,104.6) scale(4.50)' color='rgb( 86, 180, 233)'/>
	<use xlink:href='#gpPt2' transform='translate(470.6,147.4) scale(4.50)' color='rgb( 86, 180, 233)'/>
	<use xlink:href='#gpPt2' transform='translate(494.5,212.4) scale(4.50)' color='rgb( 86, 180, 233)'/>
	<use xlink:href='#gpPt2' transform='translate(518.3,287.8) scale(4.50)' color='rgb( 86, 180, 233)'/>
	<use xlink:href='#gpPt2' transform='translate(542.2,359.0) scale(4.50)' color='rgb( 86, 180, 233)'/>
	<use xlink:href='#gpPt2' transform='translate(566.0,413.4) scale(4.50)' color='rgb( 86, 180, 233)'/>
	<use xlink:href='#gpPt2' transform='translate(528.3,108.1) scale(4.50)' color='rgb( 86, 180, 233)'/>
</g>
	</g>
<g fill="none" color="white" stroke="rgb( 86, 180, 233)" stroke-width="2.00" stroke-linecap="butt" stroke-linejoin="miter">
</g>
<g fill="none" color="black" stroke="currentColor" stroke-width="2.00" stroke-linecap="butt" stroke-linejoin="miter">
</g>
<g fill="none" color="black" stroke="black" stroke-width="1.00" stroke-linecap="butt" stroke-linejoin="miter">
</g>
<g fill="none" color="black" stroke="currentColor" stroke-width="1.00" stroke-linecap="butt" stroke-linejoin="miter">
	<path stroke='black'  d='M89.2,54.1 L89.2,413.4 L566.0,413.4 L566.0,54.1 L89.2,54.1 Z  '/></g>
<g fill="none" color="black" stroke="currentColor" stroke-width="1.00" stroke-linecap="butt" stroke-linejoin="miter">
</g>
</g>
</svg>

