0.001	0.000999
0.00280726260837151	0.00279938879814038
0.00457132066074817	0.00455046399885095
0.00699392726302117	0.00694517063598697
0.0101894170499295	0.0100861005004677
0.0143072272207298	0.0141039576136206
0.0195309228456442	0.0191531205261812
0.0260257817081918	0.0253571081490337
0.0336942335786354	0.0325777427130431
0.0419901284878435	0.0402633241528766
0.0503614129156052	0.0478877758388056
0.0585780622124444	0.0552450403085443
0.0666190486690846	0.0623253265876573
0.0745253328971173	0.0691729684466934
0.0823401992671403	0.0758316421505196
0.0900958117710053	0.0823331902828875
0.0978138296666284	0.0886990005446688
0.105508507158106	0.0949432732059144
0.113189314842777	0.101075624863949
0.120862702561302	0.107102796089997
0.128533201373219	0.113029704092235
0.136204099441418	0.118860083040335
0.143877859271147	0.124596877473053
0.151556380287597	0.130242489246899
0.159241168311654	0.135798936715985
0.16693344795512	0.141267960212187
0.174634239145528	0.146651093801816
0.182344410516122	0.151949715287792
0.190064717444632	0.157165081779494
0.197795829722919	0.162298355500351
0.205538351999794	0.167350622799979
0.213292839128451	0.172322908372544
0.221059807826143	0.177216186014022
0.228839745661665	0.182031386867494
0.236633118040677	0.186769405795449
0.244440373691956	0.19143110635175
0.252261949037391	0.196017324705976
0.260098271641871	0.200528872728725
0.267949763048538	0.204966540487377
0.275816841040683	0.209331098228189
0.283699921493687	0.213623297980943
0.29159941991643	0.217843874873369
0.29951575270324	0.221993548192511
0.307449338175041	0.22607302225686
0.315400597455572	0.230082987139546
0.323369955205956	0.234024119267583
0.331357840222004	0.237897081910786
0.339364685948852	0.241702525596789
0.347390930908787	0.245441088456989
0.355437019055376	0.249113396516091
0.363503400071708	0.252720063938758
0.371590529618537	0.256261693240152
0.379698869534203	0.259738875464906
0.387828887996682	0.263152190342312
0.395981059641212	0.266502206417745
0.404155865674189	0.269789481179528
0.412353793916143	0.273014561155497
0.420575338867878	0.276177982019493
0.428821001714344	0.27928026867467
0.437091290334217	0.282321935342067
0.445386719274908	0.285303485639781
0.453707809710576	0.288225412660792
0.462055089396726	0.291088199054946
0.470429092600066	0.293892317108115
0.478830360006768	0.296638228820817
0.487259438645394	0.299326385998764
0.495716881771789	0.301957230338161
0.504203248751614	0.304531193518343
0.512719104941946	0.307048697302079
0.521265021569029	0.309510153642552
0.529841575578177	0.311915964790359
0.538449349494779	0.314266523412266
0.547088931288854	0.31656221271891
0.55576091421592	0.318803406594112
0.564465896680092	0.320990469738126
0.573204482076924	0.323123757813276
0.581977278651461	0.325203617601023
0.590784899357636	0.327230387166366
0.599627961714148	0.329204396028214
0.608507087671233	0.331125965338782
0.617422903488126	0.332995408071239
0.626376039605929	0.334813029211873
0.635367130541445	0.33657912596176
0.644396814784434	0.338293987943529
0.65346573471002	0.339957897415055
0.662574536496882	0.341571129487628
0.67172387006603	0.343133952350732
0.680914389022464	0.344646627499569
0.690146750620042	0.346109409968299
0.69942161573294	0.347522548565454
0.708739648856638	0.348886286114505
0.718101518105507	0.35020085969381
0.72750789524342	0.351466500880882
0.736959455719055	0.352683435996087
0.746456878722351	0.353851886347606
0.756000847255247	0.354972068476098
0.765592048227547	0.356044194399769
0.775231172555342	0.357068471856634
0.784918915293077	0.358045104547055
0.79465597577173	0.358974292372872
0.804443057746163	0.359856231673323
0.814280869579442	0.360691115459891
0.824170124432915	0.361479133646502
0.834111540464784	0.362220473275311
0.844105841060904	0.362915318739581
0.854153755069215	0.363563852001001
0.864256017050879	0.364166252802349
0.874413367553403	0.364722698875477
0.884626553398029	0.365233366143808
0.894896327975561	0.365698428918945
0.905223451563861	0.366118060091958
0.915608691657087	0.36649243131864
0.926052823308432	0.366821713198787
0.93655662949425	0.367106075449631
0.9471209014839	0.367345687072848
0.957746439233035	0.367540716515625
0.968434051783837	0.367691331825333
0.979184557682188	0.367797700798066
0.989998785413476	0.367859991121032
1.00087757385084	0.367878370508681
1.01182177271625	0.367853006832705
1.02283224305785	0.367784068245989
1.03390985775493	0.367671723300421
1.0450555020151	0.36751614105888
1.0562700739098	0.367317491201231
1.06755448491604	0.367075944124586
1.07890966048055	0.366791671037785
1.09033654059571	0.366464844050419
1.10183608040089	0.366095636256204
1.11340925079933	0.365684221811035
1.12505703909856	0.365230776005646
1.13678044966583	0.364735475333279
1.14858050461713	0.364198497551812
1.16045824451001	0.363620021741698
1.17241472907745	0.363000228358341
1.18445103798464	0.362339299279692
1.1965682716047	0.361637417849544
1.20876755182324	0.360894768916225
1.22105002287479	0.360111538866646
1.23341685221314	0.359287915655694
1.24586923140237	0.358424088832035
1.25840837705549	0.357520249558754
1.27103553179559	0.356576590630706
1.28375196526184	0.355593306487255
1.29655897515425	0.354570593221003
1.30945788831552	0.353508648582871
1.32245006185755	0.352407671983227
1.33553688434394	0.351267864488277
1.34871977700559	0.350089428813928
1.36200019502098	0.348872569314697
1.375379628838	0.347617491969997
1.38885960556493	0.346324404365598
1.40244169042515	0.344993515670977
1.41612748825492	0.343625036614985
1.42991864508927	0.34221917945584
1.4438168498222	0.340776157947048
1.45782383592619	0.339296187301256
1.47194138327489	0.337779484147966
1.48617132003268	0.336226266489347
1.50051552464099	0.334636753651559
1.5149759279177	0.333011166230257
1.52955451524293	0.331349726033792
1.5442533288612	0.329652656021465
1.55907447029483	0.327920180238096
1.57402010290171	0.326152523741805
1.58909245455064	0.324349912528864
1.60429382043449	0.322512573454233
1.61962656605423	0.320640734144738
1.63509313035233	0.318734622908445
1.65069602902149	0.316794468638258
1.66643785799904	0.31482050070968
1.68232129716843	0.31281294887137
1.69834911426005	0.310772043130926
1.71452416899607	0.308698013631852
1.73084941745515	0.30659109052647
1.74732791673995	0.304451503836095
1.76396282989372	0.302279483307344
1.78075743112988	0.300075258258664
1.79771511139722	0.297839057416555
1.81483938428402	0.295571108743745
1.83213389232599	0.293271639253759
1.84960241369791	0.290940874817782
1.86724886936204	0.288579039957741
1.8850773307003	0.286186357625908
1.90309202765844	0.283763048971632
1.9212973574671	0.281309333091224
1.93969789395305	0.278825426764558
1.95829839752695	0.276311544172547
1.97710382589841	0.273767896595094
1.996119345564	0.271194692090481
2.01535034416125	0.268592135151501
2.03480244374382	0.265960426339624
2.05448151510098	0.263299761890221
2.07439369315769	0.260610333294767
2.09454539362099	0.257892326849529
2.11494333096108	0.255145923172227
2.13559453785088	0.252371296684795
2.15650638622063	0.249568615057774
2.17768661009729	0.246738038612039
2.19914333037205	0.243879719679411
2.22088508175539	0.240993801910633
2.24292084207289	0.238080419536369
2.26526006422048	0.235139696568035
2.28791271099006	0.232171745943425
2.31088929313095	0.229176668605805
2.33420091097793	0.226154552514723
2.35785930000145	0.223105471588909
2.38187688076174	0.220029484571533
2.4062668137244	0.216926633818415
2.43104305946828	0.213796944008462
2.45622044486641	0.210640420778318
2.48181473592756	0.207457049280147
2.50784271798098	0.204246792673929
2.53432228397746	0.201009590567353
2.5612725317405	0.197745357423569
2.58871387102883	0.194453980969894
2.61666814128084	0.191135320656935
2.64515874089677	0.187789206237988
2.67421076880134	0.184415436571228
2.70385117885441	0.181013778786495
2.73410894726946	0.177583968022359
2.76501525264849	0.174125708013949
2.79660366718983	0.170638672933385
2.82891035616101	0.167122511034088
2.86197428034457	0.163576850872137
2.89583739264613	0.160001311175856
2.93054481479777	0.156395515845683
2.96614497232048	0.152759116129186
3.00268965465759	0.14909182276871
3.04023395127338	0.145393451912722
3.07883599195725	0.141663989846378
3.11855638898777	0.137903683117834
3.15945723948968	0.134113162267063
3.2016004997556	0.130293608727761
3.24504549714458	0.126446974683117
3.28984531839012	0.122576263053074
3.33604184397562	0.118685866638124
3.38365935036743	0.114781948041372
3.43269695625719	0.110872812151482
3.48312079975008	0.106969181959065
3.53485762647762	0.103084248665843
3.58779211650181	0.0992333566341085
3.64177020105076	0.0954332384642712
3.69660932501381	0.0917008482796744
3.75211429529904	0.0880520069132731
3.80809515694931	0.084500175264126
3.86438282288935	0.0810556367496885
3.920839363014	0.0777252141835955
3.97736206081832	0.0745124669689396
4.03388226752831	0.0714182023467119
4.09036099182001	0.0684411153838049
4.14678311995076	0.0655784160864257
4.20315162278062	0.0628263643198161
4.25948249338854	0.0601806850612717
4.31580068857979	0.0576368685244892
4.37213706551073	0.0551903743396823
4.42852617278307	0.0528367624848493
4.4850047175078	0.0505717715638451
4.54161053978073	0.0483913609263553
4.59838195470729	0.0462917288983628
4.65535735399769	0.0442693158146436
4.71257498749877	0.0423207977979508
4.77007286761706	0.0404430752436224
4.8278887566833	0.0386332585815438
4.88606020972566	0.0368886529463472
4.94462465393861	0.0352067427602339
5.00361949231863	0.0335851768219621
5.0630822232493	0.0320217542297553
5.1230505707715	0.0305144112977748
5.18356262233466	0.0290612095205215
5.24465697223555	0.0276603245762225
5.30637286993767	0.0263100363235258
5.36875037315925	0.0250087197261949
5.43183050611527	0.0237548366316806
5.49565542367261	0.0225469283271662
5.56026858246272	0.0213836087984748
5.62571492023916	0.0202635586211174
5.69204104498942	0.0191855194177031
5.75929543552619	0.0181482888213441
5.8275286554939	0.017150715890289
5.89679358297317	0.0161916969240776
5.96714565814436	0.0152701716361899
6.03864315176649	0.0143851196426933
6.11134745760018	0.013535557230023
6.18532341232062	0.0127205343683652
6.26063964696499	0.0119391319398403
6.33736897453913	0.0111904591529447
6.41558881910096	0.0104736511163555
6.49538169244908	0.00978786654636031
6.57683572550934	0.0091322855826756
6.66004526265413	0.00850610768724924
6.74511152852993	0.00790854959977087
6.83214337857048	0.00733884332169029
6.92125814624316	0.0067962340976165
7.01258260228825	0.00627997835848854
7.10625404378061	0.0057893415846311
7.20242153380864	0.0053235960380504
7.3012473159041	0.00488201830134601
7.40290843099426	0.0044638865442172
7.50759856834192	0.00406847741619673
7.61553018515307	0.00369506243377498
7.72693693115668	0.00334290368844754
7.84207641228314	0.00301124864524235
7.96123331717835	0.00269932372341695
8.08472290305932	0.00240632624490638
8.21289477621781	0.00213141419304597
8.34613677316295	0.00187369303546482
8.48487848204309	0.00163219862799031
8.6295934003891	0.00140587494928061
8.78079761840881	0.00119354519879123
8.93904067143091	0.000993874864490533
9.10487971764684	0.000805326358668406
9.27881963754104	0.0006261081863571
9.46118727656303	0.000454130176701706
9.65189207077406	0.000286993390743252
9.85003827900827	0.000122064411677588
10	6.91331442950299E-08
