Integration of 1/(x^2) from -Infinity to -1:
	abs = 1E-06, eps = 1E-06
	result_CC   = 0.999999999816002, tolerance : 2.000e-006
	result_RA   = 1, tolerance : 2.000e-006
	result_o8av = 1, tolerance : 2.000e-006
	true value  = 1.000000
	error_CC       : 5.53258233312124E-07
	error_Simple   : 1.11022302462516E-16
	calls_CC       : 223
	calls_Simple   : 1
	calls_o8av     : 8

Integration of Exp(-x) from 0 to Infinity:
	abs = 1E-06, eps = 1E-06
	result_CC   = 0.999999988000672, tolerance : 2.000e-006
	result_RA   = 0.999999805351392, tolerance : 2.000e-006
	result_o8av = 0.999999778209414, tolerance : 2.000e-006
	true value  = 1.000000
	error_CC       : 5.24278247563925E-07
	error_Simple   : 6.60997239909998E-07
	calls_CC       : 269
	calls_Simple   : 217
	calls_o8av     : 64

Integration of Exp(-x*x) from -Infinity to Infinity:
	abs = 1E-06, eps = 1E-06
	result_CC   = 1.77245382993893, tolerance : 2.772e-006
	result_RA   = 1.77245363321759, tolerance : 2.772e-006
	result_o8av = 1.77245411516459, tolerance : 2.772e-006
	true value  = 1.772454
	error_CC       : 5.1171317041857E-07
	error_Simple   : 5.5257027298061E-07
	calls_CC       : 563
	calls_Simple   : 575
	calls_o8av     : 128

