<?xml version="1.0" encoding="utf-8"  standalone="no"?>
<svg 
 width="600" height="480"
 viewBox="0 0 600 480"
 xmlns="http://www.w3.org/2000/svg"
 xmlns:xlink="http://www.w3.org/1999/xlink"
>

<title>Gnuplot</title>
<desc>Produced by GNUPLOT 5.2 patchlevel 8 </desc>

<g id="gnuplot_canvas">

<rect x="0" y="0" width="600" height="480" fill="none"/>
<defs>

	<circle id='gpDot' r='0.5' stroke-width='0.5' stroke='currentColor'/>
	<path id='gpPt0' stroke-width='0.222' stroke='currentColor' d='M-1,0 h2 M0,-1 v2'/>
	<path id='gpPt1' stroke-width='0.222' stroke='currentColor' d='M-1,-1 L1,1 M1,-1 L-1,1'/>
	<path id='gpPt2' stroke-width='0.222' stroke='currentColor' d='M-1,0 L1,0 M0,-1 L0,1 M-1,-1 L1,1 M-1,1 L1,-1'/>
	<rect id='gpPt3' stroke-width='0.222' stroke='currentColor' x='-1' y='-1' width='2' height='2'/>
	<rect id='gpPt4' stroke-width='0.222' stroke='currentColor' fill='currentColor' x='-1' y='-1' width='2' height='2'/>
	<circle id='gpPt5' stroke-width='0.222' stroke='currentColor' cx='0' cy='0' r='1'/>
	<use xlink:href='#gpPt5' id='gpPt6' fill='currentColor' stroke='none'/>
	<path id='gpPt7' stroke-width='0.222' stroke='currentColor' d='M0,-1.33 L-1.33,0.67 L1.33,0.67 z'/>
	<use xlink:href='#gpPt7' id='gpPt8' fill='currentColor' stroke='none'/>
	<use xlink:href='#gpPt7' id='gpPt9' stroke='currentColor' transform='rotate(180)'/>
	<use xlink:href='#gpPt9' id='gpPt10' fill='currentColor' stroke='none'/>
	<use xlink:href='#gpPt3' id='gpPt11' stroke='currentColor' transform='rotate(45)'/>
	<use xlink:href='#gpPt11' id='gpPt12' fill='currentColor' stroke='none'/>
	<path id='gpPt13' stroke-width='0.222' stroke='currentColor' d='M0,1.330 L1.265,0.411 L0.782,-1.067 L-0.782,-1.076 L-1.265,0.411 z'/>
	<use xlink:href='#gpPt13' id='gpPt14' fill='currentColor' stroke='none'/>
	<filter id='textbox' filterUnits='objectBoundingBox' x='0' y='0' height='1' width='1'>
	  <feFlood flood-color='white' flood-opacity='1' result='bgnd'/>
	  <feComposite in='SourceGraphic' in2='bgnd' operator='atop'/>
	</filter>
	<filter id='greybox' filterUnits='objectBoundingBox' x='0' y='0' height='1' width='1'>
	  <feFlood flood-color='lightgrey' flood-opacity='1' result='grey'/>
	  <feComposite in='SourceGraphic' in2='grey' operator='atop'/>
	</filter>
</defs>
<g fill="none" color="white" stroke="currentColor" stroke-width="1.00" stroke-linecap="butt" stroke-linejoin="miter">
</g>
<g fill="none" color="black" stroke="currentColor" stroke-width="1.00" stroke-linecap="butt" stroke-linejoin="miter">
	<path stroke='black'  d='M71.9,422.4 L80.9,422.4 M575.0,422.4 L566.0,422.4  '/>	<g transform="translate(63.6,426.3)" stroke="none" fill="black" font-family="Arial" font-size="12.00"  text-anchor="end">
		<text><tspan font-family="Arial" > 0</tspan></text>
	</g>
</g>
<g fill="none" color="black" stroke="currentColor" stroke-width="1.00" stroke-linecap="butt" stroke-linejoin="miter">
	<path stroke='black'  d='M71.9,385.6 L80.9,385.6 M575.0,385.6 L566.0,385.6  '/>	<g transform="translate(63.6,389.5)" stroke="none" fill="black" font-family="Arial" font-size="12.00"  text-anchor="end">
		<text><tspan font-family="Arial" > 0.1</tspan></text>
	</g>
</g>
<g fill="none" color="black" stroke="currentColor" stroke-width="1.00" stroke-linecap="butt" stroke-linejoin="miter">
	<path stroke='black'  d='M71.9,348.7 L80.9,348.7 M575.0,348.7 L566.0,348.7  '/>	<g transform="translate(63.6,352.6)" stroke="none" fill="black" font-family="Arial" font-size="12.00"  text-anchor="end">
		<text><tspan font-family="Arial" > 0.2</tspan></text>
	</g>
</g>
<g fill="none" color="black" stroke="currentColor" stroke-width="1.00" stroke-linecap="butt" stroke-linejoin="miter">
	<path stroke='black'  d='M71.9,311.9 L80.9,311.9 M575.0,311.9 L566.0,311.9  '/>	<g transform="translate(63.6,315.8)" stroke="none" fill="black" font-family="Arial" font-size="12.00"  text-anchor="end">
		<text><tspan font-family="Arial" > 0.3</tspan></text>
	</g>
</g>
<g fill="none" color="black" stroke="currentColor" stroke-width="1.00" stroke-linecap="butt" stroke-linejoin="miter">
	<path stroke='black'  d='M71.9,275.1 L80.9,275.1 M575.0,275.1 L566.0,275.1  '/>	<g transform="translate(63.6,279.0)" stroke="none" fill="black" font-family="Arial" font-size="12.00"  text-anchor="end">
		<text><tspan font-family="Arial" > 0.4</tspan></text>
	</g>
</g>
<g fill="none" color="black" stroke="currentColor" stroke-width="1.00" stroke-linecap="butt" stroke-linejoin="miter">
	<path stroke='black'  d='M71.9,238.2 L80.9,238.2 M575.0,238.2 L566.0,238.2  '/>	<g transform="translate(63.6,242.1)" stroke="none" fill="black" font-family="Arial" font-size="12.00"  text-anchor="end">
		<text><tspan font-family="Arial" > 0.5</tspan></text>
	</g>
</g>
<g fill="none" color="black" stroke="currentColor" stroke-width="1.00" stroke-linecap="butt" stroke-linejoin="miter">
	<path stroke='black'  d='M71.9,201.4 L80.9,201.4 M575.0,201.4 L566.0,201.4  '/>	<g transform="translate(63.6,205.3)" stroke="none" fill="black" font-family="Arial" font-size="12.00"  text-anchor="end">
		<text><tspan font-family="Arial" > 0.6</tspan></text>
	</g>
</g>
<g fill="none" color="black" stroke="currentColor" stroke-width="1.00" stroke-linecap="butt" stroke-linejoin="miter">
	<path stroke='black'  d='M71.9,164.6 L80.9,164.6 M575.0,164.6 L566.0,164.6  '/>	<g transform="translate(63.6,168.5)" stroke="none" fill="black" font-family="Arial" font-size="12.00"  text-anchor="end">
		<text><tspan font-family="Arial" > 0.7</tspan></text>
	</g>
</g>
<g fill="none" color="black" stroke="currentColor" stroke-width="1.00" stroke-linecap="butt" stroke-linejoin="miter">
	<path stroke='black'  d='M71.9,127.8 L80.9,127.8 M575.0,127.8 L566.0,127.8  '/>	<g transform="translate(63.6,131.7)" stroke="none" fill="black" font-family="Arial" font-size="12.00"  text-anchor="end">
		<text><tspan font-family="Arial" > 0.8</tspan></text>
	</g>
</g>
<g fill="none" color="black" stroke="currentColor" stroke-width="1.00" stroke-linecap="butt" stroke-linejoin="miter">
	<path stroke='black'  d='M71.9,90.9 L80.9,90.9 M575.0,90.9 L566.0,90.9  '/>	<g transform="translate(63.6,94.8)" stroke="none" fill="black" font-family="Arial" font-size="12.00"  text-anchor="end">
		<text><tspan font-family="Arial" > 0.9</tspan></text>
	</g>
</g>
<g fill="none" color="black" stroke="currentColor" stroke-width="1.00" stroke-linecap="butt" stroke-linejoin="miter">
	<path stroke='black'  d='M71.9,54.1 L80.9,54.1 M575.0,54.1 L566.0,54.1  '/>	<g transform="translate(63.6,58.0)" stroke="none" fill="black" font-family="Arial" font-size="12.00"  text-anchor="end">
		<text><tspan font-family="Arial" > 1</tspan></text>
	</g>
</g>
<g fill="none" color="black" stroke="currentColor" stroke-width="1.00" stroke-linecap="butt" stroke-linejoin="miter">
	<path stroke='black'  d='M71.9,422.4 L71.9,413.4 M71.9,54.1 L71.9,63.1  '/>	<g transform="translate(71.9,444.3)" stroke="none" fill="black" font-family="Arial" font-size="12.00"  text-anchor="middle">
		<text><tspan font-family="Arial" >-2</tspan></text>
	</g>
</g>
<g fill="none" color="black" stroke="currentColor" stroke-width="1.00" stroke-linecap="butt" stroke-linejoin="miter">
	<path stroke='black'  d='M134.8,422.4 L134.8,413.4 M134.8,54.1 L134.8,63.1  '/>	<g transform="translate(134.8,444.3)" stroke="none" fill="black" font-family="Arial" font-size="12.00"  text-anchor="middle">
		<text><tspan font-family="Arial" >-1.5</tspan></text>
	</g>
</g>
<g fill="none" color="black" stroke="currentColor" stroke-width="1.00" stroke-linecap="butt" stroke-linejoin="miter">
	<path stroke='black'  d='M197.7,422.4 L197.7,413.4 M197.7,54.1 L197.7,63.1  '/>	<g transform="translate(197.7,444.3)" stroke="none" fill="black" font-family="Arial" font-size="12.00"  text-anchor="middle">
		<text><tspan font-family="Arial" >-1</tspan></text>
	</g>
</g>
<g fill="none" color="black" stroke="currentColor" stroke-width="1.00" stroke-linecap="butt" stroke-linejoin="miter">
	<path stroke='black'  d='M260.6,422.4 L260.6,413.4 M260.6,54.1 L260.6,63.1  '/>	<g transform="translate(260.6,444.3)" stroke="none" fill="black" font-family="Arial" font-size="12.00"  text-anchor="middle">
		<text><tspan font-family="Arial" >-0.5</tspan></text>
	</g>
</g>
<g fill="none" color="black" stroke="currentColor" stroke-width="1.00" stroke-linecap="butt" stroke-linejoin="miter">
	<path stroke='black'  d='M323.5,422.4 L323.5,413.4 M323.5,54.1 L323.5,63.1  '/>	<g transform="translate(323.5,444.3)" stroke="none" fill="black" font-family="Arial" font-size="12.00"  text-anchor="middle">
		<text><tspan font-family="Arial" > 0</tspan></text>
	</g>
</g>
<g fill="none" color="black" stroke="currentColor" stroke-width="1.00" stroke-linecap="butt" stroke-linejoin="miter">
	<path stroke='black'  d='M386.3,422.4 L386.3,413.4 M386.3,54.1 L386.3,63.1  '/>	<g transform="translate(386.3,444.3)" stroke="none" fill="black" font-family="Arial" font-size="12.00"  text-anchor="middle">
		<text><tspan font-family="Arial" > 0.5</tspan></text>
	</g>
</g>
<g fill="none" color="black" stroke="currentColor" stroke-width="1.00" stroke-linecap="butt" stroke-linejoin="miter">
	<path stroke='black'  d='M449.2,422.4 L449.2,413.4 M449.2,54.1 L449.2,63.1  '/>	<g transform="translate(449.2,444.3)" stroke="none" fill="black" font-family="Arial" font-size="12.00"  text-anchor="middle">
		<text><tspan font-family="Arial" > 1</tspan></text>
	</g>
</g>
<g fill="none" color="black" stroke="currentColor" stroke-width="1.00" stroke-linecap="butt" stroke-linejoin="miter">
	<path stroke='black'  d='M512.1,422.4 L512.1,413.4 M512.1,54.1 L512.1,63.1  '/>	<g transform="translate(512.1,444.3)" stroke="none" fill="black" font-family="Arial" font-size="12.00"  text-anchor="middle">
		<text><tspan font-family="Arial" > 1.5</tspan></text>
	</g>
</g>
<g fill="none" color="black" stroke="currentColor" stroke-width="1.00" stroke-linecap="butt" stroke-linejoin="miter">
	<path stroke='black'  d='M575.0,422.4 L575.0,413.4 M575.0,54.1 L575.0,63.1  '/>	<g transform="translate(575.0,444.3)" stroke="none" fill="black" font-family="Arial" font-size="12.00"  text-anchor="middle">
		<text><tspan font-family="Arial" > 2</tspan></text>
	</g>
</g>
<g fill="none" color="black" stroke="currentColor" stroke-width="1.00" stroke-linecap="butt" stroke-linejoin="miter">
</g>
<g fill="none" color="black" stroke="currentColor" stroke-width="1.00" stroke-linecap="butt" stroke-linejoin="miter">
	<path stroke='black'  d='M71.9,54.1 L71.9,422.4 L575.0,422.4 L575.0,54.1 L71.9,54.1 Z  '/></g>
<g fill="none" color="black" stroke="currentColor" stroke-width="1.00" stroke-linecap="butt" stroke-linejoin="miter">
	<g transform="translate(19.0,238.3) rotate(270)" stroke="none" fill="black" font-family="Arial" font-size="12.00"  text-anchor="middle">
		<text><tspan font-family="Arial" >y</tspan></text>
	</g>
</g>
<g fill="none" color="black" stroke="currentColor" stroke-width="1.00" stroke-linecap="butt" stroke-linejoin="miter">
	<g transform="translate(323.4,471.3)" stroke="none" fill="black" font-family="Arial" font-size="12.00"  text-anchor="middle">
		<text><tspan font-family="Arial" >x</tspan></text>
	</g>
</g>
<g fill="none" color="black" stroke="currentColor" stroke-width="1.00" stroke-linecap="butt" stroke-linejoin="miter">
	<g transform="translate(323.4,31.0)" stroke="none" fill="black" font-family="Arial" font-size="12.00"  text-anchor="middle">
		<text><tspan font-family="Arial" >Integrator comparision</tspan></text>
	</g>
</g>
<g fill="none" color="black" stroke="currentColor" stroke-width="1.00" stroke-linecap="butt" stroke-linejoin="miter">
</g>
	<g id="gnuplot_plot_1" ><title>exact integral</title>
<g fill="none" color="black" stroke="currentColor" stroke-width="1.00" stroke-linecap="butt" stroke-linejoin="miter">
	<g transform="translate(507.9,76.0)" stroke="none" fill="black" font-family="Arial" font-size="12.00"  text-anchor="end">
		<text><tspan font-family="Arial" >exact integral</tspan></text>
	</g>
</g>
<g fill="none" color="black" stroke="currentColor" stroke-width="1.00" stroke-linecap="butt" stroke-linejoin="miter">
	<path stroke='rgb(148,   0, 211)'  d='M516.2,72.1 L558.4,72.1 M71.9,415.7 L77.0,414.5 L82.1,413.1 L87.1,411.6 L92.2,409.9 L97.3,407.9
		L102.4,405.6 L107.5,403.1 L112.6,400.3 L117.6,397.1 L122.7,393.6 L127.8,389.6 L132.9,385.3 L138.0,380.6
		L143.0,375.3 L148.1,369.6 L153.2,363.4 L158.3,356.7 L163.4,349.5 L168.5,341.7 L173.5,333.4 L178.6,324.6
		L183.7,315.2 L188.8,305.4 L193.9,295.0 L198.9,284.2 L204.0,272.9 L209.1,261.2 L214.2,249.2 L219.3,236.9
		L224.4,224.4 L229.4,211.8 L234.5,199.0 L239.6,186.3 L244.7,173.6 L249.8,161.1 L254.8,148.9 L259.9,137.0
		L265.0,125.6 L270.1,114.8 L275.2,104.6 L280.3,95.1 L285.3,86.4 L290.4,78.6 L295.5,71.8 L300.6,66.1
		L305.7,61.4 L310.7,57.8 L315.8,55.5 L320.9,54.3 L326.0,54.3 L331.1,55.5 L336.2,57.8 L341.2,61.4
		L346.3,66.1 L351.4,71.8 L356.5,78.6 L361.6,86.4 L366.6,95.1 L371.7,104.6 L376.8,114.8 L381.9,125.6
		L387.0,137.0 L392.1,148.9 L397.1,161.1 L402.2,173.6 L407.3,186.3 L412.4,199.0 L417.5,211.8 L422.5,224.4
		L427.6,236.9 L432.7,249.2 L437.8,261.2 L442.9,272.9 L448.0,284.2 L453.0,295.0 L458.1,305.4 L463.2,315.2
		L468.3,324.6 L473.4,333.4 L478.4,341.7 L483.5,349.5 L488.6,356.7 L493.7,363.4 L498.8,369.6 L503.9,375.3
		L508.9,380.6 L514.0,385.3 L519.1,389.6 L524.2,393.6 L529.3,397.1 L534.3,400.3 L539.4,403.1 L544.5,405.6
		L549.6,407.9 L554.7,409.9 L559.8,411.6 L564.8,413.1 L569.9,414.5 L575.0,415.7  '/></g>
	</g>
	<g id="gnuplot_plot_2" ><title>linterp integral</title>
<g fill="none" color="black" stroke="currentColor" stroke-width="1.00" stroke-linecap="butt" stroke-linejoin="miter">
	<g transform="translate(507.9,94.0)" stroke="none" fill="black" font-family="Arial" font-size="12.00"  text-anchor="end">
		<text><tspan font-family="Arial" >linterp integral</tspan></text>
	</g>
</g>
<g fill="none" color="black" stroke="currentColor" stroke-width="1.00" stroke-linecap="butt" stroke-linejoin="miter">
	<path stroke='rgb(  0, 158, 115)'  d='M516.2,90.1 L558.4,90.1 M71.9,422.4 L72.4,422.3 L72.9,422.2 L73.4,422.1 L73.9,422.0 L74.4,421.8
		L74.9,421.7 L75.4,421.6 L75.9,421.5 L76.4,421.3 L76.9,421.2 L77.4,421.1 L77.9,420.9 L78.4,420.8
		L79.0,420.7 L79.5,420.5 L80.0,420.4 L80.5,420.3 L81.0,420.1 L81.5,420.0 L82.0,419.8 L82.5,419.7
		L83.0,419.5 L83.5,419.4 L84.0,419.2 L84.5,419.0 L85.0,418.9 L85.5,418.7 L86.0,418.5 L86.5,418.4
		L87.0,418.2 L87.5,418.0 L88.0,417.8 L88.5,417.7 L89.0,417.5 L89.5,417.3 L90.0,417.1 L90.5,416.9
		L91.0,416.8 L91.5,416.6 L92.0,416.4 L92.5,416.2 L93.1,416.0 L93.6,415.8 L94.1,415.6 L94.6,415.4
		L95.1,415.2 L95.6,415.0 L96.1,414.8 L96.6,414.5 L97.1,414.3 L97.6,414.1 L98.1,413.9 L98.6,413.7
		L99.1,413.5 L99.6,413.2 L100.1,413.0 L100.6,412.8 L101.1,412.5 L101.6,412.3 L102.1,412.1 L102.6,411.8
		L103.1,411.6 L103.6,411.4 L104.1,411.1 L104.6,410.9 L105.1,410.6 L105.6,410.4 L106.1,410.1 L106.6,409.8
		L107.2,409.6 L107.7,409.3 L108.2,409.0 L108.7,408.7 L109.2,408.5 L109.7,408.2 L110.2,407.9 L110.7,407.6
		L111.2,407.3 L111.7,407.0 L112.2,406.7 L112.7,406.4 L113.2,406.1 L113.7,405.8 L114.2,405.4 L114.7,405.1
		L115.2,404.8 L115.7,404.5 L116.2,404.1 L116.7,403.8 L117.2,403.5 L117.7,403.1 L118.2,402.8 L118.7,402.4
		L119.2,402.1 L119.7,401.7 L120.2,401.4 L120.7,401.0 L121.3,400.6 L121.8,400.3 L122.3,399.9 L122.8,399.5
		L123.3,399.1 L123.8,398.7 L124.3,398.3 L124.8,398.0 L125.3,397.6 L125.8,397.2 L126.3,396.8 L126.8,396.3
		L127.3,395.9 L127.8,395.5 L128.3,395.1 L128.8,394.7 L129.3,394.3 L129.8,393.8 L130.3,393.4 L130.8,393.0
		L131.3,392.5 L131.8,392.1 L132.3,391.6 L132.8,391.2 L133.3,390.7 L133.8,390.3 L134.3,389.8 L134.9,389.3
		L135.4,388.9 L135.9,388.4 L136.4,387.9 L136.9,387.4 L137.4,386.9 L137.9,386.4 L138.4,386.0 L138.9,385.4
		L139.4,384.9 L139.9,384.4 L140.4,383.9 L140.9,383.4 L141.4,382.9 L141.9,382.3 L142.4,381.8 L142.9,381.2
		L143.4,380.7 L143.9,380.1 L144.4,379.6 L144.9,379.0 L145.4,378.5 L145.9,377.9 L146.4,377.3 L146.9,376.7
		L147.4,376.1 L147.9,375.5 L148.4,374.9 L149.0,374.3 L149.5,373.7 L150.0,373.1 L150.5,372.5 L151.0,371.9
		L151.5,371.3 L152.0,370.6 L152.5,370.0 L153.0,369.4 L153.5,368.7 L154.0,368.1 L154.5,367.4 L155.0,366.7
		L155.5,366.1 L156.0,365.4 L156.5,364.7 L157.0,364.0 L157.5,363.4 L158.0,362.7 L158.5,362.0 L159.0,361.3
		L159.5,360.6 L160.0,359.9 L160.5,359.1 L161.0,358.4 L161.5,357.7 L162.0,357.0 L162.5,356.2 L163.1,355.5
		L163.6,354.8 L164.1,354.0 L164.6,353.2 L165.1,352.5 L165.6,351.7 L166.1,351.0 L166.6,350.2 L167.1,349.4
		L167.6,348.6 L168.1,347.8 L168.6,347.0 L169.1,346.2 L169.6,345.4 L170.1,344.6 L170.6,343.8 L171.1,343.0
		L171.6,342.2 L172.1,341.3 L172.6,340.5 L173.1,339.7 L173.6,338.8 L174.1,338.0 L174.6,337.1 L175.1,336.3
		L175.6,335.4 L176.1,334.5 L176.6,333.7 L177.2,332.8 L177.7,331.9 L178.2,331.0 L178.7,330.1 L179.2,329.2
		L179.7,328.3 L180.2,327.4 L180.7,326.5 L181.2,325.6 L181.7,324.6 L182.2,323.7 L182.7,322.8 L183.2,321.8
		L183.7,320.9 L184.2,320.0 L184.7,319.0 L185.2,318.0 L185.7,317.1 L186.2,316.1 L186.7,315.1 L187.2,314.2
		L187.7,313.2 L188.2,312.2 L188.7,311.2 L189.2,310.2 L189.7,309.2 L190.2,308.2 L190.8,307.2 L191.3,306.1
		L191.8,305.1 L192.3,304.1 L192.8,303.1 L193.3,302.0 L193.8,301.0 L194.3,299.9 L194.8,298.9 L195.3,297.8
		L195.8,296.8 L196.3,295.7 L196.8,294.6 L197.3,293.5 L197.8,292.4 L198.3,291.4 L198.8,290.3 L199.3,289.2
		L199.8,288.1 L200.3,287.0 L200.8,285.9 L201.3,284.8 L201.8,283.7 L202.3,282.6 L202.8,281.4 L203.3,280.3
		L203.8,279.2 L204.3,278.1 L204.9,277.0 L205.4,275.8 L205.9,274.7 L206.4,273.6 L206.9,272.4 L207.4,271.3
		L207.9,270.2 L208.4,269.0 L208.9,267.9 L209.4,266.7 L209.9,265.6 L210.4,264.4 L210.9,263.3 L211.4,262.1
		L211.9,260.9 L212.4,259.8 L212.9,258.6 L213.4,257.4 L213.9,256.3 L214.4,255.1 L214.9,253.9 L215.4,252.7
		L215.9,251.5 L216.4,250.4 L216.9,249.2 L217.4,248.0 L217.9,246.8 L218.4,245.6 L219.0,244.4 L219.5,243.2
		L220.0,242.0 L220.5,240.7 L221.0,239.5 L221.5,238.3 L222.0,237.1 L222.5,235.9 L223.0,234.7 L223.5,233.4
		L224.0,232.2 L224.5,231.0 L225.0,229.7 L225.5,228.5 L226.0,227.2 L226.5,226.0 L227.0,224.8 L227.5,223.5
		L228.0,222.2 L228.5,221.0 L229.0,219.7 L229.5,218.5 L230.0,217.2 L230.5,216.0 L231.0,214.7 L231.5,213.5
		L232.0,212.2 L232.5,211.0 L233.1,209.7 L233.6,208.5 L234.1,207.2 L234.6,206.0 L235.1,204.7 L235.6,203.5
		L236.1,202.3 L236.6,201.0 L237.1,199.8 L237.6,198.6 L238.1,197.3 L238.6,196.1 L239.1,194.9 L239.6,193.7
		L240.1,192.4 L240.6,191.2 L241.1,190.0 L241.6,188.8 L242.1,187.6 L242.6,186.3 L243.1,185.1 L243.6,183.9
		L244.1,182.7 L244.6,181.5 L245.1,180.3 L245.6,179.1 L246.1,177.9 L246.7,176.7 L247.2,175.5 L247.7,174.3
		L248.2,173.1 L248.7,171.9 L249.2,170.7 L249.7,169.6 L250.2,168.4 L250.7,167.2 L251.2,166.0 L251.7,164.8
		L252.2,163.6 L252.7,162.5 L253.2,161.3 L253.7,160.1 L254.2,158.9 L254.7,157.8 L255.2,156.6 L255.7,155.4
		L256.2,154.3 L256.7,153.1 L257.2,151.9 L257.7,150.8 L258.2,149.6 L258.7,148.5 L259.2,147.3 L259.7,146.2
		L260.2,145.0 L260.8,143.9 L261.3,142.7 L261.8,141.6 L262.3,140.5 L262.8,139.3 L263.3,138.2 L263.8,137.1
		L264.3,136.0 L264.8,134.9 L265.3,133.9 L265.8,132.8 L266.3,131.7 L266.8,130.6 L267.3,129.6 L267.8,128.5
		L268.3,127.5 L268.8,126.5 L269.3,125.4 L269.8,124.4 L270.3,123.4 L270.8,122.4 L271.3,121.4 L271.8,120.4
		L272.3,119.4 L272.8,118.5 L273.3,117.5 L273.8,116.5 L274.3,115.6 L274.9,114.6 L275.4,113.7 L275.9,112.8
		L276.4,111.9 L276.9,110.9 L277.4,110.0 L277.9,109.1 L278.4,108.2 L278.9,107.4 L279.4,106.5 L279.9,105.6
		L280.4,104.7 L280.9,103.9 L281.4,103.0 L281.9,102.2 L282.4,101.3 L282.9,100.5 L283.4,99.7 L283.9,98.9
		L284.4,98.1 L284.9,97.3 L285.4,96.5 L285.9,95.7 L286.4,94.9 L286.9,94.2 L287.4,93.4 L287.9,92.6
		L288.4,91.9 L289.0,91.2 L289.5,90.4 L290.0,89.7 L290.5,89.0 L291.0,88.3 L291.5,87.6 L292.0,86.9
		L292.5,86.2 L293.0,85.5 L293.5,84.8 L294.0,84.2 L294.5,83.5 L295.0,82.9 L295.5,82.3 L296.0,81.7
		L296.5,81.1 L297.0,80.5 L297.5,79.9 L298.0,79.3 L298.5,78.8 L299.0,78.2 L299.5,77.7 L300.0,77.2
		L300.5,76.7 L301.0,76.2 L301.5,75.7 L302.0,75.2 L302.6,74.7 L303.1,74.3 L303.6,73.8 L304.1,73.4
		L304.6,73.0 L305.1,72.6 L305.6,72.2 L306.1,71.8 L306.6,71.4 L307.1,71.1 L307.6,70.7 L308.1,70.4
		L308.6,70.0 L309.1,69.7 L309.6,69.4 L310.1,69.1 L310.6,68.8 L311.1,68.5 L311.6,68.3 L312.1,68.0
		L312.6,67.8 L313.1,67.5 L313.6,67.3 L314.1,67.1 L314.6,66.9 L315.1,66.7 L315.6,66.5 L316.1,66.4
		L316.7,66.2 L317.2,66.1 L317.7,65.9 L318.2,65.8 L318.7,65.7 L319.2,65.6 L319.7,65.5 L320.2,65.4
		L320.7,65.4 L321.2,65.3 L321.7,65.3 L322.2,65.2 L322.7,65.2 L323.2,65.2 L323.7,65.2 L324.2,65.2
		L324.7,65.2 L325.2,65.3 L325.7,65.3 L326.2,65.4 L326.7,65.4 L327.2,65.5 L327.7,65.6 L328.2,65.7
		L328.7,65.8 L329.2,65.9 L329.7,66.1 L330.2,66.2 L330.8,66.4 L331.3,66.5 L331.8,66.7 L332.3,66.9
		L332.8,67.1 L333.3,67.3 L333.8,67.5 L334.3,67.8 L334.8,68.0 L335.3,68.3 L335.8,68.5 L336.3,68.8
		L336.8,69.1 L337.3,69.4 L337.8,69.7 L338.3,70.0 L338.8,70.4 L339.3,70.7 L339.8,71.1 L340.3,71.4
		L340.8,71.8 L341.3,72.2 L341.8,72.6 L342.3,73.0 L342.8,73.4 L343.3,73.8 L343.8,74.3 L344.3,74.7
		L344.9,75.2 L345.4,75.7 L345.9,76.2 L346.4,76.7 L346.9,77.2 L347.4,77.7 L347.9,78.2 L348.4,78.8
		L348.9,79.3 L349.4,79.9 L349.9,80.5 L350.4,81.1 L350.9,81.7 L351.4,82.3 L351.9,82.9 L352.4,83.5
		L352.9,84.2 L353.4,84.8 L353.9,85.5 L354.4,86.2 L354.9,86.9 L355.4,87.6 L355.9,88.3 L356.4,89.0
		L356.9,89.7 L357.4,90.4 L357.9,91.2 L358.5,91.9 L359.0,92.6 L359.5,93.4 L360.0,94.2 L360.5,94.9
		L361.0,95.7 L361.5,96.5 L362.0,97.3 L362.5,98.1 L363.0,98.9 L363.5,99.7 L364.0,100.5 L364.5,101.3
		L365.0,102.2 L365.5,103.0 L366.0,103.9 L366.5,104.7 L367.0,105.6 L367.5,106.5 L368.0,107.4 L368.5,108.2
		L369.0,109.1 L369.5,110.0 L370.0,110.9 L370.5,111.9 L371.0,112.8 L371.5,113.7 L372.0,114.6 L372.6,115.6
		L373.1,116.5 L373.6,117.5 L374.1,118.5 L374.6,119.4 L375.1,120.4 L375.6,121.4 L376.1,122.4 L376.6,123.4
		L377.1,124.4 L377.6,125.4 L378.1,126.5 L378.6,127.5 L379.1,128.5 L379.6,129.6 L380.1,130.6 L380.6,131.7
		L381.1,132.8 L381.6,133.9 L382.1,134.9 L382.6,136.0 L383.1,137.1 L383.6,138.2 L384.1,139.3 L384.6,140.5
		L385.1,141.6 L385.6,142.7 L386.1,143.9 L386.7,145.0 L387.2,146.2 L387.7,147.3 L388.2,148.5 L388.7,149.6
		L389.2,150.8 L389.7,151.9 L390.2,153.1 L390.7,154.3 L391.2,155.4 L391.7,156.6 L392.2,157.8 L392.7,158.9
		L393.2,160.1 L393.7,161.3 L394.2,162.5 L394.7,163.6 L395.2,164.8 L395.7,166.0 L396.2,167.2 L396.7,168.4
		L397.2,169.6 L397.7,170.7 L398.2,171.9 L398.7,173.1 L399.2,174.3 L399.7,175.5 L400.2,176.7 L400.8,177.9
		L401.3,179.1 L401.8,180.3 L402.3,181.5 L402.8,182.7 L403.3,183.9 L403.8,185.1 L404.3,186.3 L404.8,187.6
		L405.3,188.8 L405.8,190.0 L406.3,191.2 L406.8,192.4 L407.3,193.7 L407.8,194.9 L408.3,196.1 L408.8,197.3
		L409.3,198.6 L409.8,199.8 L410.3,201.0 L410.8,202.3 L411.3,203.5 L411.8,204.7 L412.3,206.0 L412.8,207.2
		L413.3,208.5 L413.8,209.7 L414.4,211.0 L414.9,212.2 L415.4,213.5 L415.9,214.7 L416.4,216.0 L416.9,217.2
		L417.4,218.5 L417.9,219.7 L418.4,221.0 L418.9,222.2 L419.4,223.5 L419.9,224.8 L420.4,226.0 L420.9,227.2
		L421.4,228.5 L421.9,229.7 L422.4,231.0 L422.9,232.2 L423.4,233.4 L423.9,234.7 L424.4,235.9 L424.9,237.1
		L425.4,238.3 L425.9,239.5 L426.4,240.7 L426.9,242.0 L427.4,243.2 L427.9,244.4 L428.5,245.6 L429.0,246.8
		L429.5,248.0 L430.0,249.2 L430.5,250.4 L431.0,251.5 L431.5,252.7 L432.0,253.9 L432.5,255.1 L433.0,256.3
		L433.5,257.4 L434.0,258.6 L434.5,259.8 L435.0,260.9 L435.5,262.1 L436.0,263.3 L436.5,264.4 L437.0,265.6
		L437.5,266.7 L438.0,267.9 L438.5,269.0 L439.0,270.2 L439.5,271.3 L440.0,272.4 L440.5,273.6 L441.0,274.7
		L441.5,275.8 L442.0,277.0 L442.6,278.1 L443.1,279.2 L443.6,280.3 L444.1,281.4 L444.6,282.6 L445.1,283.7
		L445.6,284.8 L446.1,285.9 L446.6,287.0 L447.1,288.1 L447.6,289.2 L448.1,290.3 L448.6,291.4 L449.1,292.4
		L449.6,293.5 L450.1,294.6 L450.6,295.7 L451.1,296.8 L451.6,297.8 L452.1,298.9 L452.6,299.9 L453.1,301.0
		L453.6,302.0 L454.1,303.1 L454.6,304.1 L455.1,305.1 L455.6,306.1 L456.1,307.2 L456.7,308.2 L457.2,309.2
		L457.7,310.2 L458.2,311.2 L458.7,312.2 L459.2,313.2 L459.7,314.2 L460.2,315.1 L460.7,316.1 L461.2,317.1
		L461.7,318.0 L462.2,319.0 L462.7,320.0 L463.2,320.9 L463.7,321.8 L464.2,322.8 L464.7,323.7 L465.2,324.6
		L465.7,325.6 L466.2,326.5 L466.7,327.4 L467.2,328.3 L467.7,329.2 L468.2,330.1 L468.7,331.0 L469.2,331.9
		L469.7,332.8 L470.3,333.7 L470.8,334.5 L471.3,335.4 L471.8,336.3 L472.3,337.1 L472.8,338.0 L473.3,338.8
		L473.8,339.7 L474.3,340.5 L474.8,341.3 L475.3,342.2 L475.8,343.0 L476.3,343.8 L476.8,344.6 L477.3,345.4
		L477.8,346.2 L478.3,347.0 L478.8,347.8 L479.3,348.6 L479.8,349.4 L480.3,350.2 L480.8,351.0 L481.3,351.7
		L481.8,352.5 L482.3,353.2 L482.8,354.0 L483.3,354.8 L483.8,355.5 L484.4,356.2 L484.9,357.0 L485.4,357.7
		L485.9,358.4 L486.4,359.1 L486.9,359.9 L487.4,360.6 L487.9,361.3 L488.4,362.0 L488.9,362.7 L489.4,363.4
		L489.9,364.0 L490.4,364.7 L490.9,365.4 L491.4,366.1 L491.9,366.7 L492.4,367.4 L492.9,368.1 L493.4,368.7
		L493.9,369.4 L494.4,370.0 L494.9,370.6 L495.4,371.3 L495.9,371.9 L496.4,372.5 L496.9,373.1 L497.4,373.7
		L497.9,374.3 L498.5,374.9 L499.0,375.5 L499.5,376.1 L500.0,376.7 L500.5,377.3 L501.0,377.9 L501.5,378.5
		L502.0,379.0 L502.5,379.6 L503.0,380.1 L503.5,380.7 L504.0,381.2 L504.5,381.8 L505.0,382.3 L505.5,382.9
		L506.0,383.4 L506.5,383.9 L507.0,384.4 L507.5,384.9 L508.0,385.4 L508.5,386.0 L509.0,386.4 L509.5,386.9
		L510.0,387.4 L510.5,387.9 L511.0,388.4 L511.5,388.9 L512.0,389.3 L512.6,389.8 L513.1,390.3 L513.6,390.7
		L514.1,391.2 L514.6,391.6 L515.1,392.1 L515.6,392.5 L516.1,393.0 L516.6,393.4 L517.1,393.8 L517.6,394.3
		L518.1,394.7 L518.6,395.1 L519.1,395.5 L519.6,395.9 L520.1,396.3 L520.6,396.8 L521.1,397.2 L521.6,397.6
		L522.1,398.0 L522.6,398.3 L523.1,398.7 L523.6,399.1 L524.1,399.5 L524.6,399.9 L525.1,400.3 L525.6,400.6
		L526.2,401.0 L526.7,401.4 L527.2,401.7 L527.7,402.1 L528.2,402.4 L528.7,402.8 L529.2,403.1 L529.7,403.5
		L530.2,403.8 L530.7,404.1 L531.2,404.5 L531.7,404.8 L532.2,405.1 L532.7,405.4 L533.2,405.8 L533.7,406.1
		L534.2,406.4 L534.7,406.7 L535.2,407.0 L535.7,407.3 L536.2,407.6 L536.7,407.9 L537.2,408.2 L537.7,408.5
		L538.2,408.7 L538.7,409.0 L539.2,409.3 L539.7,409.6 L540.3,409.8 L540.8,410.1 L541.3,410.4 L541.8,410.6
		L542.3,410.9 L542.8,411.1 L543.3,411.4 L543.8,411.6 L544.3,411.8 L544.8,412.1 L545.3,412.3 L545.8,412.5
		L546.3,412.8 L546.8,413.0 L547.3,413.2 L547.8,413.5 L548.3,413.7 L548.8,413.9 L549.3,414.1 L549.8,414.3
		L550.3,414.5 L550.8,414.8 L551.3,415.0 L551.8,415.2 L552.3,415.4 L552.8,415.6 L553.3,415.8 L553.8,416.0
		L554.4,416.2 L554.9,416.4 L555.4,416.6 L555.9,416.8 L556.4,416.9 L556.9,417.1 L557.4,417.3 L557.9,417.5
		L558.4,417.7 L558.9,417.8 L559.4,418.0 L559.9,418.2 L560.4,418.4 L560.9,418.5 L561.4,418.7 L561.9,418.9
		L562.4,419.0 L562.9,419.2 L563.4,419.4 L563.9,419.5 L564.4,419.7 L564.9,419.8 L565.4,420.0 L565.9,420.1
		L566.4,420.3 L566.9,420.4 L567.4,420.5 L567.9,420.7 L568.5,420.8 L569.0,420.9 L569.5,421.1 L570.0,421.2
		L570.5,421.3 L571.0,421.5 L571.5,421.6 L572.0,421.7 L572.5,421.8 L573.0,422.0 L573.5,422.1 L574.0,422.2
		L574.5,422.3 L575.0,422.4  '/></g>
	</g>
<g fill="none" color="white" stroke="rgb(  0, 158, 115)" stroke-width="2.00" stroke-linecap="butt" stroke-linejoin="miter">
</g>
<g fill="none" color="black" stroke="currentColor" stroke-width="2.00" stroke-linecap="butt" stroke-linejoin="miter">
</g>
<g fill="none" color="black" stroke="black" stroke-width="1.00" stroke-linecap="butt" stroke-linejoin="miter">
</g>
<g fill="none" color="black" stroke="currentColor" stroke-width="1.00" stroke-linecap="butt" stroke-linejoin="miter">
	<path stroke='black'  d='M71.9,54.1 L71.9,422.4 L575.0,422.4 L575.0,54.1 L71.9,54.1 Z  '/></g>
<g fill="none" color="black" stroke="currentColor" stroke-width="1.00" stroke-linecap="butt" stroke-linejoin="miter">
</g>
</g>
</svg>

