0	1
0.0135987236677003	1.00000000924626
0.0268596071119672	1.00000003607003
0.0399998375594742	1.00000007998908
0.0530994514542452	1.00000014094499
0.0661887434640414	1.00000021896819
0.0792795994133848	1.00000031409897
0.0923770428097444	1.00000042637351
0.10548353371367	1.00000055582424
0.118600576991026	1.00000070248212
0.13172932428461	1.00000086637833
0.144870800001019	1.00000104754513
0.15802598654239	1.00000124601641
0.171195856877367	1.00000146182789
0.184381386991928	1.00000169501726
0.197583561225719	1.00000194562429
0.210803375129627	1.00000221369085
0.224041836834302	1.00000249926099
0.23729996814162	1.00000280238103
0.250578806006525	1.00000312309955
0.2638794031616	1.00000346146751
0.277202829599054	1.00000381753832
0.290550173662131	1.00000419136788
0.303922543027069	1.00000458301468
0.317321066113274	1.00000499253992
0.33074689358829	1.00000542000753
0.344201199323371	1.00000586548434
0.357685182266076	1.00000632904017
0.371200067439301	1.00000681074791
0.384747108163129	1.00000731068368
0.398327587080328	1.00000782892697
0.411942818482801	1.00000836556075
0.42559415026869	1.00000892067167
0.439282965284248	1.00000949435017
0.453010683912062	1.00001008669069
0.466778766349872	1.00001069779188
0.480588714626145	1.00001132775674
0.494442076018542	1.00001197669292
0.508340444722432	1.0000126447129
0.522285465365488	1.00001333193427
0.536278836000873	1.00001403847999
0.550322311632289	1.00001476447871
0.564417707561975	1.00001551006508
0.578566903096897	1.00001627538007
0.592771846472669	1.0000170605714
0.607034558281638	1.00001786579391
0.62135713709837	1.00001869121
0.635741764282555	1.00001953699013
0.650190710110259	1.00002040331332
0.664706339424795	1.00002129036775
0.679291118571904	1.00002219835135
0.693947622646471	1.00002312747247
0.70867854347331	1.00002407795066
0.723486698519248	1.00002505001748
0.738375039803083	1.00002604391733
0.753346665218313	1.00002705990852
0.768404829537627	1.00002809826433
0.783552957264969	1.00002915927417
0.798794656346025	1.00003024324494
0.814133734527405	1.00003135050253
0.829471474377109	1.00003247381491
0.844757777845739	1.00003360916713
0.859975848034705	1.00003475486305
0.875121466644346	1.00003591010852
0.890195078201642	1.00003707446024
0.905198791386718	1.00003824761277
0.920135250814221	1.00003942931635
0.935007217315489	1.00004061934522
0.949817415767195	1.00004181748525
0.96456848352562	1.0000430235291
0.979262956350706	1.00004423727421
0.993903268033582	1.0000454585219
1.00849175476617	1.00004668707691
1.0230306609256	1.00004792274709
1.03752214504738	1.00004916534323
1.05196828557158	1.00005041467882
1.06637108621795	1.00005167056995
1.08073248098624	1.00005293283508
1.09505433878	1.00005420129497
1.10933846769655	1.0000554757725
1.12358661899991	1.00005675609257
1.13780049081564	1.00005804208197
1.15198173156677	1.00005933356925
1.16613194317696	1.00006063038463
1.18025268406022	1.0000619323599
1.19434547192044	1.00006323932831
1.20841178637264	1.00006455112447
1.22245307140266	1.00006586758426
1.23647073768312	1.00006718854476
1.25046616475342	1.00006851384415
1.26444070307996	1.00006984332164
1.27839567600095	1.00007117681738
1.29233238157251	1.00007251417236
1.30625209432038	1.00007385522842
1.32015606690327	1.00007519982809
1.33404553170136	1.00007654781455
1.34792170233419	1.0000778990316
1.36178577511002	1.00007925332353
1.37563893041839	1.00008061053511
1.38948233406782	1.0000819705115
1.4033171385755	1.00008333309819
1.41714448441114	1.00008469814095
1.43096550120293	1.00008606548577
1.44478130890609	1.00008743497879
1.4585930189399	1.00008880646624
1.47240173529844	1.00009017979442
1.48620855563215	1.00009155480959
1.50001457231408	1.00009293135794
1.51382087348303	1.00009430928553
1.52762854407275	1.00009568843826
1.54143866683013	1.00009706866176
1.55525232332431	1.00009844980138
1.56907059494705	1.00009983170211
1.58289456391139	1.00010121420853
1.59672531425214	1.00010259716477
1.61056393282279	1.00010398041441
1.62441151029911	1.00010536380046
1.6382691421935	1.00010674716529
1.65213792987691	1.00010813035056
1.6660189816134	1.0001095131972
1.67991341361194	1.00011089554526
1.69382235109739	1.00011227723396
1.70774692940361	1.00011365810153
1.72168829509291	1.0001150379852
1.73564760710054	1.00011641672111
1.74962603791862	1.00011779414424
1.76362477480975	1.00011917008836
1.7776450210642	1.00012054438592
1.79168799729868	1.00012191686802
1.80575494280654	1.00012328736428
1.81984711696052	1.0001246557028
1.83396580067269	1.00012602171007
1.84811229791813	1.00012738521085
1.86228793733091	1.00012874602813
1.8764940738707	1.00013010398299
1.89073209058012	1.00013145889453
1.90500340042314	1.00013281057977
1.91930944822605	1.00013415885352
1.93365171272722	1.00013550352829
1.94803170873648	1.00013684441414
1.96245098942602	1.00013818131863
1.97691114875711	1.00013951404659
1.99141382405804	1.00014084240007
2.0059606987624	1.00014216617816
2.02055350532838	1.00014348517683
2.03519402835537	1.00014479918881
2.04988410790655	1.00014610800337
2.06462564307494	1.00014741140618
2.07942059579534	1.00014870917912
2.09427099494485	1.00015000110005
2.10917894074582	1.00015128694264
2.12414660951473	1.00015256647611
2.13917625877875	1.000153839465
2.15427023280901	1.0001551056689
2.16943096860904	1.00015636484221
2.18466100241198	1.00015761673379
2.19996297673063	1.00015886108669
2.21533964804105	1.00016009763779
2.23079389515503	1.00016132611742
2.24632872836939	1.00016254624898
2.26194729948428	1.00016375774852
2.2776529127921	1.00016496032425
2.29344903716415	1.00016615367605
2.30933931937054	1.00016733749494
2.32532759878825	1.00016851146244
2.34141792369955	1.00016967524997
2.35761456937921	1.00017082851809
2.37392205823052	1.00017197091576
2.39033516512698	1.00017310139549
2.40673088421682	1.00017421102594
2.42306492442593	1.00017529665526
2.43932313683898	1.00017635730537
2.45550270696639	1.00017739279789
2.47160498412826	1.00017840323891
2.48763277010137	1.00017938882772
2.5035893020706	1.0001803497865
2.51947787676499	1.00018128633512
2.53530171699901	1.00018219868259
2.55106392932058	1.00018308702462
2.56676749404186	1.00018395154339
2.58241526835687	1.00018479240804
2.59800999301314	1.0001856097754
2.61355430010002	1.00018640379079
2.62905072047076	1.00018717458869
2.64450169121338	1.00018792229342
2.6599095625883	1.00018864701984
2.6752766042191	1.00018934887381
2.69060501057607	1.0001900279528
2.70589690659717	1.00019068434628
2.72115435238925	1.00019131813621
2.73637934798762	1.00019192939742
2.75157383767369	1.00019251819795
2.76673971374592	1.00019308459942
2.78187882018302	1.00019362865731
2.79699295662574	1.00019415042124
2.81208388105445	1.00019464993525
2.8271533132187	1.00019512723799
2.84220293719951	1.00019558236297
2.8572344044117	1.00019601533875
2.87224933589672	1.00019642618911
2.88724932508036	1.00019681493322
2.902235939851	1.00019718158579
2.91721072507108	1.0001975261572
2.93217520433918	1.00019784865365
2.947130882322	1.00019814907722
2.962079246513	1.00019842742602
2.97702176915127	1.00019868369426
2.99195990902563	1.00019891787231
3.00689511353052	1.00019912994681
3.02182882013728	1.00019931990071
3.03676245790997	1.0001994877133
3.05169744945943	1.00019963336029
3.0666352123802	1.00019975681382
3.08157716088737	1.0001998580425
3.09652470742914	1.00019993701143
3.11147926418082	1.0001999936822
3.12644224468554	1.0002000280129
3.14141506512959	1.00020003995811
3.15639914634135	1.0002000294689
3.17139591489098	1.00019999649281
3.18640680499042	1.00019994097381
3.20143325991039	1.00019986285228
3.21647673362121	1.00019976206495
3.23153869248576	1.00019963854487
3.24662061680569	1.00019949222136
3.26172400273793	1.0001993230199
3.27685036375184	1.0001991308621
3.29200123272671	1.00019891566559
3.30717816372909	1.00019867734393
3.32238273371428	1.00019841580652
3.33761654491099	1.00019813095847
3.3528812264793	1.00019782270048
3.36817843697538	1.00019749092871
3.38350986674372	1.00019713553463
3.39887723985992	1.00019675640485
3.41428231698163	1.00019635342094
3.42972689781959	1.00019592645927
3.44521282403578	1.00019547539075
3.46074198178554	1.0001950000807
3.47631630526309	1.00019450038849
3.4919377796998	1.00019397616737
3.5076084450041	1.00019342726416
3.52333039948889	1.00019285351892
3.53910580354956	1.00019225476466
3.55493688433817	1.00019163082696
3.5708259397265	1.00019098152359
3.58677534350363	1.00019030666408
3.60278755058367	1.00018960604927
3.61886510251826	1.00018887947084
3.63501063353059	1.00018812671073
3.65122687701102	1.00018734754058
3.66751667258223	1.0001865417211
3.68388297388999	1.00018570900136
3.70032885668997	1.00018484911804
3.71685752790481	1.0001839617946
3.73347233574045	1.00018304674038
3.75017677999405	1.00018210364959
3.76697452435003	1.00018113220024
3.78386940902252	1.00018013205288
3.8008654650321	1.00017910284934
3.8179669299436	1.00017804421123
3.83517826514868	1.00017695573828
3.85250417518172	1.00017583700659
3.86994962910028	1.00017468756655
3.88751988399169	1.00017350694066
3.90522051183617	1.00017229462095
3.92305742936678	1.0001710500662
3.94103693140013	1.00016977269869
3.95916572860905	1.0001684619007
3.97732689594283	1.00016712621365
3.99543926307306	1.00016577207594
4.01347549907249	1.00016440219962
4.03142865400741	1.00016301783806
4.04929932954707	1.00016161967488
4.06709081455938	1.00016020816921
4.08480725697551	1.00015878368939
4.1024529863085	1.00015734656475
4.12003227041865	1.00015589710592
4.13754923520845	1.00015443561278
4.15500784475564	1.00015296237789
4.17241190325562	1.00015147768799
4.18976506431791	1.00014998182477
4.20707084225131	1.00014847506547
4.22433262341689	1.0001469576832
4.24155367700075	1.00014542994732
4.25873716502702	1.00014389212375
4.27588615162026	1.00014234447524
4.29300361155613	1.00014078726164
4.31009243817617	1.00013922074015
4.32715545073518	1.00013764516557
4.34419540123784	1.00013606079054
4.36121498082205	1.00013446786572
4.37821682574828	1.00013286664006
4.39520352302497	1.00013125736093
4.41217761572569	1.00012964027441
4.42914160802975	1.00012801562539
4.44609797001295	1.00012638365781
4.46304914222889	1.00012474461483
4.47999754010601	1.000123098739
4.49694555817994	1.00012144627244
4.51389557419463	1.00011978745702
4.53084995308473	1.00011812253451
4.54781105086998	1.00011645174676
4.56478121847077	1.00011477533587
4.58176280547539	1.00011309354435
4.59875816386566	1.0001114066153
4.61576965172714	1.00010971479255
4.63279963695859	1.00010801832086
4.64985050099437	1.00010631744609
4.66692464256305	1.00010461241534
4.68402448149888	1.00010290347718
4.70115246261732	1.00010119088177
4.71831105967859	1.0000994748811
4.73550277945866	1.00009775572914
4.75273016594367	1.00009603368208
4.76999580467095	1.00009430899847
4.78730232723776	1.00009258193947
4.80465241600169	1.00009085276909
4.82204880899647	1.00008912175435
4.83949430509608	1.00008738916556
4.85699176944247	1.00008565527658
4.87454413918853	1.00008392036504
4.8921544295736	1.00008218471264
4.9098257403823	1.00008044860541
4.9275612628193	1.00007871233404
4.94536428685548	1.00007697619421
4.96323820909544	1.00007524048688
4.98118654121917	1.0000735055187
4.99921291906568	1.00007177160238
5.01732111243632	1.0000700390571
5.03551503569313	1.00006830820895
5.05379875924425	1.00006657939141
5.07217652202469	1.00006485294583
5.09065274508832	1.00006312922205
5.10923204644172	1.00006140857889
5.12791925727887	1.0000596913849
5.14671943978839	1.00005797801895
5.16563790673384	1.00005626887107
5.18468024303928	1.00005456434324
5.20385232964443	1.00005286485027
5.22316036994467	1.00005117082085
5.24261091917164	1.00004948269856
5.26221091713283	1.00004780094312
5.28196772481093	1.00004612603171
5.30188916539507	1.00004445846039
5.32198357042992	1.00004279874579
5.34225983190772	1.00004114742689
5.36272746126048	1.00003950506705
5.38339665642843	1.00003787225633
5.40427837839961	1.00003624961404
5.42538443893283	1.00003463779169
5.44672760153662	1.00003303747627
5.46832169824616	1.00003144939408
5.49018176535241	1.0000298743151
5.51232420199537	1.00002831305798
5.53476695653933	1.00002676649593
5.55737151809363	1.00002524607251
5.57999988559289	1.00002376230621
5.60260772734417	1.00002231887026
5.62518634562952	1.00002091692744
5.6477404101354	1.00001955675974
5.67027956690808	1.00001823837098
5.69281533449106	1.00001696170721
5.71536000174926	1.0000157267362
5.73792628323946	1.00001453347571
5.76052726400627	1.00001338200352
5.78317646093542	1.00001227246127
5.80588793621188	1.00001120505679
5.82867644490903	1.00001018006639
5.85155761190461	1.00000919783795
5.87454814340374	1.00000825879514
5.89766608198375	1.00000736344306
5.92093111919553	1.00000651237561
5.94436498615431	1.00000570628509
5.96799194903393	1.00000494597461
5.99183945219653	1.00000423237417
6.01593896915657	1.00000356656164
6.04032715607179	1.00000294979063
6.06504745772565	1.00000238352796
6.09015241186025	1.00000186950542
6.11570707951472	1.00000140979321
6.14179438038855	1.00000100690824
6.16852386069774	1.00000066398151
6.19604715673335	1.00000038503357
6.22458799940503	1.00000017546816
6.25450898584076	1.0000000430738
6.28318530717959	1.000000000161


0	1
0.00723444219040308	0.996382810457308
0.0142332380661398	0.992883621252199
0.021146699808866	0.989427438117246
0.0280295193443457	0.98598707538548
0.034902041058212	0.982552522262995
0.0417719400555632	0.979120103423662
0.0486421712677869	0.975688504107539
0.0555139245459224	0.972257292431403
0.0623877289268139	0.968826367232706
0.0692638660849218	0.965395751365691
0.076142525254915	0.961965514273056
0.0830238613084573	0.958535742980213
0.08990801653976	0.955106531232633
0.0967951288503098	0.95167797543151
0.103685334836324	0.948250173116847
0.110578770966169	0.944823222404987
0.117475574042306	0.941397221783735
0.124375881395005	0.937972270041657
0.131279830976189	0.934548466247541
0.138187561415914	0.93112590974879
0.145099212065173	0.927704700176994
0.152014923033927	0.924284937456225
0.158934835227692	0.920866721812427
0.165859090383835	0.917450153783354
0.172787831108261	0.914035334228722
0.179721200912513	0.910622364340598
0.186659344251444	0.907211345653952
0.193602406561663	0.903802380057313
0.200550534300564	0.900395569803633
0.207503874986027	0.896991017521334
0.214462577237039	0.893588826225462
0.221426790814909	0.890189099329098
0.228396666665448	0.886791940654906
0.23537235696208	0.883397454446831
0.242354015149581	0.880005745382142
0.24934179598912	0.876616918583504
0.256335855604072	0.873231079631379
0.263336351526816	0.869848334576675
0.270343442746871	0.866468789953502
0.277357289759811	0.863092552792339
0.284378054617713	0.859719730633285
0.291405900980567	0.856350431539697
0.298440994169104	0.852984764112037
0.305483501218859	0.849622837502046
0.312533590935811	0.84626476142713
0.31959143395322	0.842910646185167
0.326657202790211	0.839560602669533
0.333731071911781	0.836214742384512
0.340813217790542	0.832873177461034
0.347903818970229	0.829536020672722
0.35500305613088	0.826203385452387
0.362111112156007	0.822875385908834
0.369228172201545	0.819552136844168
0.376354423767215	0.816233753771318
0.383490056769577	0.812920352932218
0.390635263617664	0.80961205131625
0.397790239290679	0.806308966679288
0.404955181418314	0.803011217563119
0.412130290363497	0.799718923315427
0.419315769307855	0.79643220411026
0.426511824339919	0.793151180969051
0.433718664546254	0.789875975782196
0.440936502105532	0.786606711331242
0.448165552385943	0.783343511311626
0.455406034045695	0.78008650035613
0.462658169137246	0.776835804058888
0.469922183214875	0.773591549000209
0.477198305446356	0.770353862771976
0.484486768728406	0.767122874003887
0.491787809806352	0.763898712390453
0.499101669398224	0.760681508718772
0.506428592323403	0.757471394897175
0.513768827636033	0.754268503984756
0.521122628763567	0.751072970221794
0.528490253650563	0.747884929061149
0.535871964908057	0.744704517200645
0.543268029968713	0.74153187261654
0.550678721248223	0.738367134598029
0.558104316313127	0.735210443782904
0.565545098055284	0.732061942194472
0.573001354873705	0.728921773279617
0.580473380863805	0.725790081948227
0.587961476014548	0.722667014613977
0.595465946413942	0.719552719236566
0.602987104463354	0.716447345365424
0.610525269101127	0.713351044184993
0.618080766035991	0.710263968561654
0.625653927990708	0.707186273092426
0.633245094956762	0.70411811415543
0.640854614460526	0.70105964996229
0.648482841841664	0.698011040612525
0.656130140544439	0.694972448150048
0.663796882422624	0.691944036621926
0.671483448059151	0.688925972139355
0.679190227100718	0.685918422941262
0.686917618609106	0.682921559460328
0.694666031429544	0.679935554391835
0.702435884577458	0.676960582765386
0.710227607644774	0.673996822019651
0.718041641227057	0.671044452080289
0.7258784373727	0.668103655441288
0.733738460055547	0.665174617249929
0.741622185672867	0.66225752539544
0.749530103569804	0.659352570601792
0.757462716592549	0.656459946524685
0.7654205416722	0.653579849853006
0.773404110440962	0.650712480415187
0.781413969883511	0.647858041290577
0.789450683025695	0.645016738926262
0.797514829663524	0.642188783259585
0.805590626702455	0.639380061040916
0.813656264941133	0.636598346530857
0.821703835154644	0.633846424685295
0.829730686905243	0.631125209230939
0.837736146239483	0.628434917629939
0.845720275451735	0.625775511436121
0.853683405613152	0.623146860874207
0.861625960740274	0.620548806183065
0.869548391898193	0.617981180364309
0.877451152713021	0.615443817516373
0.885334690468041	0.612936555792058
0.893199443053658	0.610459238356194
0.90104583810622	0.60801171360439
0.908874292957203	0.605593835112994
0.91668521487336	0.603205461495692
0.924479001393789	0.600846456231593
0.93225604069147	0.598516687488672
0.940016711932615	0.596216027951118
0.947761385624554	0.593944354653461
0.955490423949293	0.59170154882219
0.963204181082207	0.589487495724882
0.970903003496305	0.587302084526543
0.978587230252749	0.58514520815278
0.986257193278084	0.583016763159533
0.993913217629281	0.580916649608886
1.00155562174705	0.578844770950676
1.00918471769795	0.576801033909642
1.01680081140636	0.574785348377651
1.02440420287629	0.572797627310926
1.03199518640394	0.570837786631877
1.03957405078158	0.568905745135288
1.04714107949286	0.567001424398724
1.05469655090031	0.565124748696875
1.06224073842535	0.563275644919614
1.06977391072101	0.561454042493672
1.07729633183814	0.559659873307657
1.08480826138493	0.557893071640298
1.09230995468063	0.556153574091743
1.09980166290329	0.554441319517763
1.10728363323203	0.552756248966742
1.1147561089842	0.551098305619281
1.12221932974736	0.549467434730358
1.12967353150675	0.547863583573841
1.13711894676823	0.546286701389299
1.14455580467676	0.544736739331037
1.15198433113097	0.54321365041918
1.15940474889382	0.541717389492765
1.16681727769952	0.540247913164741
1.17422213435701	0.538805179778775
1.18161953284994	0.537389149367846
1.18900968443359	0.53599978361448
1.19639279772858	0.534637045812598
1.20376907881191	0.533300900830892
1.21113873130489	0.531991315077703
1.21850195645872	0.530708256467281
1.22585895323738	0.52945169438742
1.23320991839812	0.528221599668405
1.24055504656973	0.527017944553203
1.24789453032848	0.525840702668868
1.25522856027203	0.524689848999111
1.26255732509133	0.52356535985799
1.26988101164074	0.522467212864651
1.277199805006	0.521395386919167
1.28451388857076	0.520349862179328
1.2918234440814	0.519330620038411
1.29912865171014	0.518337643103906
1.30642969011674	0.517370915177128
1.3137267365087	0.516430421233711
1.32101996670014	0.515516147404949
1.32830955516943	0.514628080959943
1.33559567511531	0.513766210288573
1.34287849851219	0.512930524885207
1.35015819616405	0.512121015333178
1.35743493775741	0.51133767328998
1.36470889191318	0.510580491473179
1.37198022623764	0.509849463646994
1.37924910737244	0.509144584609568
1.38651570104377	0.508465850180869
1.39378017211057	0.50781325719125
1.40104268461223	0.507186803470607
1.40830340181534	0.506586487838148
1.41556248625987	0.506012310092761
1.42282009980453	0.505464271003964
1.43007640367179	0.504942372303402
1.43733155849198	0.504446616676934
1.44458572434727	0.503977007757225
1.45183906081477	0.503533550116911
1.45909172700955	0.50311624926226
1.46634388162679	0.502725111627381
1.47359568298394	0.502360144568923
1.48084728906232	0.502021356361287
1.48809885754853	0.501708756192329
1.49535054587536	0.501422354159567
1.50260251126265	0.50116216126686
1.50985491075796	0.50092818942158
1.51710790127679	0.500720451432255
1.52436163964296	0.500538961006691
1.5316162826286	0.500383732750566
1.53887198699417	0.500254782166487
1.54612890952844	0.500152125653524
1.55338720708827	0.5000757805072
1.56064703663879	0.500025764919953
1.56790855529298	0.500002097982062
1.57517192035186	0.500004799683037
1.58243728934454	0.500033890913477
1.58970482006832	0.500089393467394
1.59697467062913	0.500171330045007
1.60424699948198	0.500279724256013
1.61152196547172	0.500414600623324
1.6187997278739	0.50057598458729
1.62608044643615	0.500763902510404
1.63336428141967	0.500978381682491
1.64065139364113	0.501219450326393
1.6479419445149	0.501487137604154
1.6552360960957	0.501781473623705
1.66253401112177	0.502102489446068
1.66983585305833	0.502450217093071
1.67714178614178	0.502824689555604
1.68445197542427	0.503225940802398
1.69176658681893	0.503654005789363
1.69908578714577	0.504108920469479
1.70640974417796	0.504590721803245
1.7137386266893	0.505099447769729
1.72107260450195	0.505635137378192
1.72841184853528	0.50619783068033
1.73575653085537	0.506787568783131
1.74310682472544	0.507404393862367
1.75046290465714	0.508048349176738
1.75782494646297	0.508719479082687
1.7651931273095	0.509417829049898
1.77256762577182	0.510143445677497
1.77994862188899	0.510896376710982
1.78733629722079	0.511676671059897
1.79473083490563	0.512484378816273
1.80213241971972	0.513319551273859
1.80954123813764	0.514182240948165
1.81695747839438	0.515072501597367
1.82438133054876	0.515990388244047
1.83181298654835	0.516935957197848
1.83925264029626	0.517909266079067
1.84670048771941	0.518910373843186
1.85415672683855	0.519939340806404
1.86162155784042	0.520996228672203
1.86909518315146	0.522081100558968
1.87657780751389	0.523194021028714
1.88406963806369	0.524335056116958
1.89157088441092	0.525504273363773
1.89908175872231	0.526701741846085
1.90660247580634	0.527927532211245
1.91413325320078	0.52918171671193
1.9216743112629	0.530464369242419
1.92922587326249	0.531775565376325
1.93678816547793	0.533115382405842
1.94436141729497	0.534483899382491
1.95194586130891	0.53588119715955
1.95954173343011	0.537307358436146
1.96714927299305	0.538762467803155
1.9747687228688	0.540246611790882
1.98240032958163	0.541759878918737
1.99004434342936	0.54330235974686
1.99770101860816	0.544874146929903
2.00537061334148	0.546475335272952
2.01305339001391	0.548106021789805
2.02074961530961	0.549766305763601
2.02845956035607	0.551456288810026
2.03618350087298	0.553176074943093
2.04392171732684	0.554925770643727
2.0516744950915	0.556705484931253
2.05944212461474	0.558515329437897
2.06722490159146	0.56035541848649
2.07502312714369	0.562225869171552
2.08283710800782	0.564126801443859
2.09066715672936	0.566058338198747
2.09851359186555	0.56802060536826
2.10637673819669	0.570013732017469
2.11425692694604	0.572037850445063
2.1221544960092	0.574093096288506
2.13006979019315	0.576179608633959
2.13800316146589	0.578297530131285
2.14595496921697	0.580447007114406
2.15392558052954	0.582628189727264
2.1619153704648	0.584841232055755
2.16992472235923	0.58708629226596
2.17795402813565	0.589363532749026
2.18600368862864	0.591673120273081
2.19407411392563	0.59401522614268
2.20216572372404	0.596390026366123
2.21027894770577	0.598797701831152
2.21841422593003	0.601238438489594
2.22657200924583	0.603712427551481
2.23475275972489	0.606219865689158
2.24295695111693	0.608760955252201
2.25118506932806	0.6113359044936
2.2594376129245	0.613944927808184
2.26771509366268	0.616588245983912
2.27601803704781	0.619266086466956
2.28434698292299	0.621978683641603
2.29270248609028	0.624726279125757
2.30108511696685	0.6275091220834
2.3094954622779	0.630327469554987
2.31793412578953	0.633181586807202
2.32640172908404	0.636071747703409
2.33489891238095	0.638998235096284
2.34342633540705	0.641961341244336
2.35198467831941	0.644961368254149
2.36057464268489	0.64799862855018
2.36919695252096	0.651073445374374
2.37783341990975	0.654179315260122
2.38645928687014	0.657307119723883
2.39506559491639	0.660453243598043
2.4036493647159	0.663616179457656
2.41220986355368	0.666795224954247
2.42074719460482	0.669989985793968
2.42926176518156	0.673200186494099
2.43775408677271	0.67642559836405
2.44622470016629	0.679666012076389
2.45467414768813	0.682921227189223
2.46310296316821	0.686191048111469
2.47151166856265	0.689475282517708
2.47990077306051	0.692773740695238
2.48827077310674	0.696086235247273
2.49662215275093	0.699412580933214
2.5049553841011	0.702752594562856
2.51327092780043	0.706106094912798
2.52156923349726	0.709472902653051
2.52985074029794	0.712852840279036
2.53811587719973	0.716245732047233
2.54636506350316	0.719651403913516
2.55459870920511	0.723069683474063
2.56281721537292	0.726500399908367
2.57102097450114	0.729943383924375
2.57921037085155	0.73339846770556
2.58738578077765	0.736865484859853
2.59554757303443	0.740344270370319
2.60369610907429	0.743834660547521
2.61183174332989	0.747336492983429
2.61995482348473	0.750849606506888
2.62806569073208	0.754373841140491
2.63616468002293	0.757909038058792
2.6442521203036	0.761455039547878
2.65232833474363	0.765011688966152
2.66039364095428	0.768578830706277
2.66844835119831	0.772156310158238
2.67649277259155	0.775743973673534
2.68452720729654	0.779341668530309
2.69255195270882	0.782949242899532
2.70056730163601	0.786566545812026
2.7085735424705	0.790193427126473
2.71657095935549	0.793829737498166
2.72455983234527	0.797475328348631
2.73254043755969	0.801130051835991
2.74051304733335	0.804793760826105
2.7484779303594	0.808466308864292
2.75643535182879	0.812147550147871
2.76438557356471	0.815837339499217
2.77232885415264	0.819535532339473
2.78026544906627	0.823241984662827
2.78819561078957	0.826956553011376
2.79611958893484	0.830679094450433
2.80403763035739	0.834409466544414
2.81194997926679	0.83814752733315
2.81985687733486	0.841893135308698
2.82775856380057	0.845646149392526
2.8356552755721	0.84940642891314
2.84354724732612	0.853173833584119
2.8514347116043	0.856948223482437
2.85931789890756	0.86072945902723
2.86719703778791	0.864517400958884
2.87507235493785	0.868311910318358
2.88294407527789	0.872112848426882
2.89081242204188	0.875920076865896
2.89867761686059	0.879733457457282
2.90653987984329	0.883552852243796
2.91439942965789	0.887378123469796
2.92225648360923	0.891209133562155
2.93011125771599	0.895045745111369
2.93796396678614	0.898887820852873
2.94581482449094	0.902735223648493
2.95366404343794	0.90658781646816
2.96151183524253	0.910445462371667
2.96935841059854	0.914308024490605
2.9772039793477	0.918175366010428
2.98504875054828	0.922047350152628
2.99289293254274	0.925923840157017
3.0007367330246	0.929804699264079
3.0085803591045	0.933689790697392
3.01642401737573	0.937578977646176
3.02426791397893	0.941472123247794
3.03211225466639	0.945369090570404
3.0399572448658	0.949269742595561
3.04780308974352	0.953173942200852
3.05564999426753	0.957081552142587
3.06349816327006	0.960992435038445
3.07134780150992	0.964906453350105
3.07919911373471	0.968823469365907
3.08705230474267	0.972743345183362
3.09490757944471	0.976665942691739
3.10276514292629	0.980591123554558
3.11062520050919	0.984518749191944
3.11848795781362	0.988448680763025
3.12635362082028	0.992380779148138
3.13422239593259	0.996314904930969
3.14209449003926	1.00025091838056
3.14997060456519	1.00418892641859
3.15785838368534	1.00813250613008
3.1657608271313	1.01208290988479
3.17367919914638	1.01604051926786
3.18161411567662	1.02000538854023
3.18956595139915	1.0239774480869
3.1975349922314	1.02795658060657
3.2055214925201	1.03194264963439
3.21352569652309	1.03593551020646
3.22154784651471	1.03993501283301
3.22958818588163	1.04394100496455
3.23764696034317	1.04795333151832
3.245724418471	1.05197183505235
3.25382081194812	1.05599635580702
3.26193639573202	1.06002673169641
3.27007142818392	1.06406279828037
3.27822617118735	1.06810438872875
3.28640089026499	1.07215133378217
3.29459585469695	1.07620346171074
3.30281133764204	1.08026059827154
3.3110476162627	1.08432256666483
3.31930497185367	1.0883891874892
3.32758368997491	1.09246027869546
3.335884060589	1.09653565553953
3.34420637820302	1.10061513053394
3.35255094201527	1.10469851339816
3.36091805606712	1.10878561100759
3.36930802940004	1.11287622734115
3.37772117621838	1.11697016342753
3.38615781605771	1.12106721728982
3.39461827395959	1.12516718388875
3.40310288065246	1.12926985506422
3.41161197273942	1.13337501947512
3.42014589289304	1.13748246253753
3.42870499005762	1.14159196636099
3.43728961965912	1.14570330968286
3.44590014382346	1.14981626780075
3.45453693160332	1.15393061250286
3.463200359214	1.15804611199611
3.47189081027894	1.16216253083203
3.48060867608509	1.16627962983032
3.48935435584893	1.17039716599983
3.49812825699378	1.17451489245707
3.50693079543857	1.17863255834188
3.5157623958993	1.18274990873039
3.52462349220325	1.18686668454486
3.53351452761733	1.19098262246049
3.54243595519073	1.19509745480895
3.55138823811309	1.1992109094784
3.56037185008904	1.20332270981003
3.56938727572981	1.20743257449064
3.57843501096322	1.21154021744136
3.58751556346289	1.21564534770216
3.59662945309804	1.21974766931187
3.60577721240502	1.22384688118368
3.6149593870818	1.22794267697567
3.62417653650707	1.23203474495618
3.63342923428526	1.23612276786381
3.64271806881932	1.24020642276155
3.65204364391294	1.24428538088506
3.66140657940404	1.24835930748431
3.67080751183183	1.2524278616586
3.68024709513942	1.25649069618441
3.68972600141445	1.26054745733553
3.69924492167055	1.26459778469536
3.70880456667199	1.26864131096046
3.71840566780504	1.27267766173517
3.72804897799904	1.27670645531664
3.73773527270076	1.28072730246952
3.74746535090615	1.2847398061898
3.75724003625353	1.28874356145722
3.76706017818284	1.29273815497507
3.77692665316605	1.29672316489705
3.78684036601413	1.30069816053993
3.79680225126658	1.30466270208117
3.80681327467016	1.30861634024055
3.81686035835321	1.31255312238227
3.82689367941476	1.31645302678167
3.83689519777485	1.32030886505468
3.84685897111812	1.32411829294862
3.856783607936	1.32788077052696
3.86666940254967	1.33159641718899
3.87651725282858	1.33526558269526
3.88632825320193	1.33888868732416
3.89610354286194	1.34246616292443
3.9058442502312	1.34599843171137
3.91555147364692	1.34948589913431
3.92522627559585	1.35292895195188
3.93486968195197	1.35632795820107
3.94448268300101	1.35968326782424
3.95406623504652	1.36299521349615
3.96362126215101	1.36626411148368
3.97314865785097	1.36949026247918
3.98264928679066	1.3726739523884
3.99212398626122	1.37581545306934
4.00157356764361	1.37891502302259
4.010998817761	1.38197290803637
4.020400500146	1.38498934178913
4.02977935622955	1.38796454641304
4.03913610645693	1.39089873302135
4.0484714513368	1.39379210220221
4.05778607242797	1.39664484448157
4.06708063326856	1.39945714075724
4.07635578025192	1.40222916270651
4.0856121434532	1.40496107316885
4.09485033740999	1.40765302650582
4.10407096186012	1.41030516893936
4.11327460244	1.41291763887033
4.1224618313457	1.41549056717831
4.13163320796014	1.41802407750416
4.14078927944773	1.42051828651631
4.14993058131928	1.4229733041618
4.15905763796879	1.42538923390318
4.16817096318418	1.42776617294206
4.1772710606339	1.43010421243017
4.18635842433016	1.43240343766863
4.19543353907106	1.43466392829621
4.2044968808626	1.43688575846715
4.21354891732197	1.43906899701926
4.22259010806308	1.44121370763269
4.23162090506582	1.44331994898009
4.24064175302947	1.44538777486842
4.24965308971185	1.44741723437309
4.2586553462547	1.44940837196463
4.26764894749614	1.45136122762839
4.27663431227119	1.45327583697769
4.28561185370091	1.45515223136058
4.29458197947092	1.45699043796069
4.30354509209984	1.4587904798923
4.31250158919842	1.46055237629013
4.32145186371981	1.46227614239382
4.3303963042015	1.46396178962753
4.33933529499949	1.46560932567489
4.34826921651516	1.46721875454928
4.35719844541521	1.46879007665995
4.3661233548453	1.47032328887392
4.37504431463749	1.47181838457384
4.38396169151223	1.47327535371216
4.39287584927493	1.4746941828615
4.40178714900748	1.47607485526149
4.4106959492555	1.47741735086218
4.41960260621099	1.47872164636416
4.42850747389131	1.47998771525543
4.43741090431407	1.48121552784517
4.44631324766899	1.48240505129446
4.45521485248631	1.48355624964407
4.46411606580264	1.48466908383942
4.47301723332374	1.48574351175263
4.48191869958532	1.48677948820193
4.49082080811148	1.48777696496838
4.49972390157112	1.48873589080988
4.50862832193292	1.4896562114727
4.5175344106184	1.49053786970033
4.52644250865399	1.49138080523996
4.53535295682207	1.49218495484638
4.54426609581074	1.49295025228344
4.55318226636324	1.49367662832308
4.56210180942686	1.49436401074195
4.57102506630122	1.49501232431558
4.57995237878677	1.49562149081015
4.58888408933337	1.49619142897186
4.59782054118896	1.49672205451394
4.60676207854854	1.49721328010108
4.61570904670434	1.49766501533165
4.62466179219631	1.49807716671728
4.63362066296391	1.49844963766007
4.64258600849901	1.4987823284273
4.65155818000024	1.49907513612357
4.66053753052903	1.49932795466038
4.66952441516742	1.4995406747232
4.67851919117782	1.49971318373573
4.68752221816535	1.49984536582164
4.69653385824204	1.49993710176339
4.70555447619436	1.49998826895837
4.71458443965316	1.49999874137207
4.72362411926722	1.49996838948837
4.73267388887978	1.4998970802567
4.74173412570877	1.49978467703621
4.75080521053129	1.49963103953662
4.7598875278718	1.49943602375582
4.7689814661951	1.49919948191409
4.77808741810391	1.49892126238472
4.78720578054148	1.49860120962107
4.7963369549996	1.4982391640798
4.8054813477323	1.49783496214022
4.81463936997568	1.49738843601962
4.82381143817391	1.49689941368429
4.83299797421222	1.4963677187563
4.84219940565698	1.49579317041565
4.85141616600344	1.49517558329765
4.86064869493145	1.49451476738545
4.86989743856968	1.49381052789736
4.87916284976903	1.49306266516877
4.88844538838514	1.49227097452852
4.89774552157141	1.49143524616927
4.90706372408247	1.49055526501188
4.91640047858874	1.48963081056316
4.92575627600314	1.48866165676699
4.9351316158203	1.48764757184828
4.94452700646899	1.48658831814952
4.95394296567872	1.48548365195948
4.96338002086125	1.48433332333366
4.97283870950791	1.48313707590613
4.98231957960337	1.48189464669224
4.99182319005748	1.48060576588169
5.00135011115558	1.47927015662145
5.0109009250289	1.47788753478808
5.02047622614573	1.47645760874863
5.03007662182538	1.47498007910967
5.03970273277545	1.47345463845368
5.04935519365467	1.47188097106208
5.05903465366222	1.47025875262405
5.06874177715589	1.46858764993038
5.07847724430001	1.46686732055144
5.0882417517462	1.46509741249812
5.0980360133482	1.46327756386487
5.10786076091309	1.46140740245368
5.11771674499185	1.45948654537768
5.12760473571145	1.45751459864305
5.13752552365147	1.4554911567079
5.14747992076795	1.45341580201655
5.15746876136855	1.4512881045074
5.16749290314169	1.44910762109284
5.17755322824414	1.44687389510897
5.18765064445098	1.44458645573326
5.1977860863727	1.44224481736759
5.20796051674417	1.43984847898444
5.21817492779086	1.43739692343324
5.22843034267847	1.43488961670413
5.23872781705212	1.43232600714572
5.24906844067202	1.42970552463346
5.25945333915346	1.42702757968466
5.26988367581951	1.42429156251595
5.28036065367531	1.42149684203859
5.29088551751418	1.41864276478657
5.30145955616665	1.41572865377177
5.3120841049046	1.41275380726017
5.32276054801373	1.40971749746235
5.33349032154907	1.40661896913077
5.34427491629043	1.40345743805546
5.35511588091527	1.40023208944924
5.36601482540947	1.39694207621206
5.37697342473817	1.39358651706339
5.38799342280145	1.39016449453009
5.39907663670267	1.38667505277575
5.41022496136031	1.38311719525603
5.42144037449808	1.37948988218235
5.43272494205184	1.37579202777466
5.44408082403722	1.3720224972811
5.45551028092694	1.36818010373987
5.46701568059331	1.36426360445555
5.47859950587852	1.36027169715809
5.49026436286433	1.35620301580883
5.50201298992135	1.35205612601286
5.51384826763075	1.34782951999135
5.52577322968349	1.34352161106094
5.53779107487777	1.33913072755947
5.54990518035412	1.33465510614831
5.56211911622763	1.33009288441096
5.57443666180326	1.32544209265484
5.58686182358858	1.32070064480852
5.59939885535559	1.31586632828849
5.61205228054355	1.31093679268887
5.62482691734753	1.30590953712147
5.63772790689766	1.30078189600329
5.65076074500895	1.29555102305104
5.66385032978459	1.29024684710397
5.67694951047037	1.28488899884916
5.69004192616031	1.27948507235302
5.70312285591128	1.27403804324266
5.71619196057617	1.26854911133188
5.72925055410346	1.26301878116975
5.74230058352281	1.25744727070554
5.75534425119768	1.25183466471508
5.76838387828013	1.2461809713329
5.78142185889072	1.24048614170614
5.79446064866553	1.23475007546965
5.80750276662517	1.22897262059868
5.82055080256803	1.22315357083629
5.83360742716857	1.21729266185821
5.84667540384278	1.2113895665604
5.85975760216879	1.20544388954963
5.8728570129494	1.1994551607896
5.88597676514802	1.1934228282898
5.8991201450255	1.18734624967934
5.91229061789421	1.18122468246483
5.92549185300571	1.17505727272213
5.93872775221239	1.16884304191081
5.95200248319998	1.16258087142235
5.96532051829249	1.15626948437266
5.97868668009751	1.14990742401729
5.99210619561421	1.14349302799314
6.00558476090089	1.13702439735535
6.01912861904381	1.13049935905972
6.03274465505601	1.12391542010188
6.04644051257485	1.11726971091065
6.06022473898829	1.11055891472114
6.07410696816768	1.10377917839039
6.08809815374574	1.09692599825432
6.10221087155795	1.08999407180739
6.1164597186641	1.08297710162025
6.13086185039792	1.07586753094383
6.14543772002627	1.06865617895626
6.16021212524023	1.06133172390647
6.17521573677188	1.05387994706714
6.19048741892412	1.04628258349773
6.2060779235781	1.03851549034324
6.22205613523123	1.03054554660713
6.23852049662855	1.02232497494086
6.25562232078081	1.01377974428282
6.2736217363759	1.00478171046753
6.28318530717959	0.999999999031172


0	1
0.0756903980813491	0.962218866344186
0.149255696282863	0.92575482108786
0.222118182589638	0.890080215985839
0.294894019239886	0.855072285411378
0.367909746538976	0.820759196062824
0.441390671915123	0.787228521344316
0.515533374612819	0.754594291108518
0.590536356400042	0.722985995940556
0.666616223815654	0.692546147509884
0.744020155817182	0.663431564674966
0.823039621139942	0.635816858308648
0.904028816969043	0.609900007353669
0.985526298118384	0.586427069018979
1.06585387388387	0.565999377904858
1.14461427042523	0.548707112929219
1.22188011612182	0.534479459118137
1.29786631181336	0.523212857538609
1.37281167024202	0.514811163572924
1.4469419961348	0.509195029638058
1.52046250610861	0.506301836291069
1.59355981766886	0.506083409906531
1.66640646457147	0.508503735328608
1.73916566779942	0.513537206934075
1.81199580206288	0.521167468662527
1.88505457861301	0.531386784832099
1.95850315309827	0.544195891259963
2.03251043797549	0.559604316523128
2.10725795776462	0.577631215421544
2.1829456804072	0.598306822531122
2.25979942783205	0.621674725955381
2.33808077010293	0.647795304995723
2.41810084636624	0.676750918110776
2.50024054973708	0.708653865844885
2.58211034704308	0.742440743423907
2.66256952641924	0.777363664689877
2.74143382174145	0.813031591174676
2.81885047249603	0.849216445720492
2.89505567699221	0.885760427997777
2.97029074086627	0.922535138647708
3.0447782529248	0.959424235527098
3.11871918551928	0.996316101156881
3.19229641512827	1.03310057905209
3.26627951622448	1.06996516746703
3.34110892344732	1.10692495231092
3.41704223228201	1.14388723147519
3.49427710842705	1.180708451175
3.57300030162585	1.21721446878833
3.65341001751108	1.25320658780945
3.73572959967495	1.28846171303272
3.82021993111021	1.32272957900645
3.90719445039169	1.35572781126792
3.99584731245948	1.3867364840376
4.08297937384684	1.41440168968705
4.1677571543927	1.4384487417044
4.2502380493486	1.45896564257492
4.33074124308385	1.47612175128561
4.40962118454455	1.49007806394866
4.48720019221841	1.50096648823965
4.56375685227289	1.50889020336157
4.63953127444085	1.5139287839996
4.71473383864891	1.51614324992555
4.7895534300607	1.51557996596368
4.86416434418613	1.51227339503754
4.93873200987995	1.50624792831679
5.01341790399222	1.49751899727848
5.08838404342884	1.48609360332223
5.16379741715583	1.47197033103165
5.23983472129756	1.4551388470537
5.31668780886143	1.43557882043992
5.39457038361317	1.41325811889403
5.47372669314406	1.38813001804739
5.55444338435292	1.3601289717843
5.63706642908172	1.32916416162385
5.72202643666585	1.29510942728294
5.80987849021714	1.25778694998333
5.89773642246217	1.21859566144225
5.98374233234193	1.17870628849818
6.06743596340157	1.13871732632565
6.14887039407668	1.09896058730024
6.22825580223293	1.05964793872165
6.30583045175533	1.02093572018508
6.38181992462202	0.982951862420842
6.45674961896268	0.945647829213944
6.53131043552767	0.908879799663084
6.60586144096972	0.872668832495917
6.68064051075406	0.83710050970329
6.75584517667369	0.802288018545345
6.83166597757911	0.768359246615343
6.90830270895305	0.735453213057899
6.98597528776049	0.703720386743486
7.06493420117758	0.673324998378601
7.14547332216641	0.64444890378201
7.22794768195081	0.617297280127785
7.31191376346139	0.592355085140149
7.39494180000548	0.570539746374057
7.47635717119663	0.552042333016166
7.55615598540237	0.536810975806388
7.63454953956082	0.52473580427066
7.71179521638356	0.515709182699492
7.78814153919508	0.509641136345359
7.86381506883896	0.506460590916353
7.939021281514	0.506113015504452
8.01394937167298	0.508557774031324
8.08877766314488	0.513766044633279
8.16367874729853	0.521719425912877
8.23882430311497	0.532409172845083
8.31438982828577	0.545836002359932
8.39055961262293	0.56201045529604
8.46753236374806	0.580953865645295
8.545528017714	0.602700070531248
8.62479648723374	0.627298111858965
8.70562949580308	0.654816367024763
8.78837736685857	0.685348868084566
8.87310009145114	0.718872474965767
8.95701956527011	0.754103564887052
9.03932844702831	0.790380017290719
9.11998400916401	0.827347162473974
9.19919281464041	0.86478835155701
9.27721761835547	0.902545730372511
9.3543139217738	0.940485719157835
9.43071428556548	0.978484433505335
9.50662867623591	1.01642147047399
9.58255791494639	1.05433073428653
9.65918734826335	1.09233635061627
9.73687079727722	1.13038191845224
9.81584684298581	1.16833200840674
9.89632233747185	1.20600909489944
9.97850783266829	1.24320582601145
10.0626363482049	1.27968742654957
10.1489779075925	1.31518962662402
10.2378556531189	1.34941378971587
10.3294320546674	1.38193937287569
10.4196734541514	1.41101720745803
10.5074452400935	1.43624764633399
10.5927388440992	1.45770158678196
10.6758878376912	1.47556252017447
10.7572806372418	1.49000991633269
10.8372733357866	1.50119121088521
10.9161733317375	1.50922119729134
10.9942445714809	1.51418778535319
11.0717174555442	1.51615785338584
11.1487983040086	1.51518177429656
11.2256773070872	1.51129658882506
11.3025351124462	1.5045280889029
11.3795484921246	1.49489205433265
11.4568955539825	1.48239480136319
11.5347609413312	1.4670331154406
11.6133414753592	1.44879355932595
11.6928527710443	1.4276510614092
11.7735375316717	1.40356657838782
11.8556765597903	1.37648346049564
11.9396041349508	1.34632186969875
12.0257305573934	1.31297009776954
12.11457691317	1.27627065129935
12.2055487529292	1.23657074355388
12.2952647802388	1.19562529722029
12.3826697177863	1.15432944708562
12.46762757213	1.11315541396607
12.5503126893055	1.07238255333266
12.6309780107398	1.03220279654565
12.709876498759	0.99276587585029
12.7873802533206	0.954128386523132
12.864365377345	0.916075830267317
12.9412694129429	0.878609400963789
13.0183689753179	0.841814148602646
13.0958854765644	0.805810358343654
13.1740281689403	0.770736331650394
13.2530145104839	0.73674335002397
13.3330831835104	0.703995665715799
13.4145061872401	0.672673005716706
13.4976034995088	0.642974963242045
13.5827634655337	0.615127583945501
13.669365612491	0.589698755632935
13.7549359170958	0.567618516486879
13.8388071086947	0.549069211011621
13.9209975512229	0.53398700710224
14.0017421184888	0.52225215574902
14.081319399935	0.513749971411335
14.1599965094589	0.508385814683252
14.2380166920006	0.506085779288181
14.3156010519243	0.506793928767389
14.3929541435953	0.510469405343726
14.4702701028993	0.517084240609649
14.5477384919802	0.526621962150172
14.6255498830079	0.539076929716868
14.7039014946773	0.554454348872
14.7830033222664	0.572770975897082
14.8630853284713	0.59405661780381
14.9444064725553	0.618356654302584
15.0272667362452	0.645735996254373
15.1120240043807	0.676285211995047
15.1991189811562	0.710130132920598
15.2861288314612	0.746174319572441
15.3716403561764	0.783511380117322
15.4554088945531	0.821666580402878
15.5375974191155	0.860365142105206
15.6184789893452	0.899418671362956
15.6983340416483	0.938674538557202
15.7774215064611	0.977994328982957
15.85597555597	1.01724472846679
15.9345452794353	1.05646029023681
16.0138675041266	1.09576703982707
16.0943259106163	1.13509739958891
16.1761822196793	1.17429804577979
16.2596658690143	1.21316899933776
16.3450126243185	1.25147634821087
16.4324857780929	1.28895430070592
16.5223934370927	1.32530223094618
16.6151085343809	1.36017834997555
16.7094220433985	1.39264249235001
16.8019528730118	1.42127028335594
16.8918724892905	1.44580442419568
16.9792974846248	1.46636766812459
17.0646102906032	1.48315921705795
17.1482195353516	1.49636142642336
17.2304920079689	1.50612049702706
17.3117435015625	1.5125488017708
17.3922467012995	1.51573149145789
17.4722421065039	1.51573248313669
17.5519480047369	1.51259888885652
17.6315688474982	1.50636400710736
17.711302351115	1.49704917239811
17.7913458604263	1.48466469576189
17.8719025294275	1.46921002329682
17.9531878843772	1.4506731340233
18.0354374137777	1.429029088379
18.1189160261815	1.40423750280189
18.2039306066922	1.37623852575492
18.2908476376062	1.34494655583574
18.3801192520331	1.31024032970624
18.4723238983004	1.27194679497239
18.5664960120296	1.23059576648406
18.6592252347723	1.18801109013503
18.7494760637893	1.14512687031469
18.8371432774399	1.1024385242776
18.9224304250221	1.06024105893602
19.0056153878028	1.01873834782836
19.0869722478301	0.978089967387552
19.1671940767124	0.938211533123857
19.2470415060971	0.898969852460475
19.3269230086026	0.860407341443266
19.4071195389722	0.822636262657985
19.4878718482683	0.785800061088186
19.5694177325919	0.75006030158013
19.6520116859692	0.715593747641597
19.7359397784686	0.682593919064903
19.8215356833242	0.651275319186858
19.909201960468	0.621880215675907
19.9993629894604	0.59471117361949
20.0887057621714	0.571064290477411
20.1762588022527	0.551234775446334
20.2619672152709	0.535174703477008
20.346074616247	0.522751982413099
20.4288912990507	0.513835281610849
20.5107187903045	0.508315750449751
20.591831850296	0.506108822195154
20.6724795907892	0.507151068265125
20.7528919323806	0.511396717645814
20.833286919678	0.518815011244879
20.9138777584268	0.529388541561412
20.9948795869287	0.543112503030452
21.0765163869436	0.559994795239447
21.1590286220764	0.580057010853907
21.2426823839242	0.603336466758231
21.3277811527726	0.629889616970261
21.4146818825569	0.659797472665883
21.5038182597109	0.693174160794271
21.5947111139055	0.729754579412372
21.684548240613	0.768146700428562
21.772571015907	0.807625182023246
21.858801516766	0.847795031803387
21.9435061271538	0.888408828037062
22.0269987433175	0.929281182524
22.1095788631964	0.970251546366994
22.1915184355949	1.01116850698563
22.2732913103224	1.0519959654532
22.3557969371576	1.09291111276851
22.4394922424044	1.13385194394272
22.5246803808476	1.17465129571379
22.6116222333503	1.215085479283
22.7005841737508	1.25489019644646
22.791864122984	1.29376318330795
22.8858127756992	1.33136057332877
22.9828584255827	1.36728894135377
23.0808795111039	1.400246982912
23.1767769702535	1.42895633393395
23.2698888909453	1.45324159265818
23.3604235719206	1.47326643138173
23.4488162087342	1.48924996208659
23.5355093114165	1.50138425451114
23.620894644398	1.50982015633984
23.7053089920973	1.51467194136505
23.7890446286966	1.51602493915749
23.872361784083	1.51394194404115
23.9554997417891	1.50846776173867
24.038686231625	1.49963213669424
24.1221456309017	1.48745139208471
24.2061066698746	1.47192900583379
24.2908103764814	1.45305520440819
24.3765190809757	1.43080550776322
24.4635275262976	1.40513798280231
24.5521776000261	1.37598871073683
24.6428791167523	1.34326455412032
24.7361408656643	1.30683153241164
24.8326197989192	1.26649554659522
24.9308536182157	1.22303504493211
25.027400786638	1.17836379847661
25.1212552432601	1.13346658476921
25.212353734142	1.08886895978215
25.3009388300814	1.04488632354717
25.3873215368009	1.00173816570298
25.4718040592485	0.959596964956775
25.5555199160687	0.918186582969294
25.6390702006011	0.877488323777391
25.7228239762722	0.837603110626894
25.8070701425233	0.798682317955393
25.8920794301414	0.760903301430269
25.9781340771349	0.724462399947957
26.065547344052	0.689575302059028
26.1546824377117	0.656481315787743
26.2459765735907	0.625450886889917
26.3399761911445	0.5967972859381
26.4336412455338	0.571817960944856
26.5255340025369	0.55098597452612
26.615464019141	0.534291186292528
26.7036642692711	0.521595227560095
26.7904737939902	0.512751486654342
26.8762315191136	0.507637314349803
26.9612489195701	0.506158040918991
27.0458093988087	0.508243718845932
27.1301754552829	0.513845118390509
27.2145974040648	0.522930678412552
27.2993220278325	0.535484678184758
27.3846011380168	0.551506574376507
27.4707006068497	0.571011470266603
27.5579107411527	0.594031818945264
27.6465592313785	0.620620666898676
27.7370285422329	0.650857059805541
27.8297808145088	0.684854775305707
27.9253957351313	0.722776580132453
28.0202644869427	0.762953254149931
28.1132181373922	0.804439554535547
28.2041814445071	0.846728570551423
28.2934344056743	0.889513822684093
28.3813352353996	0.932573629222761
28.4682312438708	0.975720016115349
28.5544384184011	1.01877708294202
28.6406435806404	1.06177060890523
28.727757979713	1.10483533314173
28.8162655636756	1.14786740079555
28.9065055520191	1.19065376660591
28.9987835793294	1.23291845757272
29.0934217734357	1.27433653698005
29.1907892830263	1.31453446384917
29.291330840958	1.35308326579072
29.3953345728703	1.38939677230488
29.4976809439659	1.42122858352208
29.5969857657483	1.44810517888723
29.6933058879515	1.47015513683019
29.787115713147	1.48763471971122
29.8789408045212	1.50078065510762
29.9692536730118	1.50977968800095
30.0584593594367	1.51477184490775
30.1469066965126	1.51586007372586
30.2349040669855	1.5131187630509
30.3227338248282	1.5065998049728
30.4106645646173	1.49633644359643
30.498961869853	1.48234535646496
30.5878985120483	1.46462727168422
30.6777651752798	1.44316621299689
30.7688829619422	1.41792723293113
30.8616193668367	1.38885220176092
30.9564103056854	1.35585277186967
31.0537925904151	1.31879883758321
31.1544549770008	1.27749921943712
31.258687508663	1.23195376035042
31.3615885939362	1.18468030247556
31.4616048309254	1.1369980196175
31.5585327247674	1.08960061085574
31.6526214585205	1.04288984633576
31.7442307814633	0.997134773543382
31.8337818747646	0.952509076780629
31.9225681450064	0.908711300063158
32.0112411535004	0.86575221280782
32.1002179377227	0.82376609812509
32.1898375664254	0.782941398847923
32.2804270476075	0.743496886911008
32.3723353377492	0.705675982443564
32.4659586711854	0.669749202267147
32.5617682064553	0.63602163485165
32.6603482235658	0.604845549870941
32.7601090229666	0.577239895072527
32.8583674994568	0.554190798440545
32.9545139620398	0.535827649964886
33.0486967277286	0.522021535216669
33.1412837347807	0.51260207917908
33.2326727993242	0.507420865374159
33.3232369746261	0.506363238237568
33.4133172279449	0.509345763597295
33.5032297794735	0.516311350516469
33.5932770515568	0.527225344137149
33.683759138798	0.542073243288773
33.7749855436527	0.560860059979714
33.8672879901373	0.58361133889763
33.961035744258	0.610376076161984
34.0566556275141	0.641232151159799
34.1546602774975	0.676295516508383
34.2556909454025	0.715735575700968
34.3571289392038	0.758303023880681
34.4568046073805	0.802611188437309
34.5543296399781	0.847924548539548
34.649938976236	0.89381956180506
34.7440329742966	0.940007248014074
34.8370221450993	0.986252173429788
34.9292861925649	1.03233772676547
35.0219059760834	1.07841473648445
35.115766232027	1.12452280243564
35.2113801384628	1.17047687179138
35.3091440272124	1.21597998210913
35.4094421825553	1.26066174366774
35.5126999375226	1.30408695496366
35.6194237294618	1.34575030893808
35.7302471664354	1.38506168314822
35.8404585254036	1.41970425586496
35.9475853602642	1.44873363782819
36.0513978137658	1.47218851792088
36.1523757971678	1.4903506445301
36.2511299512069	1.50350071712443
36.3482263940675	1.51186168713244
36.4441543575344	1.51559835090198
36.5393365727352	1.51482878694844
36.6341486507116	1.50963510875543
36.7289378400342	1.50007105508953
36.8240395626828	1.48616656284046
36.9197925463721	1.46792984432806
37.0165540703069	1.44534727507507
37.1147172215726	1.41838103503122
37.2147327014723	1.38696397966744
37.3171390804312	1.35099051608561
37.4226082601237	1.31030099628714
37.532019110492	1.26465453394794
37.644385296836	1.21468545268387
37.7548511727682	1.16310048616
37.8619883357241	1.11132280757772
37.9657119549094	1.06010815636132
38.0663673821169	1.00990161423505
38.164391574486	0.961006674556567
38.2611641440878	0.9131887461947
38.357659939687	0.866394113950126
38.4544653238599	0.820769450786812
38.5520345591507	0.776548325921391
38.6507964239146	0.734011814099267
38.7512083646432	0.693478778013351
38.8537965984981	0.655309652122196
38.9592008969195	0.619918951248639
39.0682393832199	0.587797376897258
39.176649612963	0.560755095419721
39.2828009214137	0.53930769810805
39.3865948565066	0.523381760943236
39.4884276977024	0.512770291293007
39.5888021908747	0.507277427630056
39.6882064694059	0.506751521226511
39.787089754604	0.511085265827797
39.8858693184849	0.520209137557304
39.9849460593253	0.534085674543197
40.0847221200114	0.552706281639806
40.1856198035862	0.576090794139076
40.2881033575479	0.604289998584803
40.392706735389	0.637391805661488
40.5000726019347	0.675532721852986
40.6110121148021	0.718918088859569
40.7229203861225	0.766245949218994
40.8329465287012	0.815703219453589
40.9405682284011	0.866317557190397
41.0460815422007	0.917529594253959
41.1499985097236	0.96895728598806
41.2528454951397	1.02028638463457
41.3556274336364	1.07147844008613
41.4597433392011	1.12268649493588
41.5659635255717	1.17369669055893
41.6748567059962	1.22411391404716
41.7869644870719	1.27342486904975
41.9028902203325	1.32101133900624
42.0233681854122	1.36613920625711
42.1476615065014	1.40740920271154
42.2695102085559	1.44206526782577
42.3874584031449	1.46966575929038
42.5018209142414	1.4904847342621
42.6133665528709	1.50489875296245
42.7228774698426	1.51321919444754
42.8310430549023	1.51567085946465
42.9384605449474	1.51240611923391
43.0456623978758	1.50352167783943
43.1531465824837	1.48907052241284
43.2614050206762	1.46906853276878
43.3709514966053	1.44349637700887
43.4823525398477	1.4122968688732
43.5962665811343	1.3753669607916
43.7134999758902	1.33254191643404
43.8350958378061	1.28356608202002
43.9624892439956	1.22803757226129
44.0898255917511	1.16908579759934
44.2136651166057	1.10933183998974
44.3333636462325	1.05015506950647
44.4492518303204	0.992321142232482
44.5621320355277	0.93620892944663
44.6740774015491	0.881472405400362
44.7862031725283	0.828233719721238
44.8992870503662	0.776814978065514
45.0140197952135	0.727642941621674
45.131127183393	0.681223449772498
45.2514567533684	0.638148247933007
45.3760760469653	0.599123958530717
45.5037884554004	0.565645566369785
45.629850827517	0.539587985897048
45.7532355785287	0.521202686581609
45.8742764702349	0.510279548678127
45.9936870367721	0.506562617954151
46.1122299174618	0.509860086256534
46.2306363785684	0.520057995873194
46.3496111097606	0.537112099777749
46.4698643487303	0.561040078393292
46.5921553762501	0.591919852017151
46.7173480782166	0.629896025154304
46.8464887689014	0.67519745803957
46.9809286500977	0.728173080188692
47.1181097333174	0.787376146203185
47.2535049953509	0.849843463858297
47.3863453704457	0.913937238533592
47.5171858632591	0.978696495525852
47.6469305126342	1.04343632461422
47.7779098850989	1.10823246802386
47.9122113842941	1.17295431103386
48.0512406132245	1.23691864183286
48.1962966623028	1.29907665720487
48.3488734195725	1.35803550942999
48.5109248466794	1.41198320377929
48.673365176931	1.45574583990915
48.8320276291434	1.48744987286916
48.9872221179925	1.5071543203279
49.1405558369566	1.51518631974939
49.2938658161232	1.5116683433521
49.4490180068951	1.49643398618091
49.6080119216405	1.4690113723416
49.7732344740999	1.42856705841125
49.947913826739	1.37374465867106
50.1370719499404	1.30225565532567
50.2654824574367	1.24776925092875
