<?xml version="1.0" encoding="utf-8"  standalone="no"?>
<svg 
 width="600" height="480"
 viewBox="0 0 600 480"
 xmlns="http://www.w3.org/2000/svg"
 xmlns:xlink="http://www.w3.org/1999/xlink"
>

<title>Gnuplot</title>
<desc>Produced by GNUPLOT 5.2 patchlevel 8 </desc>

<g id="gnuplot_canvas">

<rect x="0" y="0" width="600" height="480" fill="none"/>
<defs>

	<circle id='gpDot' r='0.5' stroke-width='0.5' stroke='currentColor'/>
	<path id='gpPt0' stroke-width='0.222' stroke='currentColor' d='M-1,0 h2 M0,-1 v2'/>
	<path id='gpPt1' stroke-width='0.222' stroke='currentColor' d='M-1,-1 L1,1 M1,-1 L-1,1'/>
	<path id='gpPt2' stroke-width='0.222' stroke='currentColor' d='M-1,0 L1,0 M0,-1 L0,1 M-1,-1 L1,1 M-1,1 L1,-1'/>
	<rect id='gpPt3' stroke-width='0.222' stroke='currentColor' x='-1' y='-1' width='2' height='2'/>
	<rect id='gpPt4' stroke-width='0.222' stroke='currentColor' fill='currentColor' x='-1' y='-1' width='2' height='2'/>
	<circle id='gpPt5' stroke-width='0.222' stroke='currentColor' cx='0' cy='0' r='1'/>
	<use xlink:href='#gpPt5' id='gpPt6' fill='currentColor' stroke='none'/>
	<path id='gpPt7' stroke-width='0.222' stroke='currentColor' d='M0,-1.33 L-1.33,0.67 L1.33,0.67 z'/>
	<use xlink:href='#gpPt7' id='gpPt8' fill='currentColor' stroke='none'/>
	<use xlink:href='#gpPt7' id='gpPt9' stroke='currentColor' transform='rotate(180)'/>
	<use xlink:href='#gpPt9' id='gpPt10' fill='currentColor' stroke='none'/>
	<use xlink:href='#gpPt3' id='gpPt11' stroke='currentColor' transform='rotate(45)'/>
	<use xlink:href='#gpPt11' id='gpPt12' fill='currentColor' stroke='none'/>
	<path id='gpPt13' stroke-width='0.222' stroke='currentColor' d='M0,1.330 L1.265,0.411 L0.782,-1.067 L-0.782,-1.076 L-1.265,0.411 z'/>
	<use xlink:href='#gpPt13' id='gpPt14' fill='currentColor' stroke='none'/>
	<filter id='textbox' filterUnits='objectBoundingBox' x='0' y='0' height='1' width='1'>
	  <feFlood flood-color='white' flood-opacity='1' result='bgnd'/>
	  <feComposite in='SourceGraphic' in2='bgnd' operator='atop'/>
	</filter>
	<filter id='greybox' filterUnits='objectBoundingBox' x='0' y='0' height='1' width='1'>
	  <feFlood flood-color='lightgrey' flood-opacity='1' result='grey'/>
	  <feComposite in='SourceGraphic' in2='grey' operator='atop'/>
	</filter>
</defs>
<g fill="none" color="white" stroke="currentColor" stroke-width="1.00" stroke-linecap="butt" stroke-linejoin="miter">
</g>
<g fill="none" color="black" stroke="currentColor" stroke-width="1.00" stroke-linecap="butt" stroke-linejoin="miter">
	<path stroke='black'  d='M105.1,422.4 L114.1,422.4 M575.0,422.4 L566.0,422.4  '/>	<g transform="translate(96.8,426.3)" stroke="none" fill="black" font-family="Arial" font-size="12.00"  text-anchor="end">
		<text><tspan font-family="Arial" >-1.5x10</tspan><tspan font-family="Arial"  font-size="9.6" dy="-6.00px">-6</tspan><tspan font-size="12.0" dy="6.00"></tspan></text>
	</g>
</g>
<g fill="none" color="black" stroke="currentColor" stroke-width="1.00" stroke-linecap="butt" stroke-linejoin="miter">
	<path stroke='black'  d='M105.1,369.8 L114.1,369.8 M575.0,369.8 L566.0,369.8  '/>	<g transform="translate(96.8,373.7)" stroke="none" fill="black" font-family="Arial" font-size="12.00"  text-anchor="end">
		<text><tspan font-family="Arial" >-1x10</tspan><tspan font-family="Arial"  font-size="9.6" dy="-6.00px">-6</tspan><tspan font-size="12.0" dy="6.00"></tspan></text>
	</g>
</g>
<g fill="none" color="black" stroke="currentColor" stroke-width="1.00" stroke-linecap="butt" stroke-linejoin="miter">
	<path stroke='black'  d='M105.1,317.2 L114.1,317.2 M575.0,317.2 L566.0,317.2  '/>	<g transform="translate(96.8,321.1)" stroke="none" fill="black" font-family="Arial" font-size="12.00"  text-anchor="end">
		<text><tspan font-family="Arial" >-5x10</tspan><tspan font-family="Arial"  font-size="9.6" dy="-6.00px">-7</tspan><tspan font-size="12.0" dy="6.00"></tspan></text>
	</g>
</g>
<g fill="none" color="black" stroke="currentColor" stroke-width="1.00" stroke-linecap="butt" stroke-linejoin="miter">
	<path stroke='black'  d='M105.1,264.6 L114.1,264.6 M575.0,264.6 L566.0,264.6  '/>	<g transform="translate(96.8,268.5)" stroke="none" fill="black" font-family="Arial" font-size="12.00"  text-anchor="end">
		<text><tspan font-family="Arial" > 0</tspan></text>
	</g>
</g>
<g fill="none" color="black" stroke="currentColor" stroke-width="1.00" stroke-linecap="butt" stroke-linejoin="miter">
	<path stroke='black'  d='M105.1,211.9 L114.1,211.9 M575.0,211.9 L566.0,211.9  '/>	<g transform="translate(96.8,215.8)" stroke="none" fill="black" font-family="Arial" font-size="12.00"  text-anchor="end">
		<text><tspan font-family="Arial" > 5x10</tspan><tspan font-family="Arial"  font-size="9.6" dy="-6.00px">-7</tspan><tspan font-size="12.0" dy="6.00"></tspan></text>
	</g>
</g>
<g fill="none" color="black" stroke="currentColor" stroke-width="1.00" stroke-linecap="butt" stroke-linejoin="miter">
	<path stroke='black'  d='M105.1,159.3 L114.1,159.3 M575.0,159.3 L566.0,159.3  '/>	<g transform="translate(96.8,163.2)" stroke="none" fill="black" font-family="Arial" font-size="12.00"  text-anchor="end">
		<text><tspan font-family="Arial" > 1x10</tspan><tspan font-family="Arial"  font-size="9.6" dy="-6.00px">-6</tspan><tspan font-size="12.0" dy="6.00"></tspan></text>
	</g>
</g>
<g fill="none" color="black" stroke="currentColor" stroke-width="1.00" stroke-linecap="butt" stroke-linejoin="miter">
	<path stroke='black'  d='M105.1,106.7 L114.1,106.7 M575.0,106.7 L566.0,106.7  '/>	<g transform="translate(96.8,110.6)" stroke="none" fill="black" font-family="Arial" font-size="12.00"  text-anchor="end">
		<text><tspan font-family="Arial" > 1.5x10</tspan><tspan font-family="Arial"  font-size="9.6" dy="-6.00px">-6</tspan><tspan font-size="12.0" dy="6.00"></tspan></text>
	</g>
</g>
<g fill="none" color="black" stroke="currentColor" stroke-width="1.00" stroke-linecap="butt" stroke-linejoin="miter">
	<path stroke='black'  d='M105.1,54.1 L114.1,54.1 M575.0,54.1 L566.0,54.1  '/>	<g transform="translate(96.8,58.0)" stroke="none" fill="black" font-family="Arial" font-size="12.00"  text-anchor="end">
		<text><tspan font-family="Arial" > 2x10</tspan><tspan font-family="Arial"  font-size="9.6" dy="-6.00px">-6</tspan><tspan font-size="12.0" dy="6.00"></tspan></text>
	</g>
</g>
<g fill="none" color="black" stroke="currentColor" stroke-width="1.00" stroke-linecap="butt" stroke-linejoin="miter">
	<path stroke='black'  d='M105.1,422.4 L105.1,413.4 M105.1,54.1 L105.1,63.1  '/>	<g transform="translate(105.1,444.3)" stroke="none" fill="black" font-family="Arial" font-size="12.00"  text-anchor="middle">
		<text><tspan font-family="Arial" > 0</tspan></text>
	</g>
</g>
<g fill="none" color="black" stroke="currentColor" stroke-width="1.00" stroke-linecap="butt" stroke-linejoin="miter">
	<path stroke='black'  d='M172.2,422.4 L172.2,413.4 M172.2,54.1 L172.2,63.1  '/>	<g transform="translate(172.2,444.3)" stroke="none" fill="black" font-family="Arial" font-size="12.00"  text-anchor="middle">
		<text><tspan font-family="Arial" > 1</tspan></text>
	</g>
</g>
<g fill="none" color="black" stroke="currentColor" stroke-width="1.00" stroke-linecap="butt" stroke-linejoin="miter">
	<path stroke='black'  d='M239.4,422.4 L239.4,413.4 M239.4,54.1 L239.4,63.1  '/>	<g transform="translate(239.4,444.3)" stroke="none" fill="black" font-family="Arial" font-size="12.00"  text-anchor="middle">
		<text><tspan font-family="Arial" > 2</tspan></text>
	</g>
</g>
<g fill="none" color="black" stroke="currentColor" stroke-width="1.00" stroke-linecap="butt" stroke-linejoin="miter">
	<path stroke='black'  d='M306.5,422.4 L306.5,413.4 M306.5,54.1 L306.5,63.1  '/>	<g transform="translate(306.5,444.3)" stroke="none" fill="black" font-family="Arial" font-size="12.00"  text-anchor="middle">
		<text><tspan font-family="Arial" > 3</tspan></text>
	</g>
</g>
<g fill="none" color="black" stroke="currentColor" stroke-width="1.00" stroke-linecap="butt" stroke-linejoin="miter">
	<path stroke='black'  d='M373.6,422.4 L373.6,413.4 M373.6,54.1 L373.6,63.1  '/>	<g transform="translate(373.6,444.3)" stroke="none" fill="black" font-family="Arial" font-size="12.00"  text-anchor="middle">
		<text><tspan font-family="Arial" > 4</tspan></text>
	</g>
</g>
<g fill="none" color="black" stroke="currentColor" stroke-width="1.00" stroke-linecap="butt" stroke-linejoin="miter">
	<path stroke='black'  d='M440.7,422.4 L440.7,413.4 M440.7,54.1 L440.7,63.1  '/>	<g transform="translate(440.7,444.3)" stroke="none" fill="black" font-family="Arial" font-size="12.00"  text-anchor="middle">
		<text><tspan font-family="Arial" > 5</tspan></text>
	</g>
</g>
<g fill="none" color="black" stroke="currentColor" stroke-width="1.00" stroke-linecap="butt" stroke-linejoin="miter">
	<path stroke='black'  d='M507.9,422.4 L507.9,413.4 M507.9,54.1 L507.9,63.1  '/>	<g transform="translate(507.9,444.3)" stroke="none" fill="black" font-family="Arial" font-size="12.00"  text-anchor="middle">
		<text><tspan font-family="Arial" > 6</tspan></text>
	</g>
</g>
<g fill="none" color="black" stroke="currentColor" stroke-width="1.00" stroke-linecap="butt" stroke-linejoin="miter">
	<path stroke='black'  d='M575.0,422.4 L575.0,413.4 M575.0,54.1 L575.0,63.1  '/>	<g transform="translate(575.0,444.3)" stroke="none" fill="black" font-family="Arial" font-size="12.00"  text-anchor="middle">
		<text><tspan font-family="Arial" > 7</tspan></text>
	</g>
</g>
<g fill="none" color="black" stroke="currentColor" stroke-width="1.00" stroke-linecap="butt" stroke-linejoin="miter">
</g>
<g fill="none" color="black" stroke="currentColor" stroke-width="1.00" stroke-linecap="butt" stroke-linejoin="miter">
	<path stroke='black'  d='M105.1,54.1 L105.1,422.4 L575.0,422.4 L575.0,54.1 L105.1,54.1 Z  '/></g>
<g fill="none" color="black" stroke="currentColor" stroke-width="1.00" stroke-linecap="butt" stroke-linejoin="miter">
	<g transform="translate(19.0,238.3) rotate(270)" stroke="none" fill="black" font-family="Arial" font-size="12.00"  text-anchor="middle">
		<text><tspan font-family="Arial" >Error</tspan></text>
	</g>
</g>
<g fill="none" color="black" stroke="currentColor" stroke-width="1.00" stroke-linecap="butt" stroke-linejoin="miter">
	<g transform="translate(340.0,471.3)" stroke="none" fill="black" font-family="Arial" font-size="12.00"  text-anchor="middle">
		<text><tspan font-family="Arial" >x</tspan></text>
	</g>
</g>
<g fill="none" color="black" stroke="currentColor" stroke-width="1.00" stroke-linecap="butt" stroke-linejoin="miter">
	<g transform="translate(340.0,31.0)" stroke="none" fill="black" font-family="Arial" font-size="12.00"  text-anchor="middle">
		<text><tspan font-family="Arial" >Error in the found solution to u = -u</tspan></text>
	</g>
</g>
<g fill="none" color="black" stroke="currentColor" stroke-width="1.00" stroke-linecap="butt" stroke-linejoin="miter">
</g>
	<g id="gnuplot_plot_1" ><title>Error of Sin(x)</title>
<g fill="none" color="black" stroke="currentColor" stroke-width="1.00" stroke-linecap="butt" stroke-linejoin="miter">
	<g transform="translate(507.9,76.0)" stroke="none" fill="black" font-family="Arial" font-size="12.00"  text-anchor="end">
		<text><tspan font-family="Arial" >Error of Sin(x)</tspan></text>
	</g>
</g>
<g fill="none" color="black" stroke="currentColor" stroke-width="1.00" stroke-linecap="butt" stroke-linejoin="miter">
	<path stroke='rgb(148,   0, 211)'  d='M516.2,72.1 L558.4,72.1 M105.1,264.6 L107.9,101.6 L110.6,119.4 L113.3,126.0 L116.0,129.0 L118.6,130.8
		L121.3,132.3 L124.0,133.8 L126.6,135.4 L129.3,137.2 L131.9,139.2 L134.6,141.4 L137.2,143.8 L139.9,146.4
		L142.6,149.1 L145.2,152.1 L147.9,155.2 L150.5,158.5 L153.2,161.9 L155.8,165.6 L158.5,169.3 L161.2,173.3
		L163.8,177.3 L166.5,181.5 L169.1,185.8 L171.8,190.3 L174.4,194.9 L177.1,199.5 L179.8,204.3 L182.4,209.2
		L185.1,214.2 L187.7,219.2 L190.4,224.3 L193.0,229.5 L195.7,234.7 L198.4,240.0 L201.0,245.3 L203.7,250.7
		L206.3,256.0 L209.0,261.4 L211.6,266.8 L214.3,272.2 L217.0,277.5 L219.6,282.9 L222.3,288.2 L224.9,293.5
		L227.6,298.7 L230.2,303.9 L232.9,309.0 L235.6,314.1 L238.2,319.1 L240.9,324.0 L243.5,328.7 L246.2,333.4
		L248.8,338.0 L251.5,342.5 L254.2,346.9 L256.8,351.1 L259.5,355.2 L262.1,359.1 L264.8,362.9 L267.4,366.6
		L270.1,370.0 L272.8,373.4 L275.4,376.5 L278.1,379.5 L280.7,382.3 L283.4,384.9 L286.0,387.3 L288.7,389.5
		L291.4,391.6 L294.0,393.4 L296.7,395.0 L299.3,396.4 L302.0,397.7 L304.6,398.7 L307.3,399.5 L310.0,400.1
		L312.6,400.4 L315.3,400.6 L317.9,400.6 L320.6,400.3 L323.2,399.8 L325.9,399.1 L328.6,398.2 L331.2,397.1
		L333.9,395.8 L336.5,394.3 L339.2,392.6 L341.8,390.6 L344.5,388.5 L347.2,386.2 L349.8,383.7 L352.5,381.0
		L355.1,378.1 L357.8,375.1 L360.4,371.9 L363.1,368.5 L365.8,364.9 L368.4,361.2 L371.1,357.3 L373.7,353.3
		L376.4,349.2 L379.0,344.9 L381.7,340.5 L384.4,336.0 L387.0,331.3 L389.7,326.6 L392.3,321.7 L395.0,316.8
		L397.6,311.8 L400.3,306.7 L403.0,301.5 L405.6,296.3 L408.3,291.1 L410.9,285.8 L413.6,280.4 L416.2,275.1
		L418.9,269.7 L421.6,264.3 L424.2,258.9 L426.9,253.6 L429.5,248.2 L432.2,242.9 L434.8,237.6 L437.5,232.3
		L440.2,227.1 L442.8,222.0 L445.5,216.9 L448.1,211.9 L450.8,207.0 L453.4,202.1 L456.1,197.4 L458.8,192.8
		L461.4,188.2 L464.1,183.8 L466.7,179.6 L469.4,175.4 L472.0,171.4 L474.7,167.6 L477.4,163.9 L480.0,160.3
		L482.7,157.0 L485.3,153.8 L488.0,150.7 L490.6,147.9 L493.3,145.2 L496.0,142.7 L498.6,140.4 L501.3,138.3
		L503.9,136.4 L506.6,134.7 L509.2,133.2 L511.9,131.9 L514.6,130.8 L517.2,129.9 L519.9,129.2 L522.5,128.8
		L525.2,128.5 L526.9,228.8  '/></g>
	</g>
	<g id="gnuplot_plot_2" ><title>Error of Cos(x)</title>
<g fill="none" color="black" stroke="currentColor" stroke-width="1.00" stroke-linecap="butt" stroke-linejoin="miter">
	<g transform="translate(507.9,94.0)" stroke="none" fill="black" font-family="Arial" font-size="12.00"  text-anchor="end">
		<text><tspan font-family="Arial" >Error of Cos(x)</tspan></text>
	</g>
</g>
<g fill="none" color="black" stroke="currentColor" stroke-width="1.00" stroke-linecap="butt" stroke-linejoin="miter">
	<path stroke='rgb(  0, 158, 115)'  d='M516.2,90.1 L558.4,90.1 M105.1,264.6 L107.9,271.4 L110.6,276.6 L113.3,281.6 L116.0,286.7 L118.6,291.9
		L121.3,297.1 L124.0,302.3 L126.6,307.4 L129.3,312.5 L131.9,317.5 L134.6,322.4 L137.2,327.2 L139.9,332.0
		L142.6,336.6 L145.2,341.1 L147.9,345.5 L150.5,349.8 L153.2,353.9 L155.8,357.9 L158.5,361.7 L161.2,365.4
		L163.8,369.0 L166.5,372.3 L169.1,375.5 L171.8,378.6 L174.4,381.4 L177.1,384.1 L179.8,386.6 L182.4,388.8
		L185.1,390.9 L187.7,392.8 L190.4,394.5 L193.0,396.0 L195.7,397.3 L198.4,398.4 L201.0,399.2 L203.7,399.9
		L206.3,400.3 L209.0,400.6 L211.6,400.6 L214.3,400.4 L217.0,400.0 L219.6,399.4 L222.3,398.5 L224.9,397.5
		L227.6,396.3 L230.2,394.8 L232.9,393.1 L235.6,391.3 L238.2,389.2 L240.9,387.0 L243.5,384.5 L246.2,381.9
		L248.8,379.1 L251.5,376.1 L254.2,372.9 L256.8,369.6 L259.5,366.0 L262.1,362.4 L264.8,358.6 L267.4,354.6
		L270.1,350.5 L272.8,346.2 L275.4,341.9 L278.1,337.4 L280.7,332.8 L283.4,328.1 L286.0,323.3 L288.7,318.4
		L291.4,313.4 L294.0,308.3 L296.7,303.2 L299.3,298.0 L302.0,292.7 L304.6,287.5 L307.3,282.1 L310.0,276.8
		L312.6,271.4 L315.3,266.0 L317.9,260.6 L320.6,255.3 L323.2,249.9 L325.9,244.6 L328.6,239.2 L331.2,234.0
		L333.9,228.7 L336.5,223.6 L339.2,218.5 L341.8,213.5 L344.5,208.5 L347.2,203.6 L349.8,198.9 L352.5,194.2
		L355.1,189.7 L357.8,185.2 L360.4,180.9 L363.1,176.7 L365.8,172.7 L368.4,168.8 L371.1,165.0 L373.7,161.4
		L376.4,158.0 L379.0,154.7 L381.7,151.7 L384.4,148.7 L387.0,146.0 L389.7,143.5 L392.3,141.1 L395.0,138.9
		L397.6,137.0 L400.3,135.2 L403.0,133.6 L405.6,132.3 L408.3,131.1 L410.9,130.2 L413.6,129.4 L416.2,128.9
		L418.9,128.6 L421.6,128.5 L424.2,128.6 L426.9,128.9 L429.5,129.5 L432.2,130.2 L434.8,131.2 L437.5,132.4
		L440.2,133.8 L442.8,135.3 L445.5,137.1 L448.1,139.1 L450.8,141.3 L453.4,143.7 L456.1,146.2 L458.8,149.0
		L461.4,151.9 L464.1,155.0 L466.7,158.3 L469.4,161.8 L472.0,165.4 L474.7,169.1 L477.4,173.0 L480.0,177.1
		L482.7,181.3 L485.3,185.6 L488.0,190.1 L490.6,194.6 L493.3,199.3 L496.0,204.1 L498.6,208.9 L501.3,213.9
		L503.9,218.9 L506.6,224.0 L509.2,229.2 L511.9,234.4 L514.6,239.7 L517.2,245.0 L519.9,250.4 L522.5,255.7
		L525.2,261.1 L526.9,264.6  '/></g>
	</g>
<g fill="none" color="white" stroke="rgb(  0, 158, 115)" stroke-width="2.00" stroke-linecap="butt" stroke-linejoin="miter">
</g>
<g fill="none" color="black" stroke="currentColor" stroke-width="2.00" stroke-linecap="butt" stroke-linejoin="miter">
</g>
<g fill="none" color="black" stroke="black" stroke-width="1.00" stroke-linecap="butt" stroke-linejoin="miter">
</g>
<g fill="none" color="black" stroke="currentColor" stroke-width="1.00" stroke-linecap="butt" stroke-linejoin="miter">
	<path stroke='black'  d='M105.1,54.1 L105.1,422.4 L575.0,422.4 L575.0,54.1 L105.1,54.1 Z  '/></g>
<g fill="none" color="black" stroke="currentColor" stroke-width="1.00" stroke-linecap="butt" stroke-linejoin="miter">
</g>
</g>
</svg>

